Type,Name,Request Count,Failure Count,Median Response Time,Average Response Time,Min Response Time,Max Response Time,Average Content Size,Requests/s,Failures/s,50%,66%,75%,80%,90%,95%,98%,99%,99.9%,99.99%,100%
GET,/prod/credit,5,0,410.0,409.6000000135973,390.00000001396984,437.99999996554106,22.0,0.0006943613662685281,0.0,410,420,420,440,440,440,440,440,440,440,440
,Aggregated,5,0,410.0,409.6000000135973,390.00000001396984,437.99999996554106,22.0,0.0006943613662685281,0.0,410,420,420,440,440,440,440,440,440,440,440
