Type,Name,Request Count,Failure Count,Median Response Time,Average Response Time,Min Response Time,Max Response Time,Average Content Size,Requests/s,Failures/s,50%,66%,75%,80%,90%,95%,98%,99%,99.9%,99.99%,100%
GET,/prod/credit,4877,0,32,45.75989337843114,15.000000013969839,297.0000000204891,22.0,82.18300514007261,0.0,32,47,47,47,62,140,170,190,220,300,300
,Aggregated,4877,0,32,45.75989337843114,15.000000013969839,297.0000000204891,22.0,82.18300514007261,0.0,32,47,47,47,62,140,170,190,220,300,300
