Timestamp,User Count,Type,Name,Requests/s,Failures/s,50%,66%,75%,80%,90%,95%,98%,99%,99.9%,99.99%,100%,Total Request Count,Total Failure Count,Total Median Response Time,Total Average Response Time,Total Min Response Time,Total Max Response Time,Total Average Content Size
1621872993,1,,Aggregated,0.000000,0.000000,N/A,N/A,N/A,N/A,N/A,N/A,N/A,N/A,N/A,N/A,N/A,0,0,0,0,0,0,0
1621872994,63,,Aggregated,0.000000,0.000000,94,110,110,120,120,140,140,140,140,140,140,57,0,94,99.4912280778711,62.000000034458935,141.0000000614673,20.0
1621872995,129,,Aggregated,0.000000,0.000000,94,110,110,120,120,140,140,160,160,160,160,122,0,94,100.68032787597478,61.99999991804361,156.00000007543713,20.0
1621872996,192,,Aggregated,11.000000,0.000000,110,110,110,120,140,140,160,160,160,160,160,186,0,110.0,103.33333333881612,61.99999991804361,156.00000007543713,20.0
1621872997,245,,Aggregated,35.500000,0.000000,94,110,120,120,140,160,200,220,230,230,230,294,0,94,99.02380952741444,15.000000013969839,233.9999999385327,20.0
1621872998,250,,Aggregated,45.333333,0.000000,94,110,110,120,140,160,170,200,230,230,230,371,0,94,86.98382749814651,0,233.9999999385327,20.0
1621872999,250,,Aggregated,51.750000,0.000000,78,110,110,120,140,160,170,200,230,230,230,435,0,78,76.47126437266539,0,233.9999999385327,20.0
1621873000,250,,Aggregated,64.200000,0.000000,62,94,110,110,120,140,170,200,230,230,230,546,0,62,65.1208791248978,0,233.9999999385327,20.0
1621873001,250,,Aggregated,64.000000,0.000000,32,79,94,110,120,140,160,200,230,230,230,622,0,32,59.40514469801499,0,233.9999999385327,20.0
1621873002,250,,Aggregated,64.857143,0.000000,31,78,94,110,120,140,160,200,230,230,230,686,0,31,55.52332361860733,0,233.9999999385327,20.0
1621873003,250,,Aggregated,71.375000,0.000000,31,62,94,94,120,140,160,170,230,230,230,796,0,31,50.541457288369685,0,233.9999999385327,20.0
1621873004,250,,Aggregated,70.444444,0.000000,31,47,78,94,120,140,160,170,230,230,230,874,0,31,47.86155606687679,0,233.9999999385327,20.0
1621873005,250,,Aggregated,70.500000,0.000000,16,32,78,94,110,120,160,170,230,230,230,941,0,16,45.831030821224815,0,233.9999999385327,20.0
1621873006,250,,Aggregated,81.000000,0.000000,16,31,62,93,110,120,160,170,220,230,230,1055,0,16,42.98293839155816,0,233.9999999385327,20.0
1621873007,250,,Aggregated,81.300000,0.000000,16,31,62,78,110,120,160,160,220,230,230,1128,0,16,41.436170215853856,0,233.9999999385327,20.0
1621873008,250,,Aggregated,81.800000,0.000000,16,31,47,78,110,120,140,160,220,230,230,1192,0,16,40.10067114371325,0,233.9999999385327,20.0
1621873009,250,,Aggregated,86.200000,0.000000,16,31,32,63,110,120,140,160,220,230,230,1307,0,16,38.10941086707575,0,233.9999999385327,20.0
1621873010,250,,Aggregated,81.300000,0.000000,16,31,32,62,110,120,140,160,220,230,230,1378,0,16,36.99709724513909,0,233.9999999385327,20.0
1621873011,250,,Aggregated,82.100000,0.000000,16,31,32,47,110,120,140,160,220,230,230,1444,0,16,36.077562329624435,0,233.9999999385327,20.0
1621873012,250,,Aggregated,86.600000,0.000000,16,31,31,47,94,120,140,160,220,230,230,1557,0,16,34.809248557738364,0,233.9999999385327,20.0
1621873013,250,,Aggregated,81.300000,0.000000,16,31,31,32,94,120,140,160,220,230,230,1630,0,16,34.05276073887087,0,233.9999999385327,20.0
1621873014,250,,Aggregated,82.000000,0.000000,16,31,31,32,94,120,140,160,220,230,230,1697,0,16,33.42251031491884,0,233.9999999385327,20.0
1621873015,250,,Aggregated,86.300000,0.000000,16,31,31,32,94,110,140,160,220,230,230,1809,0,16,32.644555005211444,0,233.9999999385327,20.0
1621873016,250,,Aggregated,81.300000,0.000000,16,31,31,32,94,110,140,160,220,230,230,1881,0,16,32.058479535085944,0,233.9999999385327,20.0
1621873017,250,,Aggregated,82.000000,0.000000,16,31,31,32,94,110,140,160,220,230,230,1949,0,16,31.577219089455884,0,233.9999999385327,20.0
1621873018,250,,Aggregated,86.600000,0.000000,16,31,31,32,93,110,140,160,220,230,230,2060,0,16,30.83495145891929,0,233.9999999385327,20.0
1621873019,250,,Aggregated,81.500000,0.000000,16,31,31,31,79,110,140,160,220,230,230,2131,0,16,30.421398407062895,0,233.9999999385327,20.0
1621873020,250,,Aggregated,82.000000,0.000000,16,31,31,31,78,110,140,160,220,230,230,2199,0,16,30.058208279400173,0,233.9999999385327,20.0
1621873021,250,,Aggregated,86.600000,0.000000,16,31,31,31,78,110,120,140,220,230,230,2311,0,16,29.55041108031329,0,233.9999999385327,20.0
1621873022,250,,Aggregated,81.400000,0.000000,16,31,31,31,78,110,120,140,220,230,230,2381,0,16,29.21923561836642,0,233.9999999385327,20.0
1621873023,250,,Aggregated,82.000000,0.000000,16,16,31,31,78,110,120,140,220,230,230,2449,0,16,28.82564312288984,0,233.9999999385327,20.0
1621873024,250,,Aggregated,86.600000,0.000000,16,16,31,31,63,110,120,140,220,230,230,2561,0,16,28.43928153360061,0,233.9999999385327,20.0
1621873025,250,,Aggregated,81.600000,0.000000,16,16,31,31,62,110,120,140,220,230,230,2634,0,16,28.202733488096843,0,233.9999999385327,20.0
1621873026,250,,Aggregated,82.000000,0.000000,16,16,31,31,62,110,120,140,220,230,230,2702,0,16,27.928571431410894,0,233.9999999385327,20.0
1621873027,250,,Aggregated,86.600000,0.000000,16,16,31,31,62,110,120,140,220,230,230,2819,0,16,27.492727920295405,0,233.9999999385327,20.0
1621873028,250,,Aggregated,81.400000,0.000000,16,16,31,31,47,110,120,140,220,230,230,2884,0,16,27.274271847521007,0,233.9999999385327,20.0
1621873029,250,,Aggregated,82.100000,0.000000,16,16,31,31,47,110,120,140,220,230,230,2954,0,16,27.0446851756471,0,233.9999999385327,20.0
1621873031,250,,Aggregated,86.700000,0.000000,16,16,31,31,47,94,120,140,200,230,230,3065,0,16,26.742251226632913,0,233.9999999385327,20.0
1621873032,250,,Aggregated,81.300000,0.000000,16,16,31,31,47,94,120,140,200,230,230,3134,0,16,26.647415446654204,0,233.9999999385327,20.0
1621873033,250,,Aggregated,82.000000,0.000000,16,16,31,31,47,94,120,140,200,230,230,3206,0,16,26.470368063210667,0,233.9999999385327,20.0
1621873034,250,,Aggregated,86.100000,0.000000,16,16,31,31,47,94,120,140,200,230,230,3320,0,16,26.172590364613683,0,233.9999999385327,20.0
1621873035,250,,Aggregated,81.400000,0.000000,16,16,31,31,47,94,120,140,200,230,230,3384,0,16,25.96572104325583,0,233.9999999385327,20.0
1621873036,250,,Aggregated,86.600000,0.000000,16,16,31,31,32,94,120,140,200,230,230,3457,0,16,25.77205669970136,0,233.9999999385327,20.0
1621873037,250,,Aggregated,86.600000,0.000000,16,16,31,31,32,94,120,140,200,230,230,3571,0,16,25.527583313187847,0,233.9999999385327,20.0
1621873038,250,,Aggregated,81.900000,0.000000,16,16,31,31,32,94,120,140,200,230,230,3636,0,16,25.37926292964908,0,233.9999999385327,20.0
1621873039,250,,Aggregated,86.600000,0.000000,16,16,31,31,32,94,120,140,200,230,230,3710,0,16,25.24043127010775,0,233.9999999385327,20.0
1621873040,250,,Aggregated,81.300000,0.000000,16,16,31,31,32,94,120,140,200,230,230,3823,0,16,24.96364112282496,0,233.9999999385327,20.0
1621873041,250,,Aggregated,82.000000,0.000000,16,16,31,31,32,94,120,140,200,230,230,3886,0,16,24.83890890683648,0,233.9999999385327,20.0
1621873042,250,,Aggregated,86.700000,0.000000,16,16,31,31,32,94,120,140,200,230,230,3955,0,16,24.73451327759179,0,233.9999999385327,20.0
1621873043,250,,Aggregated,81.900000,0.000000,16,16,31,31,32,93,120,140,200,230,230,4075,0,16,24.658404911434037,0,233.9999999385327,20.0
1621873044,250,,Aggregated,82.000000,0.000000,16,16,31,31,32,93,120,140,200,230,230,4136,0,16,24.534816251021972,0,233.9999999385327,20.0
