Type,Name,Request Count,Failure Count,Median Response Time,Average Response Time,Min Response Time,Max Response Time,Average Content Size,Requests/s,Failures/s,50%,66%,75%,80%,90%,95%,98%,99%,99.9%,99.99%,100%
GET,/credit,4822,0,46,98.5145167981563,15.000000013969839,8202.99999997951,20.0,81.24677530293869,0.0,46,47,47,63,110,160,1200,1800,5700,8200,8200
,Aggregated,4822,0,46,98.5145167981563,15.000000013969839,8202.99999997951,20.0,81.24677530293869,0.0,46,47,47,63,110,160,1200,1800,5700,8200,8200
