Type,Name,Request Count,Failure Count,Median Response Time,Average Response Time,Min Response Time,Max Response Time,Average Content Size,Requests/s,Failures/s,50%,66%,75%,80%,90%,95%,98%,99%,99.9%,99.99%,100%
GET,/credit,5,0,1100.0,1128.00000004936,844.0000000409782,1578.0000000959262,20.0,0.0006942312396045511,0.0,1100,1100,1100,1600,1600,1600,1600,1600,1600,1600,1600
,Aggregated,5,0,1100.0,1128.00000004936,844.0000000409782,1578.0000000959262,20.0,0.0006942312396045511,0.0,1100,1100,1100,1600,1600,1600,1600,1600,1600,1600,1600
