Timestamp,User Count,Type,Name,Requests/s,Failures/s,50%,66%,75%,80%,90%,95%,98%,99%,99.9%,99.99%,100%,Total Request Count,Total Failure Count,Total Median Response Time,Total Average Response Time,Total Min Response Time,Total Max Response Time,Total Average Content Size
1621873204,1,,Aggregated,0.000000,0.000000,N/A,N/A,N/A,N/A,N/A,N/A,N/A,N/A,N/A,N/A,N/A,0,0,0,0,0,0,0
1621873205,1,,Aggregated,0.000000,0.000000,170,170,170,170,170,170,170,170,170,170,170,1,0,172.0000000204891,172.0000000204891,172.0000000204891,172.0000000204891,22.0
1621873206,1,,Aggregated,0.000000,0.000000,170,170,170,170,170,170,170,170,170,170,170,2,0,47,109.49999996228144,46.999999904073775,172.0000000204891,22.0
1621873207,1,,Aggregated,0.000000,0.000000,47,47,170,170,170,170,170,170,170,170,170,3,0,47,88.66666664835066,46.999999904073775,172.0000000204891,22.0
1621873208,1,,Aggregated,0.500000,0.000000,47,47,170,170,170,170,170,170,170,170,170,4,0,47,78.24999999138527,46.999999904073775,172.0000000204891,22.0
1621873209,1,,Aggregated,0.666667,0.000000,47,47,47,170,170,170,170,170,170,170,170,5,0,47,68.79999998491257,30.999999959021807,172.0000000204891,22.0
1621873210,1,,Aggregated,0.750000,0.000000,47,47,47,47,170,170,170,170,170,170,170,6,0,47,65.16666665750866,30.999999959021807,172.0000000204891,22.0
1621873211,1,,Aggregated,0.800000,0.000000,47,47,47,47,170,170,170,170,170,170,170,7,0,47,62.42857141686337,30.999999959021807,172.0000000204891,22.0
1621873212,1,,Aggregated,0.833333,0.000000,47,47,47,47,170,170,170,170,170,170,170,8,0,47,60.49999999231659,30.999999959021807,172.0000000204891,22.0
1621873213,1,,Aggregated,0.857143,0.000000,47,47,47,47,170,170,170,170,170,170,170,9,0,47,58.99999999544687,30.999999959021807,172.0000000204891,22.0
1621873214,1,,Aggregated,0.875000,0.000000,47,47,47,47,170,170,170,170,170,170,170,10,0,47,56.20000000344589,30.999999959021807,172.0000000204891,22.0
1621873215,1,,Aggregated,0.888889,0.000000,47,47,47,47,47,170,170,170,170,170,170,11,0,47,55.36363636863164,30.999999959021807,172.0000000204891,22.0
1621873216,1,,Aggregated,0.900000,0.000000,47,47,47,47,47,170,170,170,170,170,170,12,0,47,54.58333333566164,30.999999959021807,172.0000000204891,22.0
1621873218,1,,Aggregated,1.000000,0.000000,47,47,47,47,47,170,170,170,170,170,170,13,0,47,52.84615384880453,30.999999959021807,172.0000000204891,22.0
1621873219,1,,Aggregated,1.000000,0.000000,47,47,47,47,47,170,170,170,170,170,170,14,0,47,52.42857143249629,30.999999959021807,172.0000000204891,22.0
1621873220,1,,Aggregated,1.000000,0.000000,47,47,47,47,63,170,170,170,170,170,170,15,0,47,53.13333333469927,30.999999959021807,172.0000000204891,22.0
1621873221,1,,Aggregated,1.000000,0.000000,47,47,47,47,63,170,170,170,170,170,170,16,0,47,52.75000000256114,30.999999959021807,172.0000000204891,22.0
1621873222,1,,Aggregated,1.000000,0.000000,47,47,47,47,63,170,170,170,170,170,170,17,0,47,52.352941177292344,30.999999959021807,172.0000000204891,22.0
1621873223,1,,Aggregated,1.000000,0.000000,47,47,47,47,63,170,170,170,170,170,170,18,0,47,52.055555557469944,30.999999959021807,172.0000000204891,22.0
1621873224,1,,Aggregated,1.000000,0.000000,47,47,47,47,63,170,170,170,170,170,170,19,0,47,50.947368420709516,30.999999959021807,172.0000000204891,22.0
1621873225,1,,Aggregated,1.000000,0.000000,47,47,47,47,63,170,170,170,170,170,170,20,0,47,50.75000000069849,30.999999959021807,172.0000000204891,22.0
1621873226,1,,Aggregated,1.000000,0.000000,47,47,47,47,47,63,170,170,170,170,170,21,0,47,50.571428573069475,30.999999959021807,172.0000000204891,22.0
1621873227,1,,Aggregated,1.000000,0.000000,47,47,47,47,47,63,170,170,170,170,170,21,0,47,50.571428573069475,30.999999959021807,172.0000000204891,22.0
1621873228,1,,Aggregated,1.000000,0.000000,47,47,47,47,47,63,170,170,170,170,170,22,0,47,49.681818181521855,30.999999959021807,172.0000000204891,22.0
1621873229,1,,Aggregated,0.900000,0.000000,47,47,47,47,47,63,170,170,170,170,170,23,0,47,48.8695652153262,30.999999959021807,172.0000000204891,22.0
1621873230,1,,Aggregated,0.900000,0.000000,47,47,47,47,47,63,170,170,170,170,170,24,0,47,48.79166666554132,30.999999959021807,172.0000000204891,22.0
1621873231,1,,Aggregated,0.900000,0.000000,47,47,47,47,47,63,170,170,170,170,170,25,0,47,48.08000000193715,30.999999959021807,172.0000000204891,22.0
1621873232,1,,Aggregated,0.900000,0.000000,47,47,47,47,47,63,170,170,170,170,170,26,0,47,47.423076927840995,30.999999959021807,172.0000000204891,22.0
1621873233,1,,Aggregated,0.900000,0.000000,47,47,47,47,47,63,170,170,170,170,170,27,0,47,46.81481481788473,30.999999959021807,172.0000000204891,22.0
1621873234,1,,Aggregated,0.900000,0.000000,47,47,47,47,47,63,170,170,170,170,170,28,0,47,46.8214285751206,30.999999959021807,172.0000000204891,22.0
1621873235,1,,Aggregated,0.900000,0.000000,47,47,47,47,47,63,170,170,170,170,170,29,0,47,46.82758621116779,30.999999959021807,172.0000000204891,22.0
1621873236,1,,Aggregated,0.900000,0.000000,47,47,47,47,47,63,170,170,170,170,170,30,0,47,46.83333333814517,30.999999959021807,172.0000000204891,22.0
1621873237,1,,Aggregated,0.900000,0.000000,47,47,47,47,47,63,170,170,170,170,170,31,0,47,46.32258065225136,30.999999959021807,172.0000000204891,22.0
1621873238,1,,Aggregated,0.900000,0.000000,47,47,47,47,47,63,170,170,170,170,170,32,0,47,46.31250000602449,30.999999959021807,172.0000000204891,22.0
1621873239,1,,Aggregated,1.000000,0.000000,47,47,47,47,47,63,170,170,170,170,170,33,0,47,46.33333333979615,30.999999959021807,172.0000000204891,22.0
1621873240,1,,Aggregated,1.000000,0.000000,47,47,47,47,47,63,170,170,170,170,170,34,0,47,46.35294118334594,30.999999959021807,172.0000000204891,22.0
1621873241,1,,Aggregated,1.000000,0.000000,47,47,47,47,47,63,170,170,170,170,170,35,0,47,46.371428578692885,30.999999959021807,172.0000000204891,22.0
1621873242,1,,Aggregated,1.000000,0.000000,47,47,47,47,47,63,170,170,170,170,170,36,0,47,45.94444445360245,30.999999959021807,172.0000000204891,22.0
1621873243,1,,Aggregated,1.000000,0.000000,47,47,47,47,47,63,170,170,170,170,170,37,0,47,45.94594595412648,30.999999959021807,172.0000000204891,22.0
1621873244,1,,Aggregated,1.000000,0.000000,47,47,47,47,47,63,170,170,170,170,170,38,0,47,45.57894737655787,30.999999959021807,172.0000000204891,22.0
1621873245,1,,Aggregated,1.000000,0.000000,47,47,47,47,47,63,170,170,170,170,170,39,0,47,45.61538462383816,30.999999959021807,172.0000000204891,22.0
1621873246,1,,Aggregated,1.000000,0.000000,47,47,47,47,47,63,170,170,170,170,170,40,0,47,45.65000000875443,30.999999959021807,172.0000000204891,22.0
1621873247,1,,Aggregated,1.000000,0.000000,47,47,47,47,47,47,170,170,170,170,170,41,0,47,45.68292683830894,30.999999959021807,172.0000000204891,22.0
1621873248,1,,Aggregated,1.000000,0.000000,47,47,47,47,47,47,170,170,170,170,170,42,0,47,45.69047619865852,30.999999959021807,172.0000000204891,22.0
1621873249,1,,Aggregated,0.900000,0.000000,47,47,47,47,47,47,170,170,170,170,170,43,0,47,45.72093024102668,30.999999959021807,172.0000000204891,22.0
1621873250,1,,Aggregated,0.900000,0.000000,47,47,47,47,47,47,170,170,170,170,170,44,0,47,45.75000000874173,30.999999959021807,172.0000000204891,22.0
1621873251,1,,Aggregated,0.900000,0.000000,47,47,47,47,47,47,170,170,170,170,170,45,0,47,45.422222232446074,30.999999959021807,172.0000000204891,22.0
1621873252,1,,Aggregated,0.900000,0.000000,47,47,47,47,47,47,170,170,170,170,170,46,0,47,45.108695663815446,30.999999959021807,172.0000000204891,22.0
1621873253,1,,Aggregated,0.900000,0.000000,47,47,47,47,47,47,170,170,170,170,170,47,0,47,45.127659585287276,30.999999959021807,172.0000000204891,22.0
1621873254,1,,Aggregated,0.900000,0.000000,47,47,47,47,47,47,170,170,170,170,170,47,0,47,45.127659585287276,30.999999959021807,172.0000000204891,22.0
1621873255,1,,Aggregated,0.900000,0.000000,47,47,47,47,47,47,170,170,170,170,170,48,0,47,44.83333334307341,30.999999959021807,172.0000000204891,22.0
1621873256,1,,Aggregated,0.900000,0.000000,47,47,47,47,47,47,170,170,170,170,170,49,0,47,44.87755102799179,30.999999959021807,172.0000000204891,22.0
1621873257,1,,Aggregated,0.900000,0.000000,47,47,47,47,47,47,170,170,170,170,170,50,0,47,44.920000007841736,30.999999959021807,172.0000000204891,22.0
1621873258,1,,Aggregated,0.900000,0.000000,47,47,47,47,47,47,63,170,170,170,170,51,0,47,44.66666667448247,30.999999959021807,172.0000000204891,22.0
1621873259,1,,Aggregated,0.900000,0.000000,47,47,47,47,47,47,63,170,170,170,170,52,0,47,44.71153846959798,30.999999959021807,172.0000000204891,22.0
1621873260,1,,Aggregated,1.000000,0.000000,47,47,47,47,47,47,63,170,170,170,170,53,0,47,44.754716989426115,30.999999959021807,172.0000000204891,22.0
1621873261,1,,Aggregated,1.000000,0.000000,47,47,47,47,47,47,63,170,170,170,170,54,0,47,44.777777785418074,30.999999959021807,172.0000000204891,22.0
1621873262,1,,Aggregated,1.000000,0.000000,47,47,47,47,47,47,63,170,170,170,170,55,0,47,44.52727273402905,30.999999959021807,172.0000000204891,22.0
1621873263,1,,Aggregated,1.000000,0.000000,47,47,47,47,47,47,63,170,170,170,170,56,0,47,44.285714291618206,30.999999959021807,172.0000000204891,22.0
1621873264,1,,Aggregated,1.000000,0.000000,47,47,47,47,47,47,63,170,170,170,170,57,0,47,44.05263158607117,30.999999959021807,172.0000000204891,22.0
1621873265,1,,Aggregated,1.000000,0.000000,47,47,47,47,47,47,63,170,170,170,170,58,0,47,43.82758621519817,30.999999959021807,172.0000000204891,22.0
1621873266,1,,Aggregated,1.000000,0.000000,47,47,47,47,47,47,63,170,170,170,170,59,0,47,43.86440678736416,30.999999959021807,172.0000000204891,22.0
1621873267,1,,Aggregated,1.000000,0.000000,47,47,47,47,47,47,63,170,170,170,170,60,0,46,43.65000000689179,30.999999959021807,172.0000000204891,22.0
1621873268,1,,Aggregated,1.000000,0.000000,47,47,47,47,47,47,63,170,170,170,170,61,0,47,43.70491803799313,30.999999959021807,172.0000000204891,22.0
1621873269,1,,Aggregated,0.900000,0.000000,47,47,47,47,47,47,63,170,170,170,170,62,0,46,43.500000006339,30.999999959021807,172.0000000204891,22.0
1621873270,1,,Aggregated,0.900000,0.000000,47,47,47,47,47,47,63,170,170,170,170,63,0,47,43.55555556211916,30.999999959021807,172.0000000204891,22.0
1621873271,1,,Aggregated,0.900000,0.000000,47,47,47,47,47,47,63,170,170,170,170,64,0,46,43.593750006039045,30.999999959021807,172.0000000204891,22.0
1621873272,1,,Aggregated,0.900000,0.000000,46,47,47,47,47,47,63,170,170,170,170,65,0,46,43.400000005315704,30.999999959021807,172.0000000204891,22.0
1621873273,1,,Aggregated,0.900000,0.000000,46,47,47,47,47,47,63,170,170,170,170,66,0,46,43.21212121673549,30.999999959021807,172.0000000204891,22.0
1621873274,1,,Aggregated,0.900000,0.000000,46,47,47,47,47,47,63,170,170,170,170,67,0,46,43.26865672126913,30.999999959021807,172.0000000204891,22.0
1621873275,1,,Aggregated,0.900000,0.000000,47,47,47,47,47,47,63,170,170,170,170,68,0,46,43.32352941684589,30.999999959021807,172.0000000204891,22.0
1621873276,1,,Aggregated,0.900000,0.000000,47,47,47,47,47,47,63,170,170,170,170,69,0,47,43.60869565668205,30.999999959021807,172.0000000204891,22.0
1621873277,1,,Aggregated,0.900000,0.000000,47,47,47,47,47,47,63,170,170,170,170,70,0,47,43.6571428618793,30.999999959021807,172.0000000204891,22.0
1621873278,1,,Aggregated,0.900000,0.000000,47,47,47,47,47,47,63,170,170,170,170,71,0,47,43.70422535707098,30.999999959021807,172.0000000204891,22.0
1621873279,1,,Aggregated,1.000000,0.000000,47,47,47,47,47,47,63,170,170,170,170,72,0,47,43.750000005174016,30.999999959021807,172.0000000204891,22.0
1621873280,1,,Aggregated,1.000000,0.000000,47,47,47,47,47,47,63,170,170,170,170,72,0,47,43.750000005174016,30.999999959021807,172.0000000204891,22.0
1621873281,1,,Aggregated,1.000000,0.000000,47,47,47,47,47,47,63,170,170,170,170,73,0,47,43.79452055173429,30.999999959021807,172.0000000204891,22.0
1621873282,1,,Aggregated,1.000000,0.000000,47,47,47,47,47,47,63,170,170,170,170,74,0,47,43.63513513896111,30.999999959021807,172.0000000204891,22.0
1621873283,1,,Aggregated,1.000000,0.000000,47,47,47,47,47,47,63,170,170,170,170,75,0,47,43.48000000386188,30.999999959021807,172.0000000204891,22.0
1621873284,1,,Aggregated,1.000000,0.000000,47,47,47,47,47,47,63,170,170,170,170,76,0,47,43.526315793554346,30.999999959021807,172.0000000204891,22.0
1621873285,1,,Aggregated,1.000000,0.000000,47,47,47,47,47,47,63,170,170,170,170,77,0,47,43.363636367131846,30.999999959021807,172.0000000204891,22.0
1621873286,1,,Aggregated,1.000000,0.000000,47,47,47,47,47,47,63,170,170,170,170,78,0,47,43.41025641247726,30.999999959021807,172.0000000204891,22.0
1621873287,1,,Aggregated,1.000000,0.000000,47,47,47,47,47,47,63,170,170,170,170,79,0,47,43.45569620498374,30.999999959021807,172.0000000204891,22.0
1621873288,1,,Aggregated,1.000000,0.000000,47,47,47,47,47,47,63,170,170,170,170,80,0,47,43.31250000250293,30.999999959021807,172.0000000204891,22.0
1621873289,1,,Aggregated,0.900000,0.000000,47,47,47,47,47,47,63,170,170,170,170,81,0,47,43.16049382912662,30.999999959021807,172.0000000204891,22.0
1621873290,1,,Aggregated,0.900000,0.000000,47,47,47,47,47,47,63,170,170,170,170,82,0,47,43.207317075362745,30.999999959021807,172.0000000204891,22.0
1621873291,1,,Aggregated,0.900000,0.000000,47,47,47,47,47,47,63,170,170,170,170,83,0,47,43.25301204920264,30.999999959021807,172.0000000204891,22.0
1621873292,1,,Aggregated,0.900000,0.000000,47,47,47,47,47,47,63,170,170,170,170,84,0,47,43.11904762012308,30.999999959021807,172.0000000204891,22.0
1621873293,1,,Aggregated,0.900000,0.000000,47,47,47,47,47,47,63,170,170,170,170,85,0,47,42.98823529525715,30.999999959021807,172.0000000204891,22.0
1621873294,1,,Aggregated,0.900000,0.000000,47,47,47,47,47,47,63,170,170,170,170,86,0,47,42.84883720995209,30.999999959021807,172.0000000204891,22.0
1621873295,1,,Aggregated,0.900000,0.000000,47,47,47,47,47,47,63,170,170,170,170,87,0,47,42.7126436783322,30.999999959021807,172.0000000204891,22.0
1621873296,1,,Aggregated,0.900000,0.000000,47,47,47,47,47,47,63,170,170,170,170,88,0,47,42.7613636354429,30.999999959021807,172.0000000204891,22.0
1621873297,1,,Aggregated,0.900000,0.000000,47,47,47,47,47,47,63,170,170,170,170,89,0,47,42.808988763364766,30.999999959021807,172.0000000204891,22.0
1621873298,1,,Aggregated,0.900000,0.000000,47,47,47,47,47,47,63,170,170,170,170,90,0,47,42.6888888882887,30.999999959021807,172.0000000204891,22.0
1621873299,1,,Aggregated,1.000000,0.000000,47,47,47,47,47,47,63,170,170,170,170,91,0,47,42.7362637358953,30.999999959021807,172.0000000204891,22.0
1621873300,1,,Aggregated,1.000000,0.000000,47,47,47,47,47,47,63,170,170,170,170,92,0,47,42.782608695510454,30.999999959021807,172.0000000204891,22.0
1621873301,1,,Aggregated,1.000000,0.000000,47,47,47,47,47,47,63,170,170,170,170,93,0,47,42.82795698807565,30.999999959021807,172.0000000204891,22.0
1621873302,1,,Aggregated,1.000000,0.000000,47,47,47,47,47,47,63,170,170,170,170,94,0,47,42.71276595635696,30.999999959021807,172.0000000204891,22.0
1621873303,1,,Aggregated,1.000000,0.000000,47,47,47,47,47,47,63,170,170,170,170,95,0,47,42.59999999899025,30.999999959021807,172.0000000204891,22.0
1621873304,1,,Aggregated,1.000000,0.000000,47,47,47,47,47,47,63,170,170,170,170,96,0,47,42.64583333254753,30.999999959021807,172.0000000204891,22.0
1621873305,1,,Aggregated,1.000000,0.000000,47,47,47,47,47,47,63,170,170,170,170,97,0,47,42.52577319587629,30.999999959021807,172.0000000204891,22.0
1621873306,1,,Aggregated,1.000000,0.000000,47,47,47,47,47,47,63,170,170,170,170,97,0,47,42.52577319587629,30.999999959021807,172.0000000204891,22.0
1621873307,1,,Aggregated,1.000000,0.000000,47,47,47,47,47,47,63,170,170,170,170,98,0,47,42.57142857044973,30.999999959021807,172.0000000204891,22.0
1621873308,1,,Aggregated,1.000000,0.000000,47,47,47,47,47,47,63,170,170,170,170,99,0,47,42.616161615399626,30.999999959021807,172.0000000204891,22.0
1621873309,1,,Aggregated,1.000000,0.000000,47,47,47,47,47,47,63,170,170,170,170,100,0,47,42.50999999931082,30.999999959021807,172.0000000204891,22.0
1621873310,1,,Aggregated,0.900000,0.000000,47,47,47,47,47,47,63,63,170,170,170,101,0,47,42.55445544506506,30.999999959021807,172.0000000204891,22.0
1621873312,1,,Aggregated,0.900000,0.000000,47,47,47,47,47,47,63,63,170,170,170,102,0,47,42.598039215412356,30.999999959021807,172.0000000204891,22.0
1621873313,1,,Aggregated,0.900000,0.000000,47,47,47,47,47,47,63,63,170,170,170,103,0,47,42.48543689253478,30.999999959021807,172.0000000204891,22.0
1621873314,1,,Aggregated,0.900000,0.000000,47,47,47,47,47,47,63,63,170,170,170,104,0,47,42.375000000062684,30.999999959021807,172.0000000204891,22.0
1621873315,1,,Aggregated,0.900000,0.000000,47,47,47,47,47,47,63,63,170,170,170,105,0,47,42.266666667447204,30.999999959021807,172.0000000204891,22.0
1621873316,1,,Aggregated,0.900000,0.000000,47,47,47,47,47,47,63,63,170,170,170,106,0,47,42.160377358877156,30.999999959021807,172.0000000204891,22.0
1621873317,1,,Aggregated,0.900000,0.000000,47,47,47,47,47,47,63,63,170,170,170,107,0,47,42.065420561191566,30.999999959021807,172.0000000204891,22.0
1621873318,1,,Aggregated,0.900000,0.000000,47,47,47,47,47,47,63,63,170,170,170,108,0,47,42.11111111174062,30.999999959021807,172.0000000204891,22.0
1621873319,1,,Aggregated,0.900000,0.000000,47,47,47,47,47,47,63,63,170,170,170,109,0,47,42.15596330356399,30.999999959021807,172.0000000204891,22.0
1621873320,1,,Aggregated,0.900000,0.000000,47,47,47,47,47,47,63,63,170,170,170,110,0,47,42.20000000099059,30.999999959021807,172.0000000204891,22.0
1621873321,1,,Aggregated,1.000000,0.000000,47,47,47,47,47,47,63,63,170,170,170,111,0,47,42.09909909971159,30.999999959021807,172.0000000204891,22.0
1621873322,1,,Aggregated,1.000000,0.000000,47,47,47,47,47,47,63,63,170,170,170,112,0,47,42.00000000128057,30.999999959021807,172.0000000204891,22.0
1621873323,1,,Aggregated,1.000000,0.000000,47,47,47,47,47,47,63,63,170,170,170,113,0,47,42.044247789061174,30.999999959021807,172.0000000204891,22.0
1621873324,1,,Aggregated,1.000000,0.000000,47,47,47,47,47,47,63,63,170,170,170,114,0,47,42.07894736962197,30.999999959021807,172.0000000204891,22.0
1621873325,1,,Aggregated,1.000000,0.000000,47,47,47,47,47,47,63,63,170,170,170,115,0,47,41.98260869648632,30.999999959021807,172.0000000204891,22.0
1621873326,1,,Aggregated,1.000000,0.000000,47,47,47,47,47,47,63,63,170,170,170,116,0,46,41.88793103495645,30.999999959021807,172.0000000204891,22.0
1621873327,1,,Aggregated,1.000000,0.000000,47,47,47,47,47,47,63,63,170,170,170,117,0,47,41.93162393226869,30.999999959021807,172.0000000204891,22.0
1621873328,1,,Aggregated,1.000000,0.000000,47,47,47,47,47,47,63,63,170,170,170,118,0,47,41.974576271999375,30.999999959021807,172.0000000204891,22.0
1621873329,1,,Aggregated,1.000000,0.000000,47,47,47,47,47,47,63,63,170,170,170,119,0,47,42.008403361923676,30.999999959021807,172.0000000204891,22.0
1621873330,1,,Aggregated,1.000000,0.000000,47,47,47,47,47,47,63,63,170,170,170,120,0,47,42.18333333362049,30.999999959021807,172.0000000204891,22.0
1621873331,1,,Aggregated,1.000000,0.000000,47,47,47,47,47,47,63,63,170,170,170,121,0,47,42.09090909085521,30.999999959021807,172.0000000204891,22.0
1621873332,1,,Aggregated,0.900000,0.000000,47,47,47,47,47,47,63,63,170,170,170,122,0,46,41.99999999961068,30.999999959021807,172.0000000204891,22.0
1621873333,1,,Aggregated,0.900000,0.000000,47,47,47,47,47,47,63,63,170,170,170,123,0,47,42.040650406284485,30.999999959021807,172.0000000204891,22.0
1621873334,1,,Aggregated,0.900000,0.000000,47,47,47,47,47,47,63,63,170,170,170,124,0,46,41.95161290361636,30.999999959021807,172.0000000204891,22.0
1621873335,1,,Aggregated,0.900000,0.000000,47,47,47,47,47,47,63,63,170,170,170,124,0,46,41.95161290361636,30.999999959021807,172.0000000204891,22.0
1621873336,1,,Aggregated,0.900000,0.000000,47,47,47,47,47,47,63,63,170,170,170,125,0,47,41.99200000055134,30.999999959021807,172.0000000204891,22.0
1621873337,1,,Aggregated,0.900000,0.000000,47,47,47,47,47,47,63,63,170,170,170,126,0,46,41.90476190498365,30.999999959021807,172.0000000204891,22.0
1621873338,1,,Aggregated,0.900000,0.000000,46,47,47,47,47,47,63,63,170,170,170,127,0,46,41.81889763769261,30.999999959021807,172.0000000204891,22.0
1621873339,1,,Aggregated,0.900000,0.000000,47,47,47,47,47,47,63,63,170,170,170,128,0,46,41.85937499914871,30.999999959021807,172.0000000204891,22.0
1621873340,1,,Aggregated,0.900000,0.000000,47,47,47,47,47,47,63,63,170,170,170,129,0,47,41.89922480551569,30.999999959021807,172.0000000204891,22.0
1621873341,1,,Aggregated,0.900000,0.000000,47,47,47,47,47,47,63,63,170,170,170,130,0,47,41.938461537938565,30.999999959021807,172.0000000204891,22.0
1621873342,1,,Aggregated,0.900000,0.000000,47,47,47,47,47,47,63,63,170,170,170,131,0,47,41.97709923627865,30.999999959021807,172.0000000204891,22.0
1621873343,1,,Aggregated,1.000000,0.000000,47,47,47,47,47,47,63,63,170,170,170,132,0,47,42.01515151494691,30.999999959021807,172.0000000204891,22.0
1621873344,1,,Aggregated,1.000000,0.000000,47,47,47,47,47,47,63,63,170,170,170,133,0,47,42.045112781548745,30.999999959021807,172.0000000204891,22.0
1621873345,1,,Aggregated,1.000000,0.000000,47,47,47,47,47,47,63,63,170,170,170,134,0,47,42.0820895519886,30.999999959021807,172.0000000204891,22.0
1621873346,1,,Aggregated,1.000000,0.000000,47,47,47,47,47,47,63,63,170,170,170,135,0,47,42.1185185175596,30.999999959021807,172.0000000204891,22.0
1621873347,1,,Aggregated,1.000000,0.000000,47,47,47,47,47,47,63,63,170,170,170,136,0,47,42.15441176390467,30.999999959021807,172.0000000204891,22.0
1621873348,1,,Aggregated,1.000000,0.000000,47,47,47,47,47,47,63,63,170,170,170,137,0,47,42.0729927004852,30.999999959021807,172.0000000204891,22.0
1621873349,1,,Aggregated,1.000000,0.000000,47,47,47,47,47,47,63,63,170,170,170,138,0,47,42.10144927492365,30.999999959021807,172.0000000204891,22.0
1621873350,1,,Aggregated,1.000000,0.000000,47,47,47,47,47,47,63,63,170,170,170,139,0,47,42.02158273308263,30.999999959021807,172.0000000204891,22.0
1621873351,1,,Aggregated,1.000000,0.000000,47,47,47,47,47,47,63,63,170,170,170,140,0,47,42.057142856564106,30.999999959021807,172.0000000204891,22.0
1621873352,1,,Aggregated,0.900000,0.000000,47,47,47,47,47,47,63,63,170,170,170,141,0,47,41.978723404215685,30.999999959021807,172.0000000204891,22.0
1621873353,1,,Aggregated,0.900000,0.000000,47,47,47,47,47,47,63,63,170,170,170,142,0,47,42.01408450714719,30.999999959021807,172.0000000204891,22.0
1621873354,1,,Aggregated,0.900000,0.000000,47,47,47,47,47,47,63,63,170,170,170,143,0,47,42.04195804187338,30.999999959021807,172.0000000204891,22.0
1621873355,1,,Aggregated,0.900000,0.000000,47,47,47,47,47,47,63,63,170,170,170,144,0,47,41.96527777740913,30.999999959021807,172.0000000204891,22.0
1621873356,1,,Aggregated,0.900000,0.000000,47,47,47,47,47,47,63,63,170,170,170,145,0,47,41.88965517176508,30.999999959021807,172.0000000204891,22.0
1621873357,1,,Aggregated,0.900000,0.000000,47,47,47,47,47,47,63,63,170,170,170,146,0,46,41.815068493023105,30.999999959021807,172.0000000204891,22.0
1621873358,1,,Aggregated,0.900000,0.000000,47,47,47,47,47,47,63,63,170,170,170,146,0,46,41.815068493023105,30.999999959021807,172.0000000204891,22.0
1621873359,1,,Aggregated,0.900000,0.000000,47,47,47,47,47,47,63,170,220,220,220,147,0,47,43.01360544200581,30.999999959021807,217.99999999348074,22.0
1621873360,1,,Aggregated,0.900000,0.000000,47,47,47,47,47,47,94,170,220,220,220,148,0,47,43.35810810742849,30.999999959021807,217.99999999348074,22.0
1621873361,1,,Aggregated,0.900000,0.000000,47,47,47,47,47,47,94,170,220,220,220,149,0,47,43.38255033503293,30.999999959021807,217.99999999348074,22.0
1621873362,1,,Aggregated,0.900000,0.000000,47,47,47,47,47,47,94,170,220,220,220,150,0,47,43.30666666617617,30.999999959021807,217.99999999348074,22.0
1621873363,1,,Aggregated,1.000000,0.000000,47,47,47,47,47,47,63,170,220,220,220,151,0,47,43.32450331059216,30.999999959021807,217.99999999348074,22.0
1621873364,1,,Aggregated,1.000000,0.000000,47,47,47,47,47,47,63,170,220,220,220,152,0,46,43.24342105170026,30.999999959021807,217.99999999348074,22.0
1621873365,1,,Aggregated,1.000000,0.000000,46,47,47,47,47,47,63,170,220,220,220,153,0,46,43.16339869161739,30.999999959021807,217.99999999348074,22.0
1621873366,1,,Aggregated,1.000000,0.000000,47,47,47,47,47,47,63,170,220,220,220,154,0,46,43.188311687259414,30.999999959021807,217.99999999348074,22.0
1621873367,1,,Aggregated,1.000000,0.000000,46,47,47,47,47,47,63,170,220,220,220,155,0,46,43.11612903125464,30.999999959021807,217.99999999348074,22.0
1621873368,1,,Aggregated,0.900000,0.000000,46,47,47,47,47,47,63,170,220,220,220,156,0,46,43.03846153720186,30.999999959021807,217.99999999348074,22.0
1621873369,1,,Aggregated,0.900000,0.000000,46,47,47,47,47,47,63,170,220,220,220,157,0,46,43.063694266394776,30.999999959021807,217.99999999348074,22.0
1621873370,1,,Aggregated,0.900000,0.000000,47,47,47,47,47,47,63,170,220,220,220,158,0,46,43.08860759321553,30.999999959021807,217.99999999348074,22.0
1621873371,1,,Aggregated,0.900000,0.000000,47,47,47,47,47,47,63,170,220,220,220,159,0,47,43.11320754558832,30.999999959021807,217.99999999348074,22.0
1621873372,1,,Aggregated,0.900000,0.000000,47,47,47,47,47,47,63,170,220,220,220,160,0,47,43.13749999855645,30.999999959021807,217.99999999348074,22.0
1621873373,1,,Aggregated,0.900000,0.000000,47,47,47,47,47,47,63,170,220,220,220,161,0,47,43.06211179955313,30.999999959021807,217.99999999348074,22.0
1621873374,1,,Aggregated,0.900000,0.000000,47,47,47,47,47,47,63,170,220,220,220,162,0,47,43.1851851832938,30.999999959021807,217.99999999348074,22.0
1621873375,1,,Aggregated,0.900000,0.000000,47,47,47,47,47,47,63,170,220,220,220,163,0,47,43.306748464166475,30.999999959021807,217.99999999348074,22.0
1621873376,1,,Aggregated,0.900000,0.000000,47,47,47,47,47,47,63,170,220,220,220,164,0,47,43.32926829072942,30.999999959021807,217.99999999348074,22.0
1621873377,1,,Aggregated,0.900000,0.000000,47,47,47,47,47,47,63,170,220,220,220,165,0,47,43.35151514969766,30.999999959021807,217.99999999348074,22.0
1621873378,1,,Aggregated,0.900000,0.000000,47,47,47,47,47,47,63,170,220,220,220,165,0,47,43.35151514969766,30.999999959021807,217.99999999348074,22.0
1621873379,1,,Aggregated,1.000000,0.000000,47,47,47,47,47,47,63,170,220,220,220,166,0,47,43.3734939742205,30.999999959021807,217.99999999348074,22.0
1621873380,1,,Aggregated,1.000000,0.000000,47,47,47,47,47,47,63,170,220,220,220,167,0,47,43.38922155505146,30.999999959021807,217.99999999348074,22.0
1621873381,1,,Aggregated,1.000000,0.000000,47,47,47,47,47,47,63,170,220,220,220,168,0,47,43.31547618840843,30.999999959021807,217.99999999348074,22.0
1621873382,1,,Aggregated,1.000000,0.000000,47,47,47,47,47,47,63,170,220,220,220,169,0,47,43.337278103885744,30.999999959021807,217.99999999348074,22.0
1621873383,1,,Aggregated,1.000000,0.000000,47,47,47,47,47,47,63,170,220,220,220,170,0,47,43.27058823272476,30.999999959021807,217.99999999348074,22.0
1621873384,1,,Aggregated,1.000000,0.000000,47,47,47,47,47,47,63,170,220,220,220,171,0,47,43.2923976583842,30.999999959021807,217.99999999348074,22.0
1621873385,1,,Aggregated,1.000000,0.000000,47,47,47,47,47,47,63,170,220,220,220,172,0,47,43.22093022989954,30.999999959021807,217.99999999348074,22.0
1621873386,1,,Aggregated,1.000000,0.000000,47,47,47,47,47,47,63,170,220,220,220,173,0,47,43.24277456394919,30.999999959021807,217.99999999348074,22.0
1621873387,1,,Aggregated,1.000000,0.000000,47,47,47,47,47,63,94,170,220,220,220,174,0,47,43.79885057228264,30.999999959021807,217.99999999348074,22.0
1621873388,1,,Aggregated,0.900000,0.000000,47,47,47,47,47,63,94,170,220,220,220,175,0,47,43.81714285484382,30.999999959021807,217.99999999348074,22.0
1621873389,1,,Aggregated,0.900000,0.000000,47,47,47,47,47,63,94,170,220,220,220,176,0,47,43.74431817996083,30.999999959021807,217.99999999348074,22.0
1621873390,1,,Aggregated,0.900000,0.000000,47,47,47,47,47,63,94,170,220,220,220,177,0,47,43.672316382102416,30.999999959021807,217.99999999348074,22.0
1621873391,1,,Aggregated,0.900000,0.000000,47,47,47,47,47,63,94,170,220,220,220,178,0,47,43.60674157100363,30.999999959021807,217.99999999348074,22.0
1621873392,1,,Aggregated,0.900000,0.000000,47,47,47,47,47,63,94,170,220,220,220,179,0,47,43.71508379667144,30.999999959021807,217.99999999348074,22.0
1621873393,1,,Aggregated,0.900000,0.000000,47,47,47,47,47,63,94,170,220,220,220,180,0,47,43.733333331248204,30.999999959021807,217.99999999348074,22.0
1621873394,1,,Aggregated,0.900000,0.000000,47,47,47,47,47,63,94,170,220,220,220,181,0,47,43.751381213509205,30.999999959021807,217.99999999348074,22.0
1621873395,1,,Aggregated,0.900000,0.000000,47,47,47,47,47,63,94,170,220,220,220,182,0,47,43.68131867914389,30.999999959021807,217.99999999348074,22.0
1621873396,1,,Aggregated,0.900000,0.000000,47,47,47,47,47,63,94,170,220,220,220,183,0,47,43.61202185553667,30.999999959021807,217.99999999348074,22.0
1621873397,1,,Aggregated,0.900000,0.000000,47,47,47,47,47,63,94,170,220,220,220,184,0,47,43.6304347797135,30.999999959021807,217.99999999348074,22.0
1621873398,1,,Aggregated,1.000000,0.000000,47,47,47,47,47,63,94,170,220,220,220,185,0,47,43.567567564723255,30.999999959021807,217.99999999348074,22.0
1621873399,1,,Aggregated,1.000000,0.000000,47,47,47,47,47,63,94,170,220,220,220,186,0,47,43.58602150265748,30.999999959021807,217.99999999348074,22.0
1621873400,1,,Aggregated,1.000000,0.000000,47,47,47,47,47,63,94,170,220,220,220,187,0,47,43.51871657523919,30.999999959021807,217.99999999348074,22.0
1621873401,1,,Aggregated,1.000000,0.000000,47,47,47,47,47,63,94,170,220,220,220,187,0,47,43.51871657523919,30.999999959021807,217.99999999348074,22.0
1621873402,1,,Aggregated,1.000000,0.000000,47,47,47,47,47,63,94,170,220,220,220,188,0,47,43.5372340403735,30.999999959021807,217.99999999348074,22.0
1621873403,1,,Aggregated,1.000000,0.000000,47,47,47,47,47,63,94,170,220,220,220,189,0,47,43.470899468514496,30.999999959021807,217.99999999348074,22.0
1621873404,1,,Aggregated,1.000000,0.000000,47,47,47,47,47,63,94,170,220,220,220,190,0,47,43.41052631345136,30.999999959021807,217.99999999348074,22.0
1621873405,1,,Aggregated,1.000000,0.000000,47,47,47,47,47,63,94,170,220,220,220,191,0,47,43.3507853380224,30.999999959021807,217.99999999348074,22.0
1621873406,1,,Aggregated,0.900000,0.000000,47,47,47,47,47,63,94,170,220,220,220,192,0,47,43.286458330840105,30.999999959021807,217.99999999348074,22.0
1621873407,1,,Aggregated,0.900000,0.000000,47,47,47,47,47,63,94,170,220,220,220,193,0,47,43.22279792476851,30.999999959021807,217.99999999348074,22.0
1621873408,1,,Aggregated,0.900000,0.000000,47,47,47,47,47,63,94,170,220,220,220,194,0,47,43.2422680380639,30.999999959021807,217.99999999348074,22.0
1621873409,1,,Aggregated,0.900000,0.000000,47,47,47,47,47,63,94,170,220,220,220,195,0,47,43.26153845848659,30.999999959021807,217.99999999348074,22.0
1621873410,1,,Aggregated,0.900000,0.000000,47,47,47,47,47,63,94,170,220,220,220,196,0,47,43.280612241966196,30.999999959021807,217.99999999348074,22.0
1621873411,1,,Aggregated,0.900000,0.000000,47,47,47,47,47,63,94,170,220,220,220,197,0,47,43.29441624060084,30.999999959021807,217.99999999348074,22.0
1621873412,1,,Aggregated,0.900000,0.000000,47,47,47,47,47,63,94,170,220,220,220,198,0,47,43.237373734368106,30.999999959021807,217.99999999348074,22.0
1621873414,1,,Aggregated,0.900000,0.000000,47,47,47,47,47,63,94,170,220,220,220,199,0,47,43.1809045196553,30.999999959021807,217.99999999348074,22.0
1621873415,1,,Aggregated,0.900000,0.000000,47,47,47,47,47,63,94,170,220,220,220,200,0,47,43.199999997159466,30.999999959021807,217.99999999348074,22.0
1621873416,1,,Aggregated,0.900000,0.000000,47,47,47,47,47,47,63,140,220,220,220,201,0,47,43.21890546991235,30.999999959021807,217.99999999348074,22.0
1621873417,1,,Aggregated,1.000000,0.000000,47,47,47,47,47,47,63,140,220,220,220,202,0,47,43.158415838670315,30.999999959021807,217.99999999348074,22.0
1621873418,1,,Aggregated,1.000000,0.000000,47,47,47,47,47,47,63,140,220,220,220,203,0,47,43.09852216495981,30.999999959021807,217.99999999348074,22.0
1621873419,1,,Aggregated,1.000000,0.000000,47,47,47,47,47,47,63,140,220,220,220,204,0,46,43.11274509539134,30.999999959021807,217.99999999348074,22.0
1621873420,1,,Aggregated,1.000000,0.000000,46,47,47,47,47,47,63,140,220,220,220,205,0,46,43.05853658276269,30.999999959021807,217.99999999348074,22.0
1621873421,1,,Aggregated,1.000000,0.000000,46,47,47,47,47,47,63,140,220,220,220,206,0,46,43.00485436637316,30.999999959021807,217.99999999348074,22.0
1621873422,1,,Aggregated,1.000000,0.000000,46,47,47,47,47,47,63,140,220,220,220,207,0,46,43.0193236688206,30.999999959021807,217.99999999348074,22.0
1621873423,1,,Aggregated,1.000000,0.000000,46,47,47,47,47,47,63,140,220,220,220,208,0,46,42.96153845867733,30.999999959021807,217.99999999348074,22.0
1621873424,1,,Aggregated,1.000000,0.000000,46,47,47,47,47,47,63,140,220,220,220,209,0,46,42.98086124071272,30.999999959021807,217.99999999348074,22.0
1621873425,1,,Aggregated,1.000000,0.000000,46,47,47,47,47,47,63,140,220,220,220,210,0,46,42.9285714253118,30.999999959021807,217.99999999348074,22.0
1621873426,1,,Aggregated,1.000000,0.000000,46,47,47,47,47,47,63,140,220,220,220,211,0,46,42.87677724797155,30.999999959021807,217.99999999348074,22.0
1621873427,1,,Aggregated,1.000000,0.000000,46,47,47,47,47,47,63,140,220,220,220,211,0,46,42.87677724797155,30.999999959021807,217.99999999348074,22.0
1621873428,1,,Aggregated,0.900000,0.000000,46,47,47,47,47,47,63,140,220,220,220,212,0,46,42.896226411992856,30.999999959021807,217.99999999348074,22.0
1621873429,1,,Aggregated,0.900000,0.000000,46,47,47,47,47,47,63,140,220,220,220,213,0,46,42.915492954755756,30.999999959021807,217.99999999348074,22.0
1621873430,1,,Aggregated,0.900000,0.000000,46,47,47,47,47,47,63,140,220,220,220,214,0,46,42.859813080943916,30.999999959021807,217.99999999348074,22.0
1621873431,1,,Aggregated,0.900000,0.000000,46,47,47,47,47,47,63,140,220,220,220,215,0,46,42.87906976438366,30.999999959021807,217.99999999348074,22.0
1621873432,1,,Aggregated,0.900000,0.000000,46,47,47,47,47,47,63,140,220,220,220,216,0,46,42.89814814519896,30.999999959021807,217.99999999348074,22.0
1621873433,1,,Aggregated,0.900000,0.000000,46,47,47,47,47,47,63,140,220,220,220,217,0,46,42.843317969225794,30.999999959021807,217.99999999348074,22.0
1621873434,1,,Aggregated,0.900000,0.000000,46,47,47,47,47,47,63,140,220,220,220,218,0,46,42.8623853180848,30.999999959021807,217.99999999348074,22.0
1621873435,1,,Aggregated,0.900000,0.000000,46,47,47,47,47,47,63,140,220,220,220,219,0,46,42.881278535903995,30.999999959021807,217.99999999348074,22.0
1621873436,1,,Aggregated,0.900000,0.000000,47,47,47,47,47,47,63,140,220,220,220,220,0,46,42.89999999719757,30.999999959021807,217.99999999348074,22.0
1621873437,1,,Aggregated,0.900000,0.000000,47,47,47,47,47,47,63,140,220,220,220,221,0,47,42.91855203350205,30.999999959021807,217.99999999348074,22.0
1621873438,1,,Aggregated,1.000000,0.000000,47,47,47,47,47,47,63,140,220,220,220,222,0,47,42.93693693434434,30.999999959021807,217.99999999348074,22.0
1621873439,1,,Aggregated,1.000000,0.000000,47,47,47,47,47,47,63,140,220,220,220,223,0,47,42.95515694818355,30.999999959021807,217.99999999348074,22.0
1621873440,1,,Aggregated,1.000000,0.000000,47,47,47,47,47,47,63,140,220,220,220,224,0,47,42.968749997401446,30.999999959021807,217.99999999348074,22.0
1621873441,1,,Aggregated,1.000000,0.000000,47,47,47,47,47,47,63,140,220,220,220,225,0,47,42.91555555278642,30.999999959021807,217.99999999348074,22.0
1621873442,1,,Aggregated,1.000000,0.000000,47,47,47,47,47,47,63,140,220,220,220,226,0,46,42.86283185546888,30.999999959021807,217.99999999348074,22.0
1621873443,1,,Aggregated,1.000000,0.000000,46,47,47,47,47,47,63,140,220,220,220,227,0,46,42.81057268463174,30.999999959021807,217.99999999348074,22.0
1621873444,1,,Aggregated,1.000000,0.000000,46,47,47,47,47,47,63,140,220,220,220,228,0,46,42.75877192757387,30.999999959021807,217.99999999348074,22.0
1621873445,1,,Aggregated,1.000000,0.000000,46,47,47,47,47,47,63,140,220,220,220,229,0,46,42.772925761833335,30.999999959021807,217.99999999348074,22.0
1621873446,1,,Aggregated,1.000000,0.000000,46,47,47,47,47,47,63,140,220,220,220,230,0,46,42.721739127908066,30.999999959021807,217.99999999348074,22.0
1621873447,1,,Aggregated,1.000000,0.000000,46,47,47,47,47,47,63,140,220,220,220,231,0,46,42.74025973732869,30.999999959021807,217.99999999348074,22.0
1621873448,1,,Aggregated,0.900000,0.000000,46,47,47,47,47,47,63,140,220,220,220,232,0,46,42.82327585929908,30.999999959021807,217.99999999348074,22.0
1621873449,1,,Aggregated,0.900000,0.000000,46,47,47,47,47,47,63,140,220,220,220,233,0,46,42.77682403160475,30.999999959021807,217.99999999348074,22.0
1621873450,1,,Aggregated,0.900000,0.000000,46,47,47,47,47,47,63,140,220,220,220,234,0,46,42.79487179224101,30.999999959021807,217.99999999348074,22.0
1621873451,1,,Aggregated,0.900000,0.000000,46,47,47,47,47,47,63,140,220,220,220,234,0,46,42.79487179224101,30.999999959021807,217.99999999348074,22.0
1621873452,1,,Aggregated,0.900000,0.000000,46,47,47,47,47,47,63,140,220,220,220,235,0,46,42.812765954914404,30.999999959021807,217.99999999348074,22.0
1621873453,1,,Aggregated,0.900000,0.000000,46,47,47,47,47,47,63,140,220,220,220,236,0,46,42.826271183804565,30.999999959021807,217.99999999348074,22.0
1621873454,1,,Aggregated,0.900000,0.000000,46,47,47,47,47,47,63,140,220,220,220,237,0,46,42.843881854001545,30.999999959021807,217.99999999348074,22.0
1621873455,1,,Aggregated,0.900000,0.000000,47,47,47,47,47,47,63,140,220,220,220,238,0,46,42.86134453537334,30.999999959021807,217.99999999348074,22.0
1621873456,1,,Aggregated,0.900000,0.000000,47,47,47,47,47,47,63,140,220,220,220,239,0,47,42.878661085520264,30.999999959021807,217.99999999348074,22.0
1621873457,1,,Aggregated,0.900000,0.000000,47,47,47,47,47,47,63,140,220,220,220,240,0,46,42.82916666464492,30.999999959021807,217.99999999348074,22.0
1621873458,1,,Aggregated,0.900000,0.000000,47,47,47,47,47,47,63,140,220,220,220,241,0,47,42.84647302663425,30.999999959021807,217.99999999348074,22.0
1621873459,1,,Aggregated,1.000000,0.000000,47,47,47,47,47,47,63,140,220,220,220,242,0,47,42.8636363613196,30.999999959021807,217.99999999348074,22.0
1621873460,1,,Aggregated,1.000000,0.000000,47,47,47,47,47,47,63,140,220,220,220,243,0,47,42.88065843399108,30.999999959021807,217.99999999348074,22.0
1621873461,1,,Aggregated,1.000000,0.000000,47,47,47,47,47,47,63,140,220,220,220,244,0,47,42.89754098147673,30.999999959021807,217.99999999348074,22.0
1621873462,1,,Aggregated,1.000000,0.000000,47,47,47,47,47,47,63,140,220,220,220,245,0,47,42.848979590023504,30.999999959021807,217.99999999348074,22.0
1621873463,1,,Aggregated,1.000000,0.000000,47,47,47,47,47,47,63,140,220,220,220,246,0,47,42.80081300615765,30.999999959021807,217.99999999348074,22.0
1621873464,1,,Aggregated,1.000000,0.000000,47,47,47,47,47,47,63,140,220,220,220,247,0,47,42.81781376330069,30.999999959021807,217.99999999348074,22.0
1621873465,1,,Aggregated,1.000000,0.000000,47,47,47,47,47,47,63,140,220,220,220,248,0,47,42.83467741756355,30.999999959021807,217.99999999348074,22.0
1621873466,1,,Aggregated,1.000000,0.000000,47,47,47,47,47,47,63,140,220,220,220,249,0,47,42.78714859289637,30.999999959021807,217.99999999348074,22.0
1621873467,1,,Aggregated,1.000000,0.000000,47,47,47,47,47,47,63,140,220,220,220,250,0,47,42.80399999860674,30.999999959021807,217.99999999348074,22.0
1621873468,1,,Aggregated,0.900000,0.000000,47,47,47,47,47,47,63,140,220,220,220,251,0,47,42.75697211000282,30.999999959021807,217.99999999348074,22.0
1621873469,1,,Aggregated,0.900000,0.000000,47,47,47,47,47,47,63,140,220,220,220,252,0,47,42.714285712766774,30.999999959021807,217.99999999348074,22.0
1621873470,1,,Aggregated,0.900000,0.000000,47,47,47,47,47,47,63,140,220,220,220,253,0,47,42.73122529501073,30.999999959021807,217.99999999348074,22.0
1621873471,1,,Aggregated,0.900000,0.000000,47,47,47,47,47,47,63,140,220,220,220,254,0,47,42.74409448665633,30.999999959021807,217.99999999348074,22.0
1621873472,1,,Aggregated,0.900000,0.000000,47,47,47,47,47,47,63,140,220,220,220,255,0,47,42.7607843122792,30.999999959021807,217.99999999348074,22.0
1621873473,1,,Aggregated,0.900000,0.000000,47,47,47,47,47,47,63,140,220,220,220,256,0,47,42.71484374839929,30.999999959021807,217.99999999348074,22.0
1621873474,1,,Aggregated,0.900000,0.000000,47,47,47,47,47,47,63,140,220,220,220,257,0,47,42.669260699088156,30.999999959021807,217.99999999348074,22.0
1621873475,1,,Aggregated,0.900000,0.000000,47,47,47,47,47,47,63,140,220,220,220,258,0,47,42.686046510411416,30.999999959021807,217.99999999348074,22.0
1621873476,1,,Aggregated,0.900000,0.000000,47,47,47,47,47,47,63,140,220,220,220,259,0,47,42.69884169752562,30.999999959021807,217.99999999348074,22.0
1621873477,1,,Aggregated,0.900000,0.000000,47,47,47,47,47,47,63,140,220,220,220,260,0,47,42.715384614152406,30.999999959021807,217.99999999348074,22.0
1621873478,1,,Aggregated,0.900000,0.000000,47,47,47,47,47,47,63,140,220,220,220,260,0,47,42.715384614152406,30.999999959021807,217.99999999348074,22.0
1621873479,1,,Aggregated,1.000000,0.000000,47,47,47,47,47,47,63,140,220,220,220,261,0,47,42.67049808290669,30.999999959021807,217.99999999348074,22.0
1621873480,1,,Aggregated,1.000000,0.000000,47,47,47,47,47,47,63,140,220,220,220,262,0,46,42.625954197382,30.999999959021807,217.99999999348074,22.0
1621873481,1,,Aggregated,1.000000,0.000000,47,47,47,47,47,47,63,140,220,220,220,263,0,47,42.64258555032157,30.999999959021807,217.99999999348074,22.0
1621873482,1,,Aggregated,1.000000,0.000000,47,47,47,47,47,47,63,140,220,220,220,264,0,46,42.65530302919532,30.999999959021807,217.99999999348074,22.0
1621873483,1,,Aggregated,1.000000,0.000000,47,47,47,47,47,47,63,140,220,220,220,265,0,47,42.67169811218133,30.999999959021807,217.99999999348074,22.0
1621873484,1,,Aggregated,1.000000,0.000000,47,47,47,47,47,47,63,140,220,220,220,266,0,47,42.68796992342905,30.999999959021807,217.99999999348074,22.0
1621873485,1,,Aggregated,1.000000,0.000000,47,47,47,47,47,47,63,140,220,220,220,267,0,47,42.70411984888621,30.999999959021807,217.99999999348074,22.0
1621873486,1,,Aggregated,1.000000,0.000000,47,47,47,47,47,47,63,140,220,220,220,268,0,47,42.66417910320573,30.999999959021807,217.99999999348074,22.0
1621873487,1,,Aggregated,1.000000,0.000000,47,47,47,47,47,47,63,140,220,220,220,269,0,47,42.676579924283004,30.999999959021807,217.99999999348074,22.0
1621873488,1,,Aggregated,1.000000,0.000000,47,47,47,47,47,47,63,140,220,220,220,270,0,47,42.69259259130599,30.999999959021807,217.99999999348074,22.0
1621873489,1,,Aggregated,1.000000,0.000000,47,47,47,47,47,47,63,140,220,220,220,271,0,47,42.649446493031874,30.999999959021807,217.99999999348074,22.0
1621873490,1,,Aggregated,0.900000,0.000000,47,47,47,47,47,47,63,140,220,220,220,272,0,46,42.606617645908365,30.999999959021807,217.99999999348074,22.0
1621873491,1,,Aggregated,0.900000,0.000000,47,47,47,47,47,47,63,140,220,220,220,273,0,47,42.79120879003867,30.999999959021807,217.99999999348074,22.0
1621873492,1,,Aggregated,0.900000,0.000000,47,47,47,47,47,47,63,140,220,220,220,274,0,46,42.748175181166346,30.999999959021807,217.99999999348074,22.0
1621873493,1,,Aggregated,0.900000,0.000000,47,47,47,47,47,47,63,140,220,220,220,275,0,47,42.81818181657317,30.999999959021807,217.99999999348074,22.0
1621873494,1,,Aggregated,0.900000,0.000000,47,47,47,47,47,62,93,140,220,220,220,276,0,47,43.057971012667224,30.999999959021807,217.99999999348074,22.0
1621873495,1,,Aggregated,0.900000,0.000000,47,47,47,47,47,62,93,140,220,220,220,277,0,47,43.07220216432001,30.999999959021807,217.99999999348074,22.0
1621873496,1,,Aggregated,0.900000,0.000000,47,47,47,47,47,62,93,140,220,220,220,278,0,47,43.02877697653117,30.999999959021807,217.99999999348074,22.0
1621873497,1,,Aggregated,0.900000,0.000000,47,47,47,47,47,62,93,140,220,220,220,279,0,47,43.043010750882274,30.999999959021807,217.99999999348074,22.0
1621873498,1,,Aggregated,0.900000,0.000000,47,47,47,47,47,62,93,140,220,220,220,280,0,47,43.05714285500081,30.999999959021807,217.99999999348074,22.0
1621873499,1,,Aggregated,0.900000,0.000000,47,47,47,47,47,62,93,140,220,220,220,280,0,47,43.05714285500081,30.999999959021807,217.99999999348074,22.0
1621873500,1,,Aggregated,0.900000,0.000000,47,47,47,47,47,47,93,140,220,220,220,281,0,47,43.0711743751627,30.999999959021807,217.99999999348074,22.0
1621873501,1,,Aggregated,1.000000,0.000000,47,47,47,47,47,47,93,140,220,220,220,282,0,47,43.08510638099719,30.999999959021807,217.99999999348074,22.0
1621873502,1,,Aggregated,1.000000,0.000000,47,47,47,47,47,47,93,140,220,220,220,283,0,47,43.095406358354055,30.999999959021807,217.99999999348074,22.0
1621873503,1,,Aggregated,1.000000,0.000000,47,47,47,47,47,47,93,140,220,220,220,284,0,47,43.10915492758693,30.999999959021807,217.99999999348074,22.0
1621873504,1,,Aggregated,1.000000,0.000000,47,47,47,47,47,47,93,140,220,220,220,285,0,47,43.12280701522372,30.999999959021807,217.99999999348074,22.0
1621873505,1,,Aggregated,1.000000,0.000000,47,47,47,47,47,47,93,140,220,220,220,286,0,47,43.13636363412325,30.999999959021807,217.99999999348074,22.0
1621873506,1,,Aggregated,1.000000,0.000000,47,47,47,47,47,47,93,140,220,220,220,287,0,47,43.14982578140531,30.999999959021807,217.99999999348074,22.0
1621873507,1,,Aggregated,0.900000,0.000000,47,47,47,47,47,47,93,140,220,220,220,288,0,47,43.163194441957685,30.999999959021807,217.99999999348074,22.0
1621873508,1,,Aggregated,0.900000,0.000000,47,47,47,47,47,62,93,140,220,220,220,289,0,47,43.23183390743721,30.999999959021807,217.99999999348074,22.0
1621873509,1,,Aggregated,0.900000,0.000000,47,47,47,47,47,62,93,140,220,220,220,290,0,47,43.244827583689116,30.999999959021807,217.99999999348074,22.0
1621873510,1,,Aggregated,0.900000,0.000000,47,47,47,47,47,62,93,140,220,220,220,291,0,47,43.20274913824352,30.999999959021807,217.99999999348074,22.0
1621873511,1,,Aggregated,0.900000,0.000000,47,47,47,47,47,62,93,140,220,220,220,292,0,47,43.21575342208683,30.999999959021807,217.99999999348074,22.0
1621873512,1,,Aggregated,0.900000,0.000000,47,47,47,47,47,62,93,140,220,220,220,293,0,47,43.22866893948752,30.999999959021807,217.99999999348074,22.0
1621873513,1,,Aggregated,0.900000,0.000000,47,47,47,47,47,62,93,140,220,220,220,294,0,47,43.18707482730906,30.999999959021807,217.99999999348074,22.0
1621873514,1,,Aggregated,0.900000,0.000000,47,47,47,47,47,62,93,140,220,220,220,295,0,47,43.149152539780964,30.999999959021807,217.99999999348074,22.0
1621873515,1,,Aggregated,0.900000,0.000000,47,47,47,47,47,62,93,140,220,220,220,296,0,47,43.11148648392535,30.999999959021807,217.99999999348074,22.0
1621873516,1,,Aggregated,0.900000,0.000000,47,47,47,47,47,62,93,140,220,220,220,297,0,47,43.07070706801658,30.999999959021807,217.99999999348074,22.0
1621873517,1,,Aggregated,1.000000,0.000000,47,47,47,47,47,62,93,140,220,220,220,298,0,47,43.03020133985356,30.999999959021807,217.99999999348074,22.0
1621873518,1,,Aggregated,1.000000,0.000000,47,47,47,47,47,62,93,140,220,220,220,299,0,47,43.04013377675369,30.999999959021807,217.99999999348074,22.0
1621873519,1,,Aggregated,1.000000,0.000000,47,47,47,47,47,62,93,140,220,220,220,300,0,47,42.99999999736125,30.999999959021807,217.99999999348074,22.0
1621873520,1,,Aggregated,1.000000,0.000000,47,47,47,47,47,47,63,110,220,220,220,301,0,47,43.01328903359618,30.999999959021807,217.99999999348074,22.0
1621873521,1,,Aggregated,1.000000,0.000000,47,47,47,47,47,47,63,110,220,220,220,301,0,47,43.01328903359618,30.999999959021807,217.99999999348074,22.0
1621873522,1,,Aggregated,1.000000,0.000000,47,47,47,47,47,47,63,110,220,220,220,302,0,47,43.0264900633541,30.999999959021807,217.99999999348074,22.0
1621873523,1,,Aggregated,1.000000,0.000000,47,47,47,47,47,47,63,110,220,220,220,303,0,47,43.039603957217864,30.999999959021807,217.99999999348074,22.0
1621873524,1,,Aggregated,1.000000,0.000000,47,47,47,47,47,47,63,110,220,220,220,304,0,47,43.003289470537936,30.999999959021807,217.99999999348074,22.0
1621873525,1,,Aggregated,1.000000,0.000000,47,47,47,47,47,47,63,110,220,220,220,305,0,47,43.016393439554165,30.999999959021807,217.99999999348074,22.0
1621873526,1,,Aggregated,0.900000,0.000000,47,47,47,47,47,47,63,110,220,220,220,306,0,47,43.02941176171409,30.999999959021807,217.99999999348074,22.0
1621873527,1,,Aggregated,0.900000,0.000000,47,47,47,47,47,47,63,110,220,220,220,307,0,47,43.04234527395765,30.999999959021807,217.99999999348074,22.0
1621873528,1,,Aggregated,0.900000,0.000000,47,47,47,47,47,47,63,110,220,220,220,308,0,47,43.00324675020786,30.999999959021807,217.99999999348074,22.0
1621873529,1,,Aggregated,0.900000,0.000000,47,47,47,47,47,47,63,110,220,220,220,309,0,47,42.967637537445114,30.999999959021807,217.99999999348074,22.0
1621873531,1,,Aggregated,0.900000,0.000000,47,47,47,47,47,47,63,110,220,220,220,310,0,47,42.98064515835816,30.999999959021807,217.99999999348074,22.0
1621873532,1,,Aggregated,0.900000,0.000000,47,47,47,47,47,62,78,110,220,220,220,311,0,47,43.09324758543582,30.999999959021807,217.99999999348074,22.0
1621873533,1,,Aggregated,0.900000,0.000000,47,47,47,47,47,62,78,110,220,220,220,312,0,47,43.05769230473417,30.999999959021807,217.99999999348074,22.0
1621873534,1,,Aggregated,0.900000,0.000000,47,47,47,47,47,62,78,110,220,220,220,313,0,47,43.07028753705287,30.999999959021807,217.99999999348074,22.0
1621873535,1,,Aggregated,0.900000,0.000000,47,47,47,47,47,62,78,110,220,220,220,314,0,47,43.0828025449619,30.999999959021807,217.99999999348074,22.0
1621873536,1,,Aggregated,0.900000,0.000000,47,47,47,47,47,62,78,110,220,220,220,315,0,47,43.04444444151447,30.999999959021807,217.99999999348074,22.0
1621873537,1,,Aggregated,1.000000,0.000000,47,47,47,47,47,62,78,110,220,220,220,316,0,47,43.056962022460596,30.999999959021807,217.99999999348074,22.0
1621873538,1,,Aggregated,1.000000,0.000000,47,47,47,47,47,62,78,110,220,220,220,317,0,47,43.06940062813261,30.999999959021807,217.99999999348074,22.0
1621873539,1,,Aggregated,1.000000,0.000000,47,47,47,47,47,62,78,110,220,220,220,318,0,47,43.081761003580276,30.999999959021807,217.99999999348074,22.0
1621873540,1,,Aggregated,1.000000,0.000000,47,47,47,47,47,62,78,110,220,220,220,319,0,47,43.094043884511024,30.999999959021807,217.99999999348074,22.0
1621873541,1,,Aggregated,1.000000,0.000000,47,47,47,47,47,62,78,110,220,220,220,320,0,47,43.10312499728752,30.999999959021807,217.99999999348074,22.0
1621873542,1,,Aggregated,1.000000,0.000000,47,47,47,47,47,47,78,110,220,220,220,321,0,47,43.11526479486759,30.999999959021807,217.99999999348074,22.0
1621873543,1,,Aggregated,1.000000,0.000000,47,47,47,47,47,47,78,110,220,220,220,322,0,47,43.12732918961668,30.999999959021807,217.99999999348074,22.0
1621873544,1,,Aggregated,1.000000,0.000000,47,47,47,47,47,47,78,110,220,220,220,323,0,47,43.13931888259152,30.999999959021807,217.99999999348074,22.0
1621873545,1,,Aggregated,1.000000,0.000000,47,47,47,47,47,47,78,110,220,220,220,324,0,47,43.10493826877648,30.999999959021807,217.99999999348074,22.0
1621873546,1,,Aggregated,0.900000,0.000000,47,47,47,47,47,47,78,110,220,220,220,325,0,47,43.116923074166365,30.999999959021807,217.99999999348074,22.0
1621873547,1,,Aggregated,0.900000,0.000000,47,47,47,47,47,47,78,110,220,220,220,325,0,47,43.116923074166365,30.999999959021807,217.99999999348074,22.0
1621873548,1,,Aggregated,0.900000,0.000000,47,47,47,47,47,62,78,110,220,220,220,326,0,47,43.17791410757549,30.999999959021807,217.99999999348074,22.0
1621873549,1,,Aggregated,0.900000,0.000000,47,47,47,47,47,62,78,110,220,220,220,327,0,47,43.14067277990407,30.999999959021807,217.99999999348074,22.0
1621873550,1,,Aggregated,0.900000,0.000000,47,47,47,47,47,62,78,110,220,220,220,328,0,47,43.106707314131555,30.999999959021807,217.99999999348074,22.0
1621873551,1,,Aggregated,0.900000,0.000000,47,47,47,47,47,62,78,110,220,220,220,329,0,47,43.16413373577389,30.999999959021807,217.99999999348074,22.0
1621873552,1,,Aggregated,0.900000,0.000000,47,47,47,47,47,62,78,110,220,220,220,330,0,47,43.12727272432918,30.999999959021807,217.99999999348074,22.0
1621873553,1,,Aggregated,0.900000,0.000000,47,47,47,47,47,62,78,110,220,220,220,331,0,47,43.09365558620891,30.999999959021807,217.99999999348074,22.0
1621873554,1,,Aggregated,0.900000,0.000000,47,47,47,47,47,62,78,110,220,220,220,332,0,47,43.06024096096888,30.999999959021807,217.99999999348074,22.0
1621873555,1,,Aggregated,0.900000,0.000000,47,47,47,47,47,62,78,110,220,220,220,333,0,47,43.06906906611009,30.999999959021807,217.99999999348074,22.0
1621873556,1,,Aggregated,0.900000,0.000000,47,47,47,47,47,62,78,110,220,220,220,334,0,47,43.03293412866372,30.999999959021807,217.99999999348074,22.0
1621873557,1,,Aggregated,1.000000,0.000000,47,47,47,47,47,62,78,110,220,220,220,335,0,47,42.99701492218718,30.999999959021807,217.99999999348074,22.0
1621873558,1,,Aggregated,1.000000,0.000000,47,47,47,47,47,62,78,110,220,220,220,336,0,47,42.96130952085756,30.999999959021807,217.99999999348074,22.0
1621873559,1,,Aggregated,1.000000,0.000000,47,47,47,47,47,62,78,110,220,220,220,337,0,47,42.97329376566359,30.999999959021807,217.99999999348074,22.0
1621873560,1,,Aggregated,1.000000,0.000000,47,47,47,47,47,62,78,110,220,220,220,338,0,47,42.982248517756275,30.999999959021807,217.99999999348074,22.0
1621873561,1,,Aggregated,1.000000,0.000000,47,47,47,47,47,62,78,110,220,220,220,339,0,47,42.994100292100626,30.999999959021807,217.99999999348074,22.0
1621873562,1,,Aggregated,1.000000,0.000000,47,47,47,47,47,62,78,110,220,220,220,340,0,47,43.00294117351501,30.999999959021807,217.99999999348074,22.0
1621873563,1,,Aggregated,1.000000,0.000000,47,47,47,47,47,62,78,110,220,220,220,341,0,47,43.01466275371141,30.999999959021807,217.99999999348074,22.0
1621873564,1,,Aggregated,1.000000,0.000000,47,47,47,47,47,62,78,110,220,220,220,342,0,47,43.02631578665521,30.999999959021807,217.99999999348074,22.0
1621873565,1,,Aggregated,1.000000,0.000000,47,47,47,47,47,62,78,110,220,220,220,343,0,47,43.03790087188504,30.999999959021807,217.99999999348074,22.0
1621873566,1,,Aggregated,1.000000,0.000000,47,47,47,47,47,62,78,110,220,220,220,344,0,47,43.0494186019682,30.999999959021807,217.99999999348074,22.0
1621873567,1,,Aggregated,0.900000,0.000000,47,47,47,47,47,62,78,110,220,220,220,345,0,47,43.06086956260159,30.999999959021807,217.99999999348074,22.0
1621873568,1,,Aggregated,0.900000,0.000000,47,47,47,47,47,62,78,110,220,220,220,346,0,47,43.02601155796697,30.999999959021807,217.99999999348074,22.0
1621873569,1,,Aggregated,0.900000,0.000000,47,47,47,47,47,62,78,110,220,220,220,347,0,47,43.03746397394998,30.999999959021807,217.99999999348074,22.0
1621873570,1,,Aggregated,0.900000,0.000000,47,47,47,47,47,62,79,110,220,220,220,348,0,47,43.1408045947921,30.999999959021807,217.99999999348074,22.0
1621873571,1,,Aggregated,0.900000,0.000000,47,47,47,47,47,62,79,110,220,220,220,348,0,47,43.1408045947921,30.999999959021807,217.99999999348074,22.0
1621873572,1,,Aggregated,0.900000,0.000000,47,47,47,47,47,62,79,110,220,220,220,349,0,47,43.15186246134138,30.999999959021807,217.99999999348074,22.0
1621873573,1,,Aggregated,0.900000,0.000000,47,47,47,47,47,62,79,110,220,220,220,350,0,47,43.162857140081805,30.999999959021807,217.99999999348074,22.0
1621873574,1,,Aggregated,0.900000,0.000000,47,47,47,47,47,62,78,110,220,220,220,351,0,47,43.17378917074844,30.999999959021807,217.99999999348074,22.0
1621873575,1,,Aggregated,0.900000,0.000000,47,47,47,47,47,62,78,110,220,220,220,352,0,47,43.142045451531885,30.999999959021807,217.99999999348074,22.0
1621873576,1,,Aggregated,0.900000,0.000000,47,47,47,47,47,62,78,110,220,220,220,353,0,47,43.1529745013023,30.999999959021807,217.99999999348074,22.0
1621873577,1,,Aggregated,0.900000,0.000000,47,47,47,47,47,62,78,110,220,220,220,354,0,47,43.118644064742185,30.999999959021807,217.99999999348074,22.0
1621873578,1,,Aggregated,1.000000,0.000000,47,47,47,47,47,62,78,110,220,220,220,355,0,47,43.08450703909227,30.999999959021807,217.99999999348074,22.0
1621873579,1,,Aggregated,1.000000,0.000000,47,47,47,47,47,62,78,110,220,220,220,356,0,47,43.095505614555705,30.999999959021807,217.99999999348074,22.0
1621873580,1,,Aggregated,1.000000,0.000000,47,47,47,47,47,62,78,110,220,220,220,357,0,47,43.10644257367596,30.999999959021807,217.99999999348074,22.0
1621873581,1,,Aggregated,1.000000,0.000000,47,47,47,47,47,62,78,110,220,220,220,358,0,47,43.07541899108614,30.999999959021807,217.99999999348074,22.0
1621873582,1,,Aggregated,1.000000,0.000000,47,47,47,47,47,62,78,110,220,220,220,359,0,47,43.04178272637287,30.999999959021807,217.99999999348074,22.0
1621873583,1,,Aggregated,1.000000,0.000000,47,47,47,47,47,62,78,110,220,220,220,360,0,47,43.05277777441208,30.999999959021807,217.99999999348074,22.0
1621873584,1,,Aggregated,1.000000,0.000000,47,47,47,47,47,62,78,110,220,220,220,361,0,47,43.01939057824757,30.999999959021807,217.99999999348074,22.0
1621873585,1,,Aggregated,1.000000,0.000000,47,47,47,47,47,62,78,110,220,220,220,362,0,47,42.98618784173037,30.999999959021807,217.99999999348074,22.0
1621873586,1,,Aggregated,1.000000,0.000000,47,47,47,47,47,62,78,110,220,220,220,363,0,47,42.95316804040059,30.999999959021807,217.99999999348074,22.0
1621873587,1,,Aggregated,0.900000,0.000000,47,47,47,47,47,62,78,110,220,220,220,364,0,47,42.92032966687047,30.999999959021807,217.99999999348074,22.0
1621873588,1,,Aggregated,0.900000,0.000000,47,47,47,47,47,62,78,110,220,220,220,365,0,47,42.93150684592148,30.999999959021807,217.99999999348074,22.0
1621873589,1,,Aggregated,0.900000,0.000000,47,47,47,47,47,62,78,110,220,220,220,366,0,47,42.93989070692441,30.999999959021807,217.99999999348074,22.0
1621873590,1,,Aggregated,0.900000,0.000000,47,47,47,47,47,62,78,110,220,220,220,367,0,47,42.95095367508126,30.999999959021807,217.99999999348074,22.0
1621873591,1,,Aggregated,0.900000,0.000000,47,47,47,47,47,62,78,110,220,220,220,368,0,47,42.918478257374574,30.999999959021807,217.99999999348074,22.0
1621873592,1,,Aggregated,0.900000,0.000000,47,47,47,47,47,62,78,110,220,220,220,369,0,47,42.92953929196296,30.999999959021807,217.99999999348074,22.0
1621873593,1,,Aggregated,0.900000,0.000000,47,47,47,47,47,62,78,110,220,220,220,370,0,47,42.94054053686056,30.999999959021807,217.99999999348074,22.0
1621873594,1,,Aggregated,0.900000,0.000000,47,47,47,47,47,62,78,110,220,220,220,371,0,47,42.91105120928552,30.999999959021807,217.99999999348074,22.0
1621873595,1,,Aggregated,0.900000,0.000000,47,47,47,47,47,62,78,110,220,220,220,371,0,47,42.91105120928552,30.999999959021807,217.99999999348074,22.0
1621873596,1,,Aggregated,0.900000,0.000000,47,47,47,47,47,62,78,110,220,220,220,372,0,47,42.922043007165094,30.999999959021807,217.99999999348074,22.0
1621873597,1,,Aggregated,0.900000,0.000000,47,47,47,47,47,62,78,110,220,220,220,373,0,47,42.89008042526659,30.999999959021807,217.99999999348074,22.0
1621873598,1,,Aggregated,1.000000,0.000000,47,47,47,47,47,62,78,110,220,220,220,374,0,47,42.90106951509338,30.999999959021807,217.99999999348074,22.0
1621873599,1,,Aggregated,1.000000,0.000000,47,47,47,47,47,62,78,110,220,220,220,375,0,47,42.95199999647836,30.999999959021807,217.99999999348074,22.0
1621873600,1,,Aggregated,1.000000,0.000000,47,47,47,47,47,62,78,110,220,220,220,376,0,47,42.96276595398903,30.999999959021807,217.99999999348074,22.0
1621873601,1,,Aggregated,1.000000,0.000000,47,47,47,47,47,62,78,110,220,220,220,377,0,47,42.97347479735795,30.999999959021807,217.99999999348074,22.0
1621873602,1,,Aggregated,1.000000,0.000000,47,47,47,47,47,62,78,110,220,220,220,378,0,47,42.98412698048793,30.999999959021807,217.99999999348074,22.0
1621873603,1,,Aggregated,1.000000,0.000000,47,47,47,47,47,62,78,110,220,220,220,379,0,47,42.99472295156973,30.999999959021807,217.99999999348074,22.0
1621873604,1,,Aggregated,1.000000,0.000000,47,47,47,47,47,62,78,110,220,220,220,380,0,47,43.00526315438267,30.999999959021807,217.99999999348074,22.0
1621873605,1,,Aggregated,1.000000,0.000000,47,47,47,47,47,62,78,110,220,220,220,381,0,47,43.01574802804699,30.999999959021807,217.99999999348074,22.0
1621873606,1,,Aggregated,1.000000,0.000000,47,47,47,47,47,62,78,110,220,220,220,382,0,47,43.02356020591334,30.999999959021807,217.99999999348074,22.0
1621873607,1,,Aggregated,0.900000,0.000000,47,47,47,47,47,62,78,110,220,220,220,383,0,47,43.03394255529865,30.999999959021807,217.99999999348074,22.0
1621873608,1,,Aggregated,0.900000,0.000000,47,47,47,47,47,62,78,110,220,220,220,384,0,47,43.005208329911206,30.999999959021807,217.99999999348074,22.0
1621873609,1,,Aggregated,0.900000,0.000000,47,47,47,47,47,62,78,110,220,220,220,385,0,47,43.012987009503625,30.999999959021807,217.99999999348074,22.0
1621873610,1,,Aggregated,0.900000,0.000000,47,47,47,47,47,62,78,110,220,220,220,386,0,47,43.02331605875488,30.999999959021807,217.99999999348074,22.0
1621873611,1,,Aggregated,0.900000,0.000000,47,47,47,47,47,62,78,110,220,220,220,387,0,47,43.03359172790665,30.999999959021807,217.99999999348074,22.0
1621873612,1,,Aggregated,0.900000,0.000000,47,47,47,47,47,62,78,110,220,220,220,388,0,47,43.002577316431214,30.999999959021807,217.99999999348074,22.0
1621873613,1,,Aggregated,0.900000,0.000000,47,47,47,47,47,62,78,110,220,220,220,389,0,47,42.971722362084186,30.999999959021807,217.99999999348074,22.0
1621873614,1,,Aggregated,0.900000,0.000000,47,47,47,47,47,62,78,110,220,220,220,390,0,47,42.979487176471125,30.999999959021807,217.99999999348074,22.0
1621873615,1,,Aggregated,0.900000,0.000000,47,47,47,47,47,62,78,110,220,220,220,391,0,47,42.94884910174619,30.999999959021807,217.99999999348074,22.0
1621873616,1,,Aggregated,0.900000,0.000000,47,47,47,47,47,62,78,110,220,220,220,392,0,47,42.95918367011948,30.999999959021807,217.99999999348074,22.0
1621873617,1,,Aggregated,1.000000,0.000000,47,47,47,47,47,62,78,110,220,220,220,393,0,47,42.96946564556571,30.999999959021807,217.99999999348074,22.0
1621873618,1,,Aggregated,1.000000,0.000000,47,47,47,47,47,62,78,110,220,220,220,394,0,47,42.97969542824318,30.999999959021807,217.99999999348074,22.0
1621873619,1,,Aggregated,1.000000,0.000000,47,47,47,47,47,62,78,110,220,220,220,395,0,47,42.9873417688628,30.999999959021807,217.99999999348074,22.0
1621873620,1,,Aggregated,1.000000,0.000000,47,47,47,47,47,62,78,110,220,220,220,396,0,47,42.95707070368643,30.999999959021807,217.99999999348074,22.0
1621873621,1,,Aggregated,1.000000,0.000000,47,47,47,47,47,62,78,110,220,220,220,396,0,47,42.95707070368643,30.999999959021807,217.99999999348074,22.0
1621873622,1,,Aggregated,1.000000,0.000000,47,47,47,47,47,62,78,110,220,220,220,397,0,47,42.926952137578965,30.999999959021807,217.99999999348074,22.0
1621873623,1,,Aggregated,1.000000,0.000000,47,47,47,47,47,62,78,110,220,220,220,398,0,47,42.93718592622949,30.999999959021807,217.99999999348074,22.0
1621873624,1,,Aggregated,1.000000,0.000000,47,47,47,47,47,62,78,110,220,220,220,399,0,47,42.9473684176938,30.999999959021807,217.99999999348074,22.0
1621873625,1,,Aggregated,1.000000,0.000000,47,47,47,47,47,62,78,110,220,220,220,400,0,47,42.954999996582046,30.999999959021807,217.99999999348074,22.0
1621873626,1,,Aggregated,1.000000,0.000000,47,47,47,47,47,47,63,94,220,220,220,401,0,47,42.92518702890733,30.999999959021807,217.99999999348074,22.0
1621873627,1,,Aggregated,1.000000,0.000000,47,47,47,47,47,47,63,94,220,220,220,402,0,47,42.93532337934307,30.999999959021807,217.99999999348074,22.0
1621873628,1,,Aggregated,0.900000,0.000000,47,47,47,47,47,47,63,94,220,220,220,403,0,47,42.94540942559902,30.999999959021807,217.99999999348074,22.0
1621873629,1,,Aggregated,0.900000,0.000000,47,47,47,47,47,47,63,94,220,220,220,404,0,47,42.9554455409329,30.999999959021807,217.99999999348074,22.0
1621873630,1,,Aggregated,0.900000,0.000000,47,47,47,47,47,62,63,94,220,220,220,405,0,47,43.00246913227494,30.999999959021807,217.99999999348074,22.0
1621873631,1,,Aggregated,0.900000,0.000000,47,47,47,47,47,62,63,94,220,220,220,406,0,47,42.972906400607854,30.999999959021807,217.99999999348074,22.0
1621873632,1,,Aggregated,0.900000,0.000000,47,47,47,47,47,62,63,94,220,220,220,407,0,47,42.980343976952774,30.999999959021807,217.99999999348074,22.0
1621873633,1,,Aggregated,0.900000,0.000000,47,47,47,47,47,62,63,94,220,220,220,408,0,47,42.9901960750987,30.999999959021807,217.99999999348074,22.0
1621873634,1,,Aggregated,0.900000,0.000000,47,47,47,47,47,62,63,94,220,220,220,409,0,47,42.99999999672557,30.999999959021807,217.99999999348074,22.0
1621873635,1,,Aggregated,0.900000,0.000000,47,47,47,47,47,62,63,94,220,220,220,410,0,47,43.0097560943445,30.999999959021807,217.99999999348074,22.0
1621873636,1,,Aggregated,0.900000,0.000000,47,47,47,47,47,62,63,94,220,220,220,411,0,47,42.98053527678025,30.999999959021807,217.99999999348074,22.0
1621873637,1,,Aggregated,0.900000,0.000000,47,47,47,47,47,62,63,94,220,220,220,412,0,47,42.951456307562395,30.999999959021807,217.99999999348074,22.0
1621873638,1,,Aggregated,1.000000,0.000000,47,47,47,47,47,62,63,94,220,220,220,413,0,47,42.961259076843085,30.999999959021807,217.99999999348074,22.0
1621873639,1,,Aggregated,1.000000,0.000000,47,47,47,47,47,62,63,94,220,220,220,414,0,47,42.971014489750445,30.999999959021807,217.99999999348074,22.0
1621873641,1,,Aggregated,1.000000,0.000000,47,47,47,47,47,62,63,94,220,220,220,415,0,47,42.94216867188463,30.999999959021807,217.99999999348074,22.0
1621873642,1,,Aggregated,1.000000,0.000000,47,47,47,47,47,62,63,94,220,220,220,416,0,47,42.91346153583548,30.999999959021807,217.99999999348074,22.0
1621873643,1,,Aggregated,1.000000,0.000000,47,47,47,47,47,62,63,94,220,220,220,417,0,47,42.884892083612904,30.999999959021807,217.99999999348074,22.0
1621873644,1,,Aggregated,1.000000,0.000000,47,47,47,47,47,62,63,94,220,220,220,418,0,47,42.89473683944275,30.999999959021807,217.99999999348074,22.0
1621873645,1,,Aggregated,1.000000,0.000000,47,47,47,47,47,62,63,94,220,220,220,419,0,47,42.94272076098475,30.999999959021807,217.99999999348074,22.0
1621873646,1,,Aggregated,1.000000,0.000000,47,47,47,47,47,62,63,94,220,220,220,420,0,47,42.98809523544541,30.999999959021807,217.99999999348074,22.0
1621873647,1,,Aggregated,1.000000,0.000000,47,47,47,47,47,62,63,94,220,220,220,420,0,47,42.98809523544541,30.999999959021807,217.99999999348074,22.0
1621873648,1,,Aggregated,1.000000,0.000000,47,47,47,47,47,62,63,94,220,220,220,421,0,47,42.99762470021649,30.999999959021807,217.99999999348074,22.0
1621873649,1,,Aggregated,0.900000,0.000000,47,47,47,47,47,62,63,94,220,220,220,422,0,47,43.04502369401209,30.999999959021807,217.99999999348074,22.0
1621873650,1,,Aggregated,0.900000,0.000000,47,47,47,47,47,62,63,94,220,220,220,423,0,47,43.05437351956778,30.999999959021807,217.99999999348074,22.0
1621873651,1,,Aggregated,0.900000,0.000000,47,47,47,47,47,62,63,94,220,220,220,424,0,47,43.0283018839238,30.999999959021807,217.99999999348074,22.0
1621873652,1,,Aggregated,0.900000,0.000000,47,47,47,47,47,62,63,94,220,220,220,425,0,47,43.03764705600984,30.999999959021807,217.99999999348074,22.0
1621873653,1,,Aggregated,0.900000,0.000000,47,47,47,47,47,62,63,94,220,220,220,426,0,47,43.009389668458226,30.999999959021807,217.99999999348074,22.0
1621873654,1,,Aggregated,0.900000,0.000000,47,47,47,47,47,62,63,94,220,220,220,427,0,47,43.018735360149165,30.999999959021807,217.99999999348074,22.0
1621873655,1,,Aggregated,0.900000,0.000000,47,47,47,47,47,62,63,94,220,220,220,428,0,47,43.028037380111606,30.999999959021807,217.99999999348074,22.0
1621873656,1,,Aggregated,0.900000,0.000000,47,47,47,47,47,62,63,94,220,220,220,429,0,47,43.03729603428498,30.999999959021807,217.99999999348074,22.0
1621873657,1,,Aggregated,0.900000,0.000000,47,47,47,47,47,62,63,94,220,220,220,430,0,47,43.04651162467984,30.999999959021807,217.99999999348074,22.0
1621873658,1,,Aggregated,0.900000,0.000000,47,47,47,47,47,62,63,94,220,220,220,431,0,47,43.05568445158426,30.999999959021807,217.99999999348074,22.0
1621873659,1,,Aggregated,1.000000,0.000000,47,47,47,47,47,62,63,94,220,220,220,432,0,47,43.064814811697474,30.999999959021807,217.99999999348074,22.0
1621873660,1,,Aggregated,1.000000,0.000000,47,47,47,47,47,62,63,94,220,220,220,433,0,47,43.07390299924664,30.999999959021807,217.99999999348074,22.0
1621873661,1,,Aggregated,1.000000,0.000000,47,47,47,47,47,62,63,94,220,220,220,434,0,47,43.0829493057472,30.999999959021807,217.99999999348074,22.0
1621873662,1,,Aggregated,1.000000,0.000000,47,47,47,47,47,62,63,94,220,220,220,435,0,47,43.08965516935006,30.999999959021807,217.99999999348074,22.0
1621873663,1,,Aggregated,1.000000,0.000000,47,47,47,47,47,62,63,94,220,220,220,436,0,47,43.0986238502013,30.999999959021807,217.99999999348074,22.0
1621873664,1,,Aggregated,1.000000,0.000000,47,47,47,47,47,62,63,94,220,220,220,437,0,47,43.03661326944905,16.00000006146729,217.99999999348074,22.0
1621873665,1,,Aggregated,1.000000,0.000000,47,47,47,47,47,62,63,94,220,220,220,438,0,47,43.04566209764777,16.00000006146729,217.99999999348074,22.0
1621873666,1,,Aggregated,1.000000,0.000000,47,47,47,47,47,62,63,94,220,220,220,439,0,47,43.01822323199353,16.00000006146729,217.99999999348074,22.0
1621873667,1,,Aggregated,1.000000,0.000000,47,47,47,47,47,62,63,94,220,220,220,440,0,47,43.024999997313984,16.00000006146729,217.99999999348074,22.0
1621873668,1,,Aggregated,0.900000,0.000000,47,47,47,47,47,62,63,94,220,220,220,441,0,47,43.034013602808706,16.00000006146729,217.99999999348074,22.0
1621873669,1,,Aggregated,0.900000,0.000000,47,47,47,47,47,62,63,94,220,220,220,442,0,47,43.04298642275821,16.00000006146729,217.99999999348074,22.0
1621873670,1,,Aggregated,0.900000,0.000000,47,47,47,47,47,62,63,94,220,220,220,443,0,47,43.01580135173398,16.00000006146729,217.99999999348074,22.0
1621873671,1,,Aggregated,0.900000,0.000000,47,47,47,47,47,62,63,94,220,220,220,444,0,47,43.0247747721591,16.00000006146729,217.99999999348074,22.0
1621873672,1,,Aggregated,0.900000,0.000000,47,47,47,47,47,62,63,94,220,220,220,445,0,47,43.03370786234318,16.00000006146729,217.99999999348074,22.0
1621873673,1,,Aggregated,0.900000,0.000000,47,47,47,47,47,62,63,94,220,220,220,446,0,47,43.008968607061064,16.00000006146729,217.99999999348074,22.0
1621873674,1,,Aggregated,0.900000,0.000000,47,47,47,47,47,62,63,94,220,220,220,446,0,47,43.008968607061064,16.00000006146729,217.99999999348074,22.0
1621873675,1,,Aggregated,0.900000,0.000000,47,47,47,47,47,62,63,94,220,220,220,447,0,47,42.98434004195918,16.00000006146729,217.99999999348074,22.0
1621873676,1,,Aggregated,0.900000,0.000000,47,47,47,47,47,62,63,94,220,220,220,448,0,47,42.993303568696966,16.00000006146729,217.99999999348074,22.0
1621873677,1,,Aggregated,0.900000,0.000000,47,47,47,47,47,62,63,94,220,220,220,449,0,47,43.00222716881232,16.00000006146729,217.99999999348074,22.0
1621873678,1,,Aggregated,0.900000,0.000000,47,47,47,47,47,62,63,94,220,220,220,450,0,47,43.01111110848271,16.00000006146729,217.99999999348074,22.0
1621873679,1,,Aggregated,1.000000,0.000000,47,47,47,47,47,62,63,94,220,220,220,451,0,47,43.01995565152485,16.00000006146729,217.99999999348074,22.0
1621873680,1,,Aggregated,1.000000,0.000000,47,47,47,47,47,62,63,94,220,220,220,452,0,47,42.99336282919631,16.00000006146729,217.99999999348074,22.0
1621873681,1,,Aggregated,1.000000,0.000000,47,47,47,47,47,62,63,94,220,220,220,453,0,47,42.96688741472885,16.00000006146729,217.99999999348074,22.0
1621873682,1,,Aggregated,1.000000,0.000000,47,47,47,47,47,62,63,94,220,220,220,454,0,47,42.97356827939463,16.00000006146729,217.99999999348074,22.0
1621873683,1,,Aggregated,1.000000,0.000000,47,47,47,47,47,62,63,94,220,220,220,455,0,47,42.9824175799245,16.00000006146729,217.99999999348074,22.0
1621873684,1,,Aggregated,1.000000,0.000000,47,47,47,47,47,62,63,94,220,220,220,456,0,47,42.991228067477465,16.00000006146729,217.99999999348074,22.0
1621873685,1,,Aggregated,1.000000,0.000000,47,47,47,47,47,62,63,94,220,220,220,457,0,47,42.99999999735276,16.00000006146729,217.99999999348074,22.0
1621873686,1,,Aggregated,1.000000,0.000000,47,47,47,47,47,62,63,94,220,220,220,458,0,47,42.97379912390662,16.00000006146729,217.99999999348074,22.0
1621873687,1,,Aggregated,0.900000,0.000000,47,47,47,47,47,62,63,94,220,220,220,459,0,47,42.982570803419875,16.00000006146729,217.99999999348074,22.0
1621873688,1,,Aggregated,0.900000,0.000000,47,47,47,47,47,62,63,94,220,220,220,460,0,47,42.99130434519611,16.00000006146729,217.99999999348074,22.0
1621873689,1,,Aggregated,0.900000,0.000000,47,47,47,47,47,62,63,94,220,220,220,461,0,47,42.99783079992018,16.00000006146729,217.99999999348074,22.0
1621873690,1,,Aggregated,0.900000,0.000000,47,47,47,47,47,62,63,94,220,220,220,462,0,47,42.97186146909573,16.00000006146729,217.99999999348074,22.0
1621873691,1,,Aggregated,0.900000,0.000000,47,47,47,47,47,62,63,94,220,220,220,463,0,47,42.98056155210864,16.00000006146729,217.99999999348074,22.0
1621873692,1,,Aggregated,0.900000,0.000000,47,47,47,47,47,62,63,94,220,220,220,464,0,47,43.0560344800048,16.00000006146729,217.99999999348074,22.0
1621873693,1,,Aggregated,0.900000,0.000000,47,47,47,47,47,62,63,94,220,220,220,465,0,47,43.06451612607806,16.00000006146729,217.99999999348074,22.0
1621873694,1,,Aggregated,0.900000,0.000000,47,47,47,47,47,62,63,94,220,220,220,466,0,47,43.04077252925497,16.00000006146729,217.99999999348074,22.0
1621873695,1,,Aggregated,0.900000,0.000000,47,47,47,47,47,62,63,94,220,220,220,467,0,47,43.017130618071384,16.00000006146729,217.99999999348074,22.0
1621873696,1,,Aggregated,0.900000,0.000000,47,47,47,47,47,62,63,94,220,220,220,468,0,47,43.02564102277741,16.00000006146729,217.99999999348074,22.0
1621873697,1,,Aggregated,0.900000,0.000000,47,47,47,47,47,62,63,94,220,220,220,468,0,47,43.02564102277741,16.00000006146729,217.99999999348074,22.0
1621873698,1,,Aggregated,1.000000,0.000000,47,47,47,47,47,62,63,94,220,220,220,469,0,47,42.99999999705511,16.00000006146729,217.99999999348074,22.0
1621873699,1,,Aggregated,1.000000,0.000000,47,47,47,47,47,62,63,94,220,220,220,470,0,47,43.008510635155154,16.00000006146729,217.99999999348074,22.0
1621873700,1,,Aggregated,1.000000,0.000000,47,47,47,47,47,62,63,94,220,220,220,471,0,47,42.98513800112408,16.00000006146729,217.99999999348074,22.0
1621873701,1,,Aggregated,1.000000,0.000000,47,47,47,47,47,62,63,94,220,220,220,472,0,47,42.99364406472443,16.00000006146729,217.99999999348074,22.0
1621873702,1,,Aggregated,1.000000,0.000000,47,47,47,47,47,62,63,94,220,220,220,473,0,47,42.96828752327474,16.00000006146729,217.99999999348074,22.0
1621873703,1,,Aggregated,1.000000,0.000000,47,47,47,47,47,62,63,94,220,220,220,474,0,47,42.97679324584271,16.00000006146729,217.99999999348074,22.0
1621873704,1,,Aggregated,1.000000,0.000000,47,47,47,47,47,62,63,94,220,220,220,475,0,47,42.95157894418624,16.00000006146729,217.99999999348074,22.0
1621873705,1,,Aggregated,1.000000,0.000000,47,47,47,47,47,62,63,94,220,220,220,476,0,47,42.926470585218276,16.00000006146729,217.99999999348074,22.0
1621873706,1,,Aggregated,1.000000,0.000000,47,47,47,47,47,62,63,94,220,220,220,477,0,47,42.90146750238855,16.00000006146729,217.99999999348074,22.0
1621873707,1,,Aggregated,1.000000,0.000000,47,47,47,47,47,62,63,94,220,220,220,478,0,47,42.9079497878919,16.00000006146729,217.99999999348074,22.0
1621873708,1,,Aggregated,0.900000,0.000000,47,47,47,47,47,62,63,94,220,220,220,479,0,47,42.916492690256405,16.00000006146729,217.99999999348074,22.0
1621873709,1,,Aggregated,0.900000,0.000000,47,47,47,47,47,62,63,94,220,220,220,480,0,47,42.92499999695186,16.00000006146729,217.99999999348074,22.0
1621873710,1,,Aggregated,0.900000,0.000000,47,47,47,47,47,62,63,94,220,220,220,481,0,47,42.902286899258655,16.00000006146729,217.99999999348074,22.0
1621873711,1,,Aggregated,0.900000,0.000000,47,47,47,47,47,62,63,94,220,220,220,482,0,47,42.87966804678409,16.00000006146729,217.99999999348074,22.0
1621873712,1,,Aggregated,0.900000,0.000000,47,47,47,47,47,62,63,94,220,220,220,483,0,47,42.855072460681065,16.00000006146729,217.99999999348074,22.0
1621873713,1,,Aggregated,0.900000,0.000000,47,47,47,47,47,62,63,94,220,220,220,484,0,47,42.86363636059802,16.00000006146729,217.99999999348074,22.0
1621873714,1,,Aggregated,0.900000,0.000000,47,47,47,47,47,62,63,94,220,220,220,485,0,47,42.87010308969574,16.00000006146729,217.99999999348074,22.0
1621873715,1,,Aggregated,0.900000,0.000000,47,47,47,47,47,62,63,94,220,220,220,486,0,47,42.845679009179946,16.00000006146729,217.99999999348074,22.0
1621873716,1,,Aggregated,0.900000,0.000000,47,47,47,47,47,62,63,94,220,220,220,487,0,47,42.82135523289626,16.00000006146729,217.99999999348074,22.0
1621873717,1,,Aggregated,0.900000,0.000000,47,47,47,47,47,62,63,94,220,220,220,488,0,47,42.79713114445884,16.00000006146729,217.99999999348074,22.0
1621873718,1,,Aggregated,1.000000,0.000000,47,47,47,47,47,62,63,94,220,220,220,489,0,47,42.83640081499054,16.00000006146729,217.99999999348074,22.0
1621873719,1,,Aggregated,1.000000,0.000000,47,47,47,47,47,62,63,94,220,220,220,490,0,47,42.8775510173386,16.00000006146729,217.99999999348074,22.0
1621873720,1,,Aggregated,1.000000,0.000000,47,47,47,47,47,62,63,94,220,220,220,491,0,47,42.855397145626135,16.00000006146729,217.99999999348074,22.0
1621873721,1,,Aggregated,1.000000,0.000000,47,47,47,47,47,62,63,94,220,220,220,492,0,47,42.86382113520919,16.00000006146729,217.99999999348074,22.0
1621873722,1,,Aggregated,1.000000,0.000000,47,47,47,47,47,62,63,94,220,220,220,492,0,47,42.86382113520919,16.00000006146729,217.99999999348074,22.0
1621873723,1,,Aggregated,1.000000,0.000000,47,47,47,47,47,62,63,94,220,220,220,493,0,47,42.839756589449,16.00000006146729,217.99999999348074,22.0
1621873724,1,,Aggregated,1.000000,0.000000,47,47,47,47,47,62,63,94,220,220,220,494,0,47,42.846153843261845,16.00000006146729,217.99999999348074,22.0
1621873725,1,,Aggregated,1.000000,0.000000,47,47,47,47,47,62,63,94,220,220,220,495,0,47,42.886868683912915,16.00000006146729,217.99999999348074,22.0
1621873726,1,,Aggregated,1.000000,0.000000,47,47,47,47,47,62,63,94,220,220,220,496,0,47,42.86290322277402,16.00000006146729,217.99999999348074,22.0
1621873727,1,,Aggregated,0.900000,0.000000,47,47,47,47,47,62,63,94,220,220,220,497,0,47,42.871227361200006,16.00000006146729,217.99999999348074,22.0
1621873728,1,,Aggregated,0.900000,0.000000,47,47,47,47,47,62,63,94,220,220,220,498,0,47,42.909638551073186,16.00000006146729,217.99999999348074,22.0
1621873729,1,,Aggregated,0.900000,0.000000,47,47,47,47,47,62,63,94,220,220,220,499,0,47,42.88577153986667,16.00000006146729,217.99999999348074,22.0
1621873730,1,,Aggregated,0.900000,0.000000,47,47,47,47,47,62,63,94,220,220,220,500,0,47,42.893999996595085,16.00000006146729,217.99999999348074,22.0
1621873731,1,,Aggregated,0.900000,0.000000,47,47,47,47,47,62,63,93,220,220,220,501,0,47,42.90219560542521,16.00000006146729,217.99999999348074,22.0
1621873732,1,,Aggregated,0.900000,0.000000,47,47,47,47,47,62,63,93,220,220,220,502,0,47,42.880478084311854,16.00000006146729,217.99999999348074,22.0
1621873734,1,,Aggregated,0.900000,0.000000,47,47,47,47,47,62,63,93,220,220,220,503,0,47,42.88667991709253,16.00000006146729,217.99999999348074,22.0
1621873735,1,,Aggregated,0.900000,0.000000,47,47,47,47,47,62,63,93,220,220,220,504,0,47,42.86309523463604,16.00000006146729,217.99999999348074,22.0
1621873736,1,,Aggregated,0.900000,0.000000,47,47,47,47,47,62,63,93,220,220,220,505,0,47,42.83960395686255,16.00000006146729,217.99999999348074,22.0
1621873737,1,,Aggregated,0.900000,0.000000,47,47,47,47,47,62,63,93,220,220,220,506,0,47,42.81620553021941,16.00000006146729,217.99999999348074,22.0
1621873738,1,,Aggregated,1.000000,0.000000,47,47,47,47,47,62,63,93,220,220,220,507,0,47,42.824457590358016,16.00000006146729,217.99999999348074,22.0
1621873739,1,,Aggregated,1.000000,0.000000,47,47,47,47,47,62,63,93,220,220,220,508,0,47,42.830708658040365,16.00000006146729,217.99999999348074,22.0
1621873740,1,,Aggregated,1.000000,0.000000,47,47,47,47,47,62,63,93,220,220,220,509,0,47,42.83889980020627,16.00000006146729,217.99999999348074,22.0
1621873741,1,,Aggregated,1.000000,0.000000,47,47,47,47,47,62,63,93,220,220,220,510,0,47,42.81764705551277,16.00000006146729,217.99999999348074,22.0
1621873742,1,,Aggregated,1.000000,0.000000,47,47,47,47,47,62,63,93,220,220,220,511,0,47,42.823874752024466,16.00000006146729,217.99999999348074,22.0
1621873743,1,,Aggregated,1.000000,0.000000,47,47,47,47,47,62,63,93,220,220,220,512,0,47,42.83203124668944,16.00000006146729,217.99999999348074,22.0
1621873744,1,,Aggregated,1.000000,0.000000,47,47,47,47,47,62,63,93,220,220,220,513,0,47,42.840155941928,16.00000006146729,217.99999999348074,22.0
1621873745,1,,Aggregated,1.000000,0.000000,47,47,47,47,47,62,63,93,220,220,220,514,0,47,42.84824902379291,16.00000006146729,217.99999999348074,22.0
1621873746,1,,Aggregated,1.000000,0.000000,47,47,47,47,47,62,63,93,220,220,220,515,0,47,42.82718446259432,16.00000006146729,217.99999999348074,22.0
1621873747,1,,Aggregated,1.000000,0.000000,47,47,47,47,47,62,63,93,220,220,220,515,0,47,42.82718446259432,16.00000006146729,217.99999999348074,22.0
1621873748,1,,Aggregated,0.900000,0.000000,47,47,47,47,47,62,63,93,220,220,220,516,0,47,42.86434108191964,16.00000006146729,217.99999999348074,22.0
1621873749,1,,Aggregated,0.900000,0.000000,47,47,47,47,47,62,63,93,220,220,220,517,0,47,42.84139264647883,16.00000006146729,217.99999999348074,22.0
1621873750,1,,Aggregated,0.900000,0.000000,47,47,47,47,47,62,63,93,220,220,220,518,0,47,42.84942084581782,16.00000006146729,217.99999999348074,22.0
1621873751,1,,Aggregated,0.900000,0.000000,47,47,47,47,47,62,63,93,220,220,220,519,0,47,42.8285163740658,16.00000006146729,217.99999999348074,22.0
1621873752,1,,Aggregated,0.900000,0.000000,47,47,47,47,47,62,63,93,220,220,220,520,0,47,42.80769230412821,16.00000006146729,217.99999999348074,22.0
1621873753,1,,Aggregated,0.900000,0.000000,47,47,47,47,47,62,63,93,220,220,220,521,0,47,42.785028787151035,16.00000006146729,217.99999999348074,22.0
1621873754,1,,Aggregated,0.900000,0.000000,47,47,47,47,47,62,63,93,220,220,220,522,0,47,42.762452103572244,16.00000006146729,217.99999999348074,22.0
1621873755,1,,Aggregated,0.900000,0.000000,47,47,47,47,47,62,63,93,220,220,220,523,0,47,42.770554489424065,16.00000006146729,217.99999999348074,22.0
1621873756,1,,Aggregated,0.900000,0.000000,47,47,47,47,47,62,63,93,220,220,220,524,0,47,42.749999996136076,16.00000006146729,217.99999999348074,22.0
1621873757,1,,Aggregated,0.900000,0.000000,47,47,47,47,47,62,63,93,220,220,220,525,0,47,42.72952380567966,16.00000006146729,217.99999999348074,22.0
1621873758,1,,Aggregated,1.000000,0.000000,47,47,47,47,47,62,63,93,220,220,220,526,0,47,42.70722433068602,16.00000006146729,217.99999999348074,22.0
1621873759,1,,Aggregated,1.000000,0.000000,47,47,47,47,47,62,63,93,220,220,220,527,0,47,42.7153700151069,16.00000006146729,217.99999999348074,22.0
1621873760,1,,Aggregated,1.000000,0.000000,47,47,47,47,47,62,63,93,220,220,220,528,0,47,42.72159090517865,16.00000006146729,217.99999999348074,22.0
1621873761,1,,Aggregated,1.000000,0.000000,47,47,47,47,47,62,63,93,220,220,220,529,0,47,42.6994328882672,16.00000006146729,217.99999999348074,22.0
1621873762,1,,Aggregated,1.000000,0.000000,47,47,47,47,47,62,63,93,220,220,220,530,0,47,42.70566037333272,16.00000006146729,217.99999999348074,22.0
1621873763,1,,Aggregated,1.000000,0.000000,47,47,47,47,47,62,63,93,220,220,220,531,0,47,42.683615815113676,16.00000006146729,217.99999999348074,22.0
1621873764,1,,Aggregated,1.000000,0.000000,47,47,47,47,47,62,63,93,220,220,220,532,0,47,42.69172931904029,16.00000006146729,217.99999999348074,22.0
1621873765,1,,Aggregated,1.000000,0.000000,47,47,47,47,47,62,63,93,220,220,220,533,0,47,42.669793616894694,16.00000006146729,217.99999999348074,22.0
1621873766,1,,Aggregated,1.000000,0.000000,47,47,47,47,47,62,63,93,220,220,220,534,0,47,42.67790261765049,16.00000006146729,217.99999999348074,22.0
1621873767,1,,Aggregated,1.000000,0.000000,47,47,47,47,47,62,63,93,220,220,220,535,0,47,42.68411214541748,16.00000006146729,217.99999999348074,22.0
1621873768,1,,Aggregated,0.900000,0.000000,47,47,47,47,47,62,63,93,220,220,220,536,0,47,42.66231342865182,16.00000006146729,217.99999999348074,22.0
1621873769,1,,Aggregated,0.900000,0.000000,47,47,47,47,47,62,63,93,220,220,220,537,0,47,42.69832401801754,16.00000006146729,217.99999999348074,22.0
1621873770,1,,Aggregated,0.900000,0.000000,47,47,47,47,47,62,63,93,220,220,220,538,0,47,42.76394051608723,16.00000006146729,217.99999999348074,22.0
1621873771,1,,Aggregated,0.900000,0.000000,47,47,47,47,47,62,63,93,220,220,220,538,0,47,42.76394051608723,16.00000006146729,217.99999999348074,22.0
1621873772,1,,Aggregated,0.900000,0.000000,47,47,47,47,47,62,63,93,220,220,220,539,0,47,42.74211502361849,16.00000006146729,217.99999999348074,22.0
1621873773,1,,Aggregated,0.900000,0.000000,47,47,47,47,47,62,63,93,220,220,220,540,0,47,42.74999999583492,16.00000006146729,217.99999999348074,22.0
1621873774,1,,Aggregated,0.900000,0.000000,47,47,47,47,47,62,63,93,220,220,220,541,0,47,42.757855818216136,16.00000006146729,217.99999999348074,22.0
1621873775,1,,Aggregated,0.900000,0.000000,47,47,47,47,47,62,63,93,220,220,220,542,0,47,42.73800737575913,16.00000006146729,217.99999999348074,22.0
1621873776,1,,Aggregated,0.900000,0.000000,47,47,47,47,47,62,63,93,220,220,220,543,0,47,42.74585634932217,16.00000006146729,217.99999999348074,22.0
1621873777,1,,Aggregated,0.900000,0.000000,47,47,47,47,47,62,63,93,220,220,220,544,0,47,42.75367646636476,16.00000006146729,217.99999999348074,22.0
1621873778,1,,Aggregated,0.900000,0.000000,47,47,47,47,47,62,63,93,220,220,220,545,0,47,42.76146788573012,16.00000006146729,217.99999999348074,22.0
1621873779,1,,Aggregated,1.000000,0.000000,47,47,47,47,47,62,63,93,220,220,220,546,0,47,42.7692307648846,16.00000006146729,217.99999999348074,22.0
1621873780,1,,Aggregated,1.000000,0.000000,47,47,47,47,47,62,63,93,220,220,220,547,0,47,42.776965260781495,16.00000006146729,217.99999999348074,22.0
1621873781,1,,Aggregated,1.000000,0.000000,47,47,47,47,47,62,63,93,220,220,220,548,0,47,42.75729926579197,16.00000006146729,217.99999999348074,22.0
1621873782,1,,Aggregated,1.000000,0.000000,47,47,47,47,47,62,63,93,220,220,220,549,0,47,42.765027318168464,16.00000006146729,217.99999999348074,22.0
1621873783,1,,Aggregated,1.000000,0.000000,47,47,47,47,47,62,63,93,220,220,220,550,0,47,42.74363635933366,16.00000006146729,217.99999999348074,22.0
1621873784,1,,Aggregated,1.000000,0.000000,47,47,47,47,47,62,63,93,220,220,220,551,0,47,42.751361157055506,16.00000006146729,217.99999999348074,22.0
1621873785,1,,Aggregated,1.000000,0.000000,47,47,47,47,47,62,63,93,220,220,220,552,0,47,42.731884053521924,16.00000006146729,217.99999999348074,22.0
1621873786,1,,Aggregated,1.000000,0.000000,47,47,47,47,47,62,63,93,220,220,220,553,0,47,42.73960216557792,16.00000006146729,217.99999999348074,22.0
1621873787,1,,Aggregated,0.900000,0.000000,47,47,47,47,47,62,63,93,220,220,220,554,0,47,42.7472924144135,16.00000006146729,217.99999999348074,22.0
1621873788,1,,Aggregated,0.900000,0.000000,47,47,47,47,47,62,63,93,220,220,220,555,0,47,42.726126121701085,16.00000006146729,217.99999999348074,22.0
1621873789,1,,Aggregated,0.900000,0.000000,47,47,47,47,47,62,63,93,220,220,220,556,0,47,42.76079136234199,16.00000006146729,217.99999999348074,22.0
1621873790,1,,Aggregated,0.900000,0.000000,47,47,47,47,47,62,63,93,220,220,220,557,0,47,42.76840214987906,16.00000006146729,217.99999999348074,22.0
1621873791,1,,Aggregated,0.900000,0.000000,47,47,47,47,47,62,63,93,220,220,220,558,0,47,42.77598565839912,16.00000006146729,217.99999999348074,22.0
1621873792,1,,Aggregated,0.900000,0.000000,47,47,47,47,47,62,63,93,220,220,220,559,0,47,42.783542034717705,16.00000006146729,217.99999999348074,22.0
1621873793,1,,Aggregated,0.900000,0.000000,47,47,47,47,47,62,63,93,220,220,220,560,0,47,42.79107142377013,16.00000006146729,217.99999999348074,22.0
1621873794,1,,Aggregated,0.900000,0.000000,47,47,47,47,47,62,63,93,220,220,220,561,0,47,42.771836002349005,16.00000006146729,217.99999999348074,22.0
1621873795,1,,Aggregated,0.900000,0.000000,47,47,47,47,47,62,63,93,220,220,220,562,0,47,42.752669034384894,16.00000006146729,217.99999999348074,22.0
1621873796,1,,Aggregated,0.900000,0.000000,47,47,47,47,47,62,63,93,220,220,220,562,0,47,42.752669034384894,16.00000006146729,217.99999999348074,22.0
1621873797,1,,Aggregated,0.900000,0.000000,47,47,47,47,47,62,63,93,220,220,220,563,0,47,42.76021313915595,16.00000006146729,217.99999999348074,22.0
1621873798,1,,Aggregated,1.000000,0.000000,47,47,47,47,47,62,63,93,220,220,220,564,0,47,42.76773049178242,16.00000006146729,217.99999999348074,22.0
1621873799,1,,Aggregated,1.000000,0.000000,47,47,47,47,47,62,63,93,220,220,220,565,0,47,42.746902650131524,16.00000006146729,217.99999999348074,22.0
1621873800,1,,Aggregated,1.000000,0.000000,47,47,47,47,47,62,63,93,220,220,220,566,0,47,42.75441695643958,16.00000006146729,217.99999999348074,22.0
