Type,Name,Request Count,Failure Count,Median Response Time,Average Response Time,Min Response Time,Max Response Time,Average Content Size,Requests/s,Failures/s,50%,66%,75%,80%,90%,95%,98%,99%,99.9%,99.99%,100%
GET,/prod/credit,4879,0,47,50.46443943634151,15.000000013969839,515.999999945052,22.0,82.05421650522148,0.0,47,47,47,47,63,160,200,220,420,520,520
,Aggregated,4879,0,47,50.46443943634151,15.000000013969839,515.999999945052,22.0,82.05421650522148,0.0,47,47,47,47,63,160,200,220,420,520,520
