Type,Name,Request Count,Failure Count,Median Response Time,Average Response Time,Min Response Time,Max Response Time,Average Content Size,Requests/s,Failures/s,50%,66%,75%,80%,90%,95%,98%,99%,99.9%,99.99%,100%
GET,/prod/credit,4874,0,47,48.62433319265894,15.000000013969839,234.99999998603016,22.0,82.12277462725325,0.0,47,47,47,47,62,140,190,200,220,230,230
,Aggregated,4874,0,47,48.62433319265894,15.000000013969839,234.99999998603016,22.0,82.12277462725325,0.0,47,47,47,47,62,140,190,200,220,230,230
