Type,Name,Request Count,Failure Count,Median Response Time,Average Response Time,Min Response Time,Max Response Time,Average Content Size,Requests/s,Failures/s,50%,66%,75%,80%,90%,95%,98%,99%,99.9%,99.99%,100%
GET,/prod/credit,5,0,420.0,425.2000000094995,375.0,500.0,22.0,0.0006943560749723984,0.0,420,420,420,500,500,500,500,500,500,500,500
,Aggregated,5,0,420.0,425.2000000094995,375.0,500.0,22.0,0.0006943560749723984,0.0,420,420,420,500,500,500,500,500,500,500,500
