Type,Name,Request Count,Failure Count,Median Response Time,Average Response Time,Min Response Time,Max Response Time,Average Content Size,Requests/s,Failures/s,50%,66%,75%,80%,90%,95%,98%,99%,99.9%,99.99%,100%
GET,//credit,581,0,16,23.142857143051103,0,234.99999998603016,20.0,0.96961084597552,0.0,16,31,31,31,32,47,62,79,230,230,230
,Aggregated,581,0,16,23.142857143051103,0,234.99999998603016,20.0,0.96961084597552,0.0,16,31,31,31,32,47,62,79,230,230,230
