Type,Name,Request Count,Failure Count,Median Response Time,Average Response Time,Min Response Time,Max Response Time,Average Content Size,Requests/s,Failures/s,50%,66%,75%,80%,90%,95%,98%,99%,99.9%,99.99%,100%
GET,//credit,5,0,94,91.20000002440065,63.00000008195639,109.99999998603016,20.0,0.0006944247158905062,0.0,94,110,110,110,110,110,110,110,110,110,110
,Aggregated,5,0,94,91.20000002440065,63.00000008195639,109.99999998603016,20.0,0.0006944247158905062,0.0,94,110,110,110,110,110,110,110,110,110,110
