Type,Name,Request Count,Failure Count,Median Response Time,Average Response Time,Min Response Time,Max Response Time,Average Content Size,Requests/s,Failures/s,50%,66%,75%,80%,90%,95%,98%,99%,99.9%,99.99%,100%
GET,//credit,4888,0,16,22.556464813628505,0,437.99999996554106,20.0,82.25321964254468,0.0,16,16,31,31,32,78,110,120,220,440,440
,Aggregated,4888,0,16,22.556464813628505,0,437.99999996554106,20.0,82.25321964254468,0.0,16,16,31,31,32,78,110,120,220,440,440
