Type,Name,Request Count,Failure Count,Median Response Time,Average Response Time,Min Response Time,Max Response Time,Average Content Size,Requests/s,Failures/s,50%,66%,75%,80%,90%,95%,98%,99%,99.9%,99.99%,100%
GET,//credit,582,0,16,17.292096220153702,0,313.0000000819564,20.0,0.9717809185704164,0.0,16,16,16,16,31,31,78,110,310,310,310
,Aggregated,582,0,16,17.292096220153702,0,313.0000000819564,20.0,0.9717809185704164,0.0,16,16,16,16,31,31,78,110,310,310,310
