Type,Name,Request Count,Failure Count,Median Response Time,Average Response Time,Min Response Time,Max Response Time,Average Content Size,Requests/s,Failures/s,50%,66%,75%,80%,90%,95%,98%,99%,99.9%,99.99%,100%
GET,/credit,5,0,950.0,912.8000000026077,750.0,1063.0000000819564,20.0,0.0006942875254276608,0.0,950,950,950,1100,1100,1100,1100,1100,1100,1100,1100
,Aggregated,5,0,950.0,912.8000000026077,750.0,1063.0000000819564,20.0,0.0006942875254276608,0.0,950,950,950,1100,1100,1100,1100,1100,1100,1100,1100
