Type,Name,Request Count,Failure Count,Median Response Time,Average Response Time,Min Response Time,Max Response Time,Average Content Size,Requests/s,Failures/s,50%,66%,75%,80%,90%,95%,98%,99%,99.9%,99.99%,100%
GET,/credit,4847,0,47,89.29812255105949,15.000000013969839,3969.000000040978,20.0,81.67284268333867,0.0,47,47,63,63,110,160,620,1500,3200,4000,4000
,Aggregated,4847,0,47,89.29812255105949,15.000000013969839,3969.000000040978,20.0,81.67284268333867,0.0,47,47,63,63,110,160,620,1500,3200,4000,4000
