Timestamp,User Count,Type,Name,Requests/s,Failures/s,50%,66%,75%,80%,90%,95%,98%,99%,99.9%,99.99%,100%,Total Request Count,Total Failure Count,Total Median Response Time,Total Average Response Time,Total Min Response Time,Total Max Response Time,Total Average Content Size
1621966818,1,,Aggregated,0.000000,0.000000,N/A,N/A,N/A,N/A,N/A,N/A,N/A,N/A,N/A,N/A,N/A,0,0,0,0,0,0,0
1621966819,1,,Aggregated,0.000000,0.000000,190,190,190,190,190,190,190,190,190,190,190,1,0,187.99999996554106,187.99999996554106,187.99999996554106,187.99999996554106,20.0
1621966820,1,,Aggregated,0.000000,0.000000,190,190,190,190,190,190,190,190,190,190,190,2,0,47.0000000204891,117.49999999301508,47.0000000204891,187.99999996554106,20.0
1621966821,1,,Aggregated,0.000000,0.000000,47,47,190,190,190,190,190,190,190,190,190,3,0,47.0000000204891,94.00000000217308,47.0000000204891,187.99999996554106,20.0
1621966822,1,,Aggregated,1.000000,0.000000,47,47,190,190,190,190,190,190,190,190,190,4,0,47,78.24999999138527,30.999999959021807,187.99999996554106,20.0
1621966823,1,,Aggregated,1.000000,0.000000,47,47,47,190,190,190,190,190,190,190,190,5,0,47,68.79999998491257,30.999999959021807,187.99999996554106,20.0
1621966824,1,,Aggregated,1.000000,0.000000,47,47,47,47,190,190,190,190,190,190,190,6,0,31,62.499999980597444,30.999999959021807,187.99999996554106,20.0
1621966825,1,,Aggregated,1.000000,0.000000,31,47,47,47,190,190,190,190,190,190,190,7,0,31,57.99999999414597,30.999999959021807,187.99999996554106,20.0
1621966826,1,,Aggregated,1.000000,0.000000,31,47,47,47,190,190,190,190,190,190,190,8,0,31,54.62500000430737,30.999999959021807,187.99999996554106,20.0
1621966827,1,,Aggregated,1.000000,0.000000,31,46,47,47,190,190,190,190,190,190,190,9,0,31,53.66666666749451,30.999999959021807,187.99999996554106,20.0
1621966828,1,,Aggregated,1.000000,0.000000,31,46,47,47,190,190,190,190,190,190,190,10,0,31,51.39999999664724,30.999999959021807,187.99999996554106,20.0
1621966829,1,,Aggregated,1.000000,0.000000,31,46,47,47,47,190,190,190,190,190,190,11,0,31,49.54545453868129,30.999999959021807,187.99999996554106,20.0
1621966830,1,,Aggregated,0.900000,0.000000,31,32,47,47,47,190,190,190,190,190,190,12,0,31,48.08333332766779,30.999999959021807,187.99999996554106,20.0
1621966831,1,,Aggregated,0.900000,0.000000,31,32,46,47,47,190,190,190,190,190,190,13,0,31,46.84615384142559,30.999999959021807,187.99999996554106,20.0
1621966832,1,,Aggregated,0.900000,0.000000,32,46,47,47,47,190,190,190,190,190,190,14,0,31,46.857142854215844,30.999999959021807,187.99999996554106,20.0
1621966833,1,,Aggregated,0.900000,0.000000,31,32,47,47,47,190,190,190,190,190,190,15,0,31,45.80000000229726,30.999999959021807,187.99999996554106,20.0
1621966834,1,,Aggregated,0.900000,0.000000,31,32,47,47,47,190,190,190,190,190,190,16,0,31,44.874999999592546,30.999999959021807,187.99999996554106,20.0
1621966835,1,,Aggregated,0.900000,0.000000,31,32,46,47,47,190,190,190,190,190,190,17,0,31,44.11764705882353,30.999999959021807,187.99999996554106,20.0
1621966836,1,,Aggregated,0.900000,0.000000,32,32,46,47,47,190,190,190,190,190,190,18,0,31,43.44444444480663,30.999999959021807,187.99999996554106,20.0
1621966837,1,,Aggregated,0.900000,0.000000,32,32,47,47,47,190,190,190,190,190,190,19,0,32,43.631578948789915,30.999999959021807,187.99999996554106,20.0
1621966838,1,,Aggregated,0.900000,0.000000,32,32,47,47,47,190,190,190,190,190,190,20,0,31,43.000000005122274,30.999999959021807,187.99999996554106,20.0
1621966839,1,,Aggregated,0.900000,0.000000,31,32,46,47,47,47,190,190,190,190,190,21,0,31,42.42857143149844,30.999999959021807,187.99999996554106,20.0
1621966840,1,,Aggregated,0.900000,0.000000,31,32,46,47,47,47,190,190,190,190,190,21,0,31,42.42857143149844,30.999999959021807,187.99999996554106,20.0
1621966841,1,,Aggregated,1.000000,0.000000,32,32,47,47,47,63,190,190,190,190,190,22,0,31,43.363636370155625,30.999999959021807,187.99999996554106,20.0
1621966842,1,,Aggregated,1.000000,0.000000,32,46,47,47,47,63,190,190,190,190,190,23,0,32,43.478260874626756,30.999999959021807,187.99999996554106,20.0
1621966843,1,,Aggregated,1.000000,0.000000,32,32,47,47,47,63,190,190,190,190,190,24,0,31,42.95833333647655,30.999999959021807,187.99999996554106,20.0
1621966844,1,,Aggregated,1.000000,0.000000,31,32,46,47,47,63,190,190,190,190,190,25,0,31,42.48000000137836,30.999999959021807,187.99999996554106,20.0
1621966845,1,,Aggregated,1.000000,0.000000,31,32,46,47,47,63,190,190,190,190,190,26,0,31,42.0384615382108,30.999999959021807,187.99999996554106,20.0
1621966846,1,,Aggregated,1.000000,0.000000,31,32,46,47,47,63,190,190,190,190,190,27,0,31,41.629629627870465,30.999999959021807,187.99999996554106,20.0
1621966847,1,,Aggregated,1.000000,0.000000,31,32,46,47,47,63,190,190,190,190,190,28,0,31,41.24999999684015,30.999999959021807,187.99999996554106,20.0
1621966848,1,,Aggregated,1.000000,0.000000,31,32,46,47,47,63,190,190,190,190,190,29,0,31,41.4482758597246,30.999999959021807,187.99999996554106,20.0
1621966849,1,,Aggregated,1.000000,0.000000,31,32,46,47,47,63,190,190,190,190,190,30,0,31,41.133333331284426,30.999999959021807,187.99999996554106,20.0
1621966850,1,,Aggregated,0.900000,0.000000,31,32,46,47,47,63,190,190,190,190,190,31,0,31,40.80645160959853,30.999999959021807,187.99999996554106,20.0
1621966851,1,,Aggregated,0.900000,0.000000,31,32,46,47,47,63,190,190,190,190,190,32,0,31,40.49999999551801,30.999999959021807,187.99999996554106,20.0
1621966852,1,,Aggregated,0.900000,0.000000,31,32,46,47,47,63,190,190,190,190,190,33,0,31,40.212121206533276,30.999999959021807,187.99999996554106,20.0
1621966853,1,,Aggregated,0.900000,0.000000,31,32,46,47,47,63,190,190,190,190,190,34,0,31,40.41176470106139,30.999999959021807,187.99999996554106,20.0
1621966854,1,,Aggregated,0.900000,0.000000,31,32,46,47,47,63,190,190,190,190,190,35,0,31,40.17142856693162,30.999999959021807,187.99999996554106,20.0
1621966855,1,,Aggregated,0.900000,0.000000,31,32,46,47,47,63,190,190,190,190,190,36,0,31,39.91666666115634,30.999999959021807,187.99999996554106,20.0
1621966856,1,,Aggregated,0.900000,0.000000,31,32,46,47,47,63,190,190,190,190,190,37,0,31,39.7027026975175,30.999999959021807,187.99999996554106,20.0
1621966857,1,,Aggregated,0.900000,0.000000,31,32,46,47,47,63,190,190,190,190,190,38,0,31,39.49999999512281,30.999999959021807,187.99999996554106,20.0
1621966858,1,,Aggregated,0.900000,0.000000,31,32,46,47,47,63,190,190,190,190,190,39,0,31,39.69230768808092,30.999999959021807,187.99999996554106,20.0
1621966859,1,,Aggregated,0.900000,0.000000,31,32,46,47,47,63,190,190,190,190,190,40,0,31,39.474999997764826,30.999999959021807,187.99999996554106,20.0
1621966860,1,,Aggregated,1.000000,0.000000,31,32,46,47,47,47,190,190,190,190,190,41,0,31,39.2682926797467,30.999999959021807,187.99999996554106,20.0
1621966861,1,,Aggregated,1.000000,0.000000,31,32,46,47,47,47,190,190,190,190,190,42,0,31,39.09523809228891,30.999999959021807,187.99999996554106,20.0
1621966862,1,,Aggregated,1.000000,0.000000,31,32,46,47,47,47,190,190,190,190,190,43,0,31,38.93023255541054,30.999999959021807,187.99999996554106,20.0
1621966863,1,,Aggregated,1.000000,0.000000,32,32,46,47,47,47,190,190,190,190,190,44,0,31,39.113636361435056,30.999999959021807,187.99999996554106,20.0
1621966864,1,,Aggregated,1.000000,0.000000,31,32,46,47,47,47,190,190,190,190,190,45,0,31,38.93333333285732,30.999999959021807,187.99999996554106,20.0
1621966865,1,,Aggregated,1.000000,0.000000,31,32,46,47,47,47,190,190,190,190,190,46,0,31,38.7608695638609,30.999999959021807,187.99999996554106,20.0
1621966866,1,,Aggregated,1.000000,0.000000,31,32,46,47,47,47,190,190,190,190,190,46,0,31,38.7608695638609,30.999999959021807,187.99999996554106,20.0
1621966867,1,,Aggregated,1.000000,0.000000,31,32,46,47,47,47,190,190,190,190,190,47,0,31,38.61702127540682,30.999999959021807,187.99999996554106,20.0
1621966868,1,,Aggregated,1.000000,0.000000,31,32,46,47,47,47,190,190,190,190,190,48,0,31,38.45833333374079,30.999999959021807,187.99999996554106,20.0
1621966869,1,,Aggregated,1.000000,0.000000,31,32,46,47,47,47,190,190,190,190,190,49,0,31,38.61224489780713,30.999999959021807,187.99999996554106,20.0
1621966870,1,,Aggregated,1.000000,0.000000,31,32,46,47,47,47,190,190,190,190,190,50,0,31,38.459999999031425,30.999999959021807,187.99999996554106,20.0
1621966871,1,,Aggregated,1.000000,0.000000,31,32,46,47,47,47,63,190,190,190,190,51,0,31,38.62745097984432,30.999999959021807,187.99999996554106,20.0
1621966872,1,,Aggregated,0.900000,0.000000,31,32,46,47,47,47,63,190,190,190,190,52,0,31,38.48076922944389,30.999999959021807,187.99999996554106,20.0
1621966873,1,,Aggregated,0.900000,0.000000,31,32,46,47,47,47,63,190,190,190,190,53,0,31,38.33962263943592,30.999999959021807,187.99999996554106,20.0
1621966874,1,,Aggregated,0.900000,0.000000,31,32,46,47,47,47,63,190,190,190,190,54,0,31,38.203703700909735,30.999999959021807,187.99999996554106,20.0
1621966875,1,,Aggregated,0.900000,0.000000,31,32,46,47,47,47,63,190,190,190,190,55,0,31,38.090909088284455,30.999999959021807,187.99999996554106,20.0
1621966876,1,,Aggregated,0.900000,0.000000,31,32,46,46,47,47,63,190,190,190,190,56,0,31,37.982142854681506,30.999999959021807,187.99999996554106,20.0
1621966877,1,,Aggregated,0.900000,0.000000,31,32,32,46,47,47,63,190,190,190,190,57,0,31,37.85964911966993,30.999999959021807,187.99999996554106,20.0
1621966878,1,,Aggregated,0.900000,0.000000,31,32,32,46,47,47,63,190,190,190,190,58,0,31,37.74137930655531,30.999999959021807,187.99999996554106,20.0
1621966879,1,,Aggregated,0.900000,0.000000,31,32,46,47,47,47,63,190,190,190,190,59,0,31,37.8983050793946,30.999999959021807,187.99999996554106,20.0
1621966880,1,,Aggregated,0.900000,0.000000,31,32,46,47,47,47,63,190,190,190,190,60,0,31,38.04999999507951,30.999999959021807,187.99999996554106,20.0
1621966881,1,,Aggregated,0.900000,0.000000,31,32,46,47,47,47,63,190,190,190,190,61,0,31,38.196721306971476,30.999999959021807,187.99999996554106,20.0
1621966882,1,,Aggregated,1.000000,0.000000,31,32,46,47,47,47,63,190,190,190,190,62,0,31,38.08064515619809,30.999999959021807,187.99999996554106,20.0
1621966884,1,,Aggregated,1.000000,0.000000,31,32,46,47,47,47,63,190,190,190,190,63,0,31,37.968253962592115,30.999999959021807,187.99999996554106,20.0
1621966885,1,,Aggregated,1.000000,0.000000,31,32,46,47,47,47,63,190,190,190,190,64,0,31,37.85937499378633,30.999999959021807,187.99999996554106,20.0
1621966886,1,,Aggregated,1.000000,0.000000,31,32,46,47,47,47,63,190,190,190,190,65,0,31,37.99999999419715,30.999999959021807,187.99999996554106,20.0
1621966887,1,,Aggregated,1.000000,0.000000,31,32,46,47,47,47,63,190,190,190,190,66,0,31,37.893939389367446,30.999999959021807,187.99999996554106,20.0
1621966888,1,,Aggregated,1.000000,0.000000,31,32,46,47,47,47,63,190,190,190,190,67,0,31,38.01492536822751,30.999999959021807,187.99999996554106,20.0
1621966889,1,,Aggregated,1.000000,0.000000,31,32,46,47,47,47,63,190,190,190,190,68,0,31,37.911764700445076,30.999999959021807,187.99999996554106,20.0
1621966890,1,,Aggregated,1.000000,0.000000,31,32,46,47,47,47,63,190,190,190,190,69,0,31,37.81159419694618,30.999999959021807,187.99999996554106,20.0
1621966891,1,,Aggregated,1.000000,0.000000,31,32,46,47,47,47,63,190,190,190,190,70,0,31,37.71428570949605,30.999999959021807,187.99999996554106,20.0
1621966892,1,,Aggregated,1.000000,0.000000,31,32,46,47,47,47,63,190,190,190,190,71,0,31,37.61971830619945,30.999999959021807,187.99999996554106,20.0
1621966893,1,,Aggregated,1.000000,0.000000,31,32,46,47,47,47,63,190,190,190,190,71,0,31,37.61971830619945,30.999999959021807,187.99999996554106,20.0
1621966894,1,,Aggregated,1.000000,0.000000,31,32,46,47,47,47,63,190,190,190,190,72,0,31,37.52777777359976,30.999999959021807,187.99999996554106,20.0
1621966895,1,,Aggregated,0.900000,0.000000,31,32,46,47,47,47,63,190,190,190,190,73,0,31,37.45205479048907,30.999999959021807,187.99999996554106,20.0
1621966896,1,,Aggregated,0.900000,0.000000,31,32,46,47,47,47,63,190,190,190,190,74,0,31,37.581081077380965,30.999999959021807,187.99999996554106,20.0
1621966897,1,,Aggregated,0.900000,0.000000,31,32,46,47,47,47,63,190,190,190,190,75,0,31,37.693333329322435,30.999999959021807,187.99999996554106,20.0
1621966898,1,,Aggregated,0.900000,0.000000,31,32,46,47,47,47,63,190,190,190,190,76,0,31,37.815789469995686,30.999999959021807,187.99999996554106,20.0
1621966899,1,,Aggregated,0.900000,0.000000,31,32,46,47,47,47,63,190,190,190,190,77,0,31,37.740259736703784,30.999999959021807,187.99999996554106,20.0
1621966900,1,,Aggregated,0.900000,0.000000,31,32,46,47,47,47,63,190,190,190,190,78,0,31,37.65384614981042,30.999999959021807,187.99999996554106,20.0
1621966901,1,,Aggregated,0.900000,0.000000,31,32,46,47,47,47,63,190,190,190,190,79,0,31,37.5696202486612,30.999999959021807,187.99999996554106,20.0
1621966902,1,,Aggregated,0.900000,0.000000,31,32,46,47,47,47,63,190,190,190,190,80,0,31,37.68749999580905,30.999999959021807,187.99999996554106,20.0
1621966903,1,,Aggregated,0.900000,0.000000,31,32,46,47,47,47,63,190,190,190,190,81,0,31,37.60493826695982,30.999999959021807,187.99999996554106,20.0
1621966904,1,,Aggregated,0.900000,0.000000,31,32,46,47,47,47,63,190,190,190,190,82,0,31,37.53658536134469,30.999999959021807,187.99999996554106,20.0
1621966905,1,,Aggregated,1.000000,0.000000,31,32,46,47,47,47,63,190,190,190,190,83,0,31,37.46987951369619,30.999999959021807,187.99999996554106,20.0
1621966906,1,,Aggregated,1.000000,0.000000,31,32,46,47,47,47,63,190,190,190,190,84,0,31,37.57142856678305,30.999999959021807,187.99999996554106,20.0
1621966907,1,,Aggregated,1.000000,0.000000,31,32,46,47,47,47,63,190,190,190,190,85,0,31,37.505882348427,30.999999959021807,187.99999996554106,20.0
1621966908,1,,Aggregated,1.000000,0.000000,32,32,46,47,47,47,63,190,190,190,190,86,0,31,37.616279065544,30.999999959021807,187.99999996554106,20.0
1621966909,1,,Aggregated,1.000000,0.000000,31,32,46,47,47,47,63,190,190,190,190,87,0,31,37.540229880411566,30.999999959021807,187.99999996554106,20.0
1621966910,1,,Aggregated,1.000000,0.000000,32,32,46,47,47,47,63,190,190,190,190,88,0,31,37.477272722753696,30.999999959021807,187.99999996554106,20.0
1621966911,1,,Aggregated,1.000000,0.000000,32,32,46,47,47,47,63,190,190,190,190,89,0,32,37.415730332683644,30.999999959021807,187.99999996554106,20.0
1621966912,1,,Aggregated,1.000000,0.000000,32,32,46,47,47,47,63,190,190,190,190,90,0,31,37.344444439642956,30.999999959021807,187.99999996554106,20.0
1621966913,1,,Aggregated,1.000000,0.000000,31,32,46,47,47,47,63,190,190,190,190,91,0,31,37.27472526952624,30.999999959021807,187.99999996554106,20.0
1621966914,1,,Aggregated,1.000000,0.000000,31,32,46,47,47,47,63,190,190,190,190,92,0,31,37.2065217335425,30.999999959021807,187.99999996554106,20.0
1621966915,1,,Aggregated,1.000000,0.000000,31,32,46,47,47,47,63,190,190,190,190,93,0,31,37.13978494151986,30.999999959021807,187.99999996554106,20.0
1621966916,1,,Aggregated,1.000000,0.000000,31,32,46,47,47,47,63,190,190,190,190,94,0,31,37.07446808124239,30.999999959021807,187.99999996554106,20.0
1621966917,1,,Aggregated,1.000000,0.000000,31,32,46,47,47,47,63,190,190,190,190,95,0,31,37.17894736358798,30.999999959021807,187.99999996554106,20.0
1621966918,1,,Aggregated,0.900000,0.000000,31,32,46,47,47,47,63,190,190,190,190,96,0,31,37.114583329336405,30.999999959021807,187.99999996554106,20.0
1621966919,1,,Aggregated,0.900000,0.000000,31,32,46,47,47,47,63,190,190,190,190,97,0,31,37.05154638857456,30.999999959021807,187.99999996554106,20.0
1621966920,1,,Aggregated,0.900000,0.000000,31,32,46,47,47,47,63,190,190,190,190,98,0,31,37.14285713943596,30.999999959021807,187.99999996554106,20.0
1621966921,1,,Aggregated,0.900000,0.000000,31,32,46,47,47,47,63,190,190,190,190,99,0,31,37.090909087588315,30.999999959021807,187.99999996554106,20.0
1621966922,1,,Aggregated,0.900000,0.000000,31,32,46,47,47,47,63,190,190,190,190,99,0,31,37.090909087588315,30.999999959021807,187.99999996554106,20.0
1621966923,1,,Aggregated,0.900000,0.000000,31,32,46,47,47,47,63,190,190,190,190,100,0,31,37.039999996777624,30.999999959021807,187.99999996554106,20.0
1621966924,1,,Aggregated,0.900000,0.000000,31,32,46,46,47,47,47,63,190,190,190,101,0,31,36.98019801620578,30.999999959021807,187.99999996554106,20.0
1621966925,1,,Aggregated,0.900000,0.000000,31,32,46,46,47,47,47,63,190,190,190,102,0,31,36.931372545522585,30.999999959021807,187.99999996554106,20.0
1621966926,1,,Aggregated,0.900000,0.000000,31,32,46,46,47,47,47,63,190,190,190,103,0,31,36.88349514223129,30.999999959021807,187.99999996554106,20.0
1621966927,1,,Aggregated,0.900000,0.000000,32,32,46,46,47,47,47,63,190,190,190,104,0,31,36.97115384252706,30.999999959021807,187.99999996554106,20.0
1621966928,1,,Aggregated,0.900000,0.000000,32,32,46,46,47,47,47,63,190,190,190,105,0,32,36.92380952027937,30.999999959021807,187.99999996554106,20.0
1621966929,1,,Aggregated,1.000000,0.000000,32,32,46,46,47,47,47,63,190,190,190,106,0,32,36.877358487130685,30.999999959021807,187.99999996554106,20.0
1621966930,1,,Aggregated,1.000000,0.000000,32,32,46,46,47,47,47,63,190,190,190,107,0,32,36.96261681877425,30.999999959021807,187.99999996554106,20.0
1621966931,1,,Aggregated,1.000000,0.000000,32,32,46,46,47,47,47,63,190,190,190,108,0,32,37.05555555212346,30.999999959021807,187.99999996554106,20.0
1621966932,1,,Aggregated,1.000000,0.000000,32,32,46,47,47,47,47,63,190,190,190,109,0,32,37.14678898761305,30.999999959021807,187.99999996554106,20.0
1621966933,1,,Aggregated,1.000000,0.000000,32,32,46,47,47,47,47,63,190,190,190,110,0,32,37.23636363336647,30.999999959021807,187.99999996554106,20.0
1621966934,1,,Aggregated,1.000000,0.000000,32,32,46,47,47,47,47,63,190,190,190,111,0,32,37.32432432153875,30.999999959021807,187.99999996554106,20.0
1621966935,1,,Aggregated,1.000000,0.000000,32,32,46,47,47,47,47,63,190,190,190,112,0,32,37.41071428313652,30.999999959021807,187.99999996554106,20.0
1621966936,1,,Aggregated,1.000000,0.000000,32,32,46,47,47,47,47,63,190,190,190,113,0,32,37.495575218865305,30.999999959021807,187.99999996554106,20.0
1621966937,1,,Aggregated,1.000000,0.000000,32,32,46,47,47,47,47,63,190,190,190,114,0,32,37.4385964885158,30.999999959021807,187.99999996554106,20.0
1621966938,1,,Aggregated,1.000000,0.000000,32,32,46,47,47,47,47,63,190,190,190,115,0,32,37.52173912792426,30.999999959021807,187.99999996554106,20.0
1621966939,1,,Aggregated,1.000000,0.000000,32,32,46,47,47,47,47,63,190,190,190,116,0,32,37.465517238537174,30.999999959021807,187.99999996554106,20.0
1621966940,1,,Aggregated,0.900000,0.000000,32,32,46,47,47,47,47,63,190,190,190,117,0,32,37.547008544365816,30.999999959021807,187.99999996554106,20.0
1621966941,1,,Aggregated,0.900000,0.000000,32,32,46,47,47,47,47,63,190,190,190,118,0,32,37.49152542174778,30.999999959021807,187.99999996554106,20.0
1621966942,1,,Aggregated,0.900000,0.000000,32,32,46,47,47,47,47,63,190,190,190,119,0,32,37.43697478760723,30.999999959021807,187.99999996554106,20.0
1621966943,1,,Aggregated,0.900000,0.000000,32,32,46,47,47,47,47,63,190,190,190,120,0,32,37.516666664547905,30.999999959021807,187.99999996554106,20.0
1621966944,1,,Aggregated,0.900000,0.000000,32,32,46,47,47,47,47,63,190,190,190,121,0,32,37.47107437811792,30.999999959021807,187.99999996554106,20.0
1621966945,1,,Aggregated,0.900000,0.000000,32,32,46,47,47,47,47,63,190,190,190,122,0,32,37.41803278451877,30.999999959021807,187.99999996554106,20.0
1621966946,1,,Aggregated,0.900000,0.000000,32,32,46,47,47,47,47,63,190,190,190,123,0,32,37.36585365585619,30.999999959021807,187.99999996554106,20.0
1621966947,1,,Aggregated,0.900000,0.000000,32,32,46,47,47,47,47,63,190,190,190,124,0,32,37.32258064255509,30.999999959021807,187.99999996554106,20.0
1621966948,1,,Aggregated,0.900000,0.000000,32,32,46,47,47,47,47,63,190,190,190,125,0,32,37.39199999719858,30.999999959021807,187.99999996554106,20.0
1621966949,1,,Aggregated,0.900000,0.000000,32,32,46,47,47,47,47,63,190,190,190,126,0,32,37.34126983816543,30.999999959021807,187.99999996554106,20.0
1621966950,1,,Aggregated,0.900000,0.000000,32,32,46,47,47,47,47,63,190,190,190,126,0,32,37.34126983816543,30.999999959021807,187.99999996554106,20.0
1621966951,1,,Aggregated,1.000000,0.000000,32,32,46,47,47,47,47,63,190,190,190,127,0,32,37.417322831727034,30.999999959021807,187.99999996554106,20.0
1621966952,1,,Aggregated,1.000000,0.000000,32,32,46,47,47,47,47,63,190,190,190,128,0,32,37.36718749678403,30.999999959021807,187.99999996554106,20.0
1621966953,1,,Aggregated,1.000000,0.000000,32,32,46,47,47,47,47,63,190,190,190,129,0,32,37.441860462084065,30.999999959021807,187.99999996554106,20.0
1621966954,1,,Aggregated,1.000000,0.000000,32,32,46,47,47,47,47,63,190,190,190,130,0,32,37.515384611637835,30.999999959021807,187.99999996554106,20.0
1621966955,1,,Aggregated,1.000000,0.000000,32,32,46,47,47,47,47,63,190,190,190,131,0,32,37.473282439079675,30.999999959021807,187.99999996554106,20.0
1621966956,1,,Aggregated,1.000000,0.000000,32,32,46,47,47,47,47,63,190,190,190,132,0,32,37.43181817822695,30.999999959021807,187.99999996554106,20.0
1621966957,1,,Aggregated,1.000000,0.000000,32,32,46,47,47,47,47,63,190,190,190,133,0,32,37.3834586427442,30.999999959021807,187.99999996554106,20.0
1621966958,1,,Aggregated,1.000000,0.000000,32,32,46,47,47,47,47,63,190,190,190,134,0,32,37.33582089137314,30.999999959021807,187.99999996554106,20.0
1621966959,1,,Aggregated,1.000000,0.000000,32,32,46,47,47,47,47,63,190,190,190,135,0,32,37.40740740257833,30.999999959021807,187.99999996554106,20.0
1621966960,1,,Aggregated,1.000000,0.000000,32,32,47,47,47,47,63,120,190,190,190,136,0,32,38.05147058344172,30.999999959021807,187.99999996554106,20.0
1621966961,1,,Aggregated,1.000000,0.000000,32,32,46,47,47,47,63,120,190,190,190,137,0,32,38.00729926536199,30.999999959021807,187.99999996554106,20.0
1621966962,1,,Aggregated,0.900000,0.000000,32,32,47,47,47,47,63,120,190,190,190,138,0,32,38.07246376358756,30.999999959021807,187.99999996554106,20.0
1621966963,1,,Aggregated,0.900000,0.000000,32,32,47,47,47,47,63,120,190,190,190,139,0,32,38.021582729022334,30.999999959021807,187.99999996554106,20.0
1621966964,1,,Aggregated,0.900000,0.000000,32,32,47,47,47,47,63,120,190,190,190,140,0,32,38.08571428110424,30.999999959021807,187.99999996554106,20.0
1621966965,1,,Aggregated,0.900000,0.000000,32,32,47,47,47,47,63,120,190,190,190,141,0,32,38.148936165780725,30.999999959021807,187.99999996554106,20.0
1621966966,1,,Aggregated,0.900000,0.000000,32,32,47,47,47,47,63,120,190,190,190,142,0,32,38.09859154460637,30.999999959021807,187.99999996554106,20.0
1621966967,1,,Aggregated,0.900000,0.000000,32,32,47,47,47,47,63,120,190,190,190,143,0,32,38.16083915632583,30.999999959021807,187.99999996554106,20.0
1621966968,1,,Aggregated,0.900000,0.000000,32,32,47,47,47,47,63,120,190,190,190,144,0,32,38.11111110634455,30.999999959021807,187.99999996554106,20.0
1621966969,1,,Aggregated,0.900000,0.000000,32,32,47,47,47,47,63,120,190,190,190,145,0,32,38.06206896130381,30.999999959021807,187.99999996554106,20.0
1621966970,1,,Aggregated,0.900000,0.000000,32,32,47,47,47,47,63,120,190,190,190,146,0,32,38.01369862646911,30.999999959021807,187.99999996554106,20.0
1621966971,1,,Aggregated,0.900000,0.000000,32,32,47,47,47,47,63,120,190,190,190,147,0,32,37.96598639063613,30.999999959021807,187.99999996554106,20.0
1621966972,1,,Aggregated,1.000000,0.000000,32,32,47,47,47,47,63,120,190,190,190,148,0,32,38.02702702327027,30.999999959021807,187.99999996554106,20.0
1621966973,1,,Aggregated,1.000000,0.000000,32,32,47,47,47,47,63,120,190,190,190,149,0,32,38.08724831777231,30.999999959021807,187.99999996554106,20.0
1621966974,1,,Aggregated,1.000000,0.000000,32,32,47,47,47,47,63,120,190,190,190,150,0,32,38.046666662363954,30.999999959021807,187.99999996554106,20.0
1621966975,1,,Aggregated,1.000000,0.000000,32,32,47,47,47,47,63,120,190,190,190,150,0,32,38.046666662363954,30.999999959021807,187.99999996554106,20.0
1621966976,1,,Aggregated,1.000000,0.000000,32,32,47,47,47,47,47,120,190,190,190,151,0,32,38.10596026076214,30.999999959021807,187.99999996554106,20.0
1621966977,1,,Aggregated,1.000000,0.000000,32,32,47,47,47,47,47,120,190,190,190,152,0,32,38.059210521934894,30.999999959021807,187.99999996554106,20.0
1621966978,1,,Aggregated,1.000000,0.000000,32,32,47,47,47,47,47,120,190,190,190,153,0,32,38.013071890804746,30.999999959021807,187.99999996554106,20.0
1621966979,1,,Aggregated,1.000000,0.000000,32,32,47,47,47,47,47,120,190,190,190,154,0,32,37.96753246267629,30.999999959021807,187.99999996554106,20.0
1621966980,1,,Aggregated,1.000000,0.000000,32,32,47,47,47,47,47,120,190,190,190,155,0,32,38.02580644692024,30.999999959021807,187.99999996554106,20.0
1621966981,1,,Aggregated,1.000000,0.000000,32,32,47,47,47,47,47,120,190,190,190,156,0,32,37.98076922659022,30.999999959021807,187.99999996554106,20.0
1621966982,1,,Aggregated,1.000000,0.000000,32,32,47,47,47,47,47,120,190,190,190,157,0,32,37.93630572807068,30.999999959021807,187.99999996554106,20.0
1621966983,1,,Aggregated,0.900000,0.000000,32,32,47,47,47,47,47,120,190,190,190,158,0,32,37.89873417287098,30.999999959021807,187.99999996554106,20.0
1621966984,1,,Aggregated,0.900000,0.000000,32,32,47,47,47,47,47,120,190,190,190,159,0,32,37.95597483857927,30.999999959021807,187.99999996554106,20.0
1621966985,1,,Aggregated,0.900000,0.000000,32,32,47,47,47,47,47,120,190,190,190,160,0,32,38.00624999566935,30.999999959021807,187.99999996554106,20.0
1621966986,1,,Aggregated,0.900000,0.000000,32,46,47,47,47,47,47,120,190,190,190,161,0,32,38.06211179706575,30.999999959021807,187.99999996554106,20.0
1621966987,1,,Aggregated,0.900000,0.000000,32,32,47,47,47,47,47,120,190,190,190,162,0,32,38.01851851411486,30.999999959021807,187.99999996554106,20.0
1621966988,1,,Aggregated,0.900000,0.000000,32,46,47,47,47,47,47,120,190,190,190,163,0,32,38.0736196276509,30.999999959021807,187.99999996554106,20.0
1621966989,1,,Aggregated,0.900000,0.000000,32,46,47,47,47,47,47,120,190,190,190,164,0,32,38.03048780040316,30.999999959021807,187.99999996554106,20.0
1621966990,1,,Aggregated,0.900000,0.000000,32,32,47,47,47,47,47,120,190,190,190,165,0,32,37.987878783182666,30.999999959021807,187.99999996554106,20.0
1621966991,1,,Aggregated,0.900000,0.000000,32,46,47,47,47,47,47,120,190,190,190,166,0,32,38.04216867015439,30.999999959021807,187.99999996554106,20.0
1621966992,1,,Aggregated,0.900000,0.000000,32,46,47,47,47,47,47,120,190,190,190,167,0,32,37.99999999523743,30.999999959021807,187.99999996554106,20.0
1621966993,1,,Aggregated,1.000000,0.000000,32,46,47,47,47,47,47,120,190,190,190,168,0,32,38.05357142395916,30.999999959021807,187.99999996554106,20.0
1621966995,1,,Aggregated,1.000000,0.000000,32,46,47,47,47,47,47,120,190,190,190,169,0,32,38.01183431469918,30.999999959021807,187.99999996554106,20.0
1621966996,1,,Aggregated,1.000000,0.000000,32,46,47,47,47,47,47,120,190,190,190,170,0,32,37.970588230254016,30.999999959021807,187.99999996554106,20.0
1621966997,1,,Aggregated,1.000000,0.000000,32,32,47,47,47,47,47,120,190,190,190,171,0,32,37.92982455615324,30.999999959021807,187.99999996554106,20.0
1621966998,1,,Aggregated,1.000000,0.000000,32,32,47,47,47,47,47,120,190,190,190,172,0,32,37.88953487893978,30.999999959021807,187.99999996554106,20.0
1621966999,1,,Aggregated,1.000000,0.000000,32,32,47,47,47,47,47,120,190,190,190,173,0,32,37.8497109783415,30.999999959021807,187.99999996554106,20.0
1621967000,1,,Aggregated,1.000000,0.000000,32,32,47,47,47,47,47,120,190,190,190,174,0,32,37.81034482305805,30.999999959021807,187.99999996554106,20.0
1621967001,1,,Aggregated,1.000000,0.000000,32,32,47,47,47,47,47,120,190,190,190,175,0,32,37.862857138471945,30.999999959021807,187.99999996554106,20.0
1621967002,1,,Aggregated,1.000000,0.000000,32,32,47,47,47,47,47,120,190,190,190,176,0,32,37.82386363243197,30.999999959021807,187.99999996554106,20.0
1621967003,1,,Aggregated,1.000000,0.000000,32,32,47,47,47,47,47,120,190,190,190,177,0,32,37.78531073032231,30.999999959021807,187.99999996554106,20.0
1621967004,1,,Aggregated,1.000000,0.000000,32,32,47,47,47,47,47,120,190,190,190,178,0,32,37.75280898468297,30.999999959021807,187.99999996554106,20.0
1621967005,1,,Aggregated,1.000000,0.000000,32,32,47,47,47,47,47,120,190,190,190,179,0,32,37.804469269799206,30.999999959021807,187.99999996554106,20.0
1621967006,1,,Aggregated,0.900000,0.000000,32,32,47,47,47,47,47,120,190,190,190,180,0,32,37.76666666251711,30.999999959021807,187.99999996554106,20.0
1621967007,1,,Aggregated,0.900000,0.000000,32,32,47,47,47,47,47,120,190,190,190,180,0,32,37.76666666251711,30.999999959021807,187.99999996554106,20.0
1621967008,1,,Aggregated,0.900000,0.000000,32,32,47,47,47,47,47,120,190,190,190,181,0,32,37.73480662574364,30.999999959021807,187.99999996554106,20.0
1621967009,1,,Aggregated,0.900000,0.000000,32,32,47,47,47,47,47,120,190,190,190,182,0,32,37.703296699264385,30.999999959021807,187.99999996554106,20.0
1621967010,1,,Aggregated,0.900000,0.000000,32,32,47,47,47,47,47,120,190,190,190,183,0,32,37.74863387562355,30.999999959021807,187.99999996554106,20.0
1621967011,1,,Aggregated,0.900000,0.000000,32,32,47,47,47,47,47,120,190,190,190,184,0,32,37.71739130024798,30.999999959021807,187.99999996554106,20.0
1621967012,1,,Aggregated,0.900000,0.000000,32,32,47,47,47,47,47,120,190,190,190,185,0,32,37.767567563600636,30.999999959021807,187.99999996554106,20.0
1621967013,1,,Aggregated,0.900000,0.000000,32,32,47,47,47,47,47,120,190,190,190,186,0,32,37.81720429723982,30.999999959021807,187.99999996554106,20.0
1621967014,1,,Aggregated,0.900000,0.000000,32,46,47,47,47,47,47,120,190,190,190,187,0,32,37.86631015672244,30.999999959021807,187.99999996554106,20.0
1621967015,1,,Aggregated,0.900000,0.000000,32,46,47,47,47,47,47,120,190,190,190,188,0,32,37.914893612825374,30.999999959021807,187.99999996554106,20.0
1621967016,1,,Aggregated,0.900000,0.000000,32,46,47,47,47,47,47,120,190,190,190,189,0,32,37.87830687453231,30.999999959021807,187.99999996554106,20.0
1621967017,1,,Aggregated,1.000000,0.000000,32,46,47,47,47,47,47,120,190,190,190,190,0,32,37.842105259800235,30.999999959021807,187.99999996554106,20.0
1621967018,1,,Aggregated,1.000000,0.000000,32,46,47,47,47,47,47,120,190,190,190,191,0,32,37.89005235217863,30.999999959021807,187.99999996554106,20.0
1621967019,1,,Aggregated,1.000000,0.000000,32,46,47,47,47,47,47,120,190,190,190,192,0,32,37.85937499621165,30.999999959021807,187.99999996554106,20.0
1621967020,1,,Aggregated,1.000000,0.000000,32,46,47,47,47,47,47,120,190,190,190,193,0,32,37.82901554030651,30.999999959021807,187.99999996554106,20.0
1621967021,1,,Aggregated,1.000000,0.000000,32,46,47,47,47,47,47,120,190,190,190,194,0,32,37.79381442906277,30.999999959021807,187.99999996554106,20.0
1621967022,1,,Aggregated,1.000000,0.000000,32,32,47,47,47,47,47,120,190,190,190,195,0,32,37.758974354857436,30.999999959021807,187.99999996554106,20.0
1621967023,1,,Aggregated,1.000000,0.000000,32,32,47,47,47,47,47,120,190,190,190,196,0,32,37.729591832672035,30.999999959021807,187.99999996554106,20.0
1621967024,1,,Aggregated,1.000000,0.000000,32,46,47,47,47,47,47,120,190,190,190,197,0,32,37.77664974225486,30.999999959021807,187.99999996554106,20.0
1621967025,1,,Aggregated,1.000000,0.000000,32,32,47,47,47,47,47,120,190,190,190,198,0,32,37.742424238299144,30.999999959021807,187.99999996554106,20.0
1621967026,1,,Aggregated,1.000000,0.000000,32,32,47,47,47,47,47,120,190,190,190,199,0,32,37.70854270925755,30.999999959021807,187.99999996554106,20.0
1621967027,1,,Aggregated,1.000000,0.000000,32,46,47,47,47,47,47,120,190,190,190,200,0,32,37.754999995813705,30.999999959021807,187.99999996554106,20.0
1621967028,1,,Aggregated,1.000000,0.000000,32,46,47,47,47,47,47,63,190,190,190,201,0,32,37.80099502081209,30.999999959021807,187.99999996554106,20.0
1621967029,1,,Aggregated,1.000000,0.000000,32,46,47,47,47,47,47,63,190,190,190,202,0,32,37.841584154238724,30.999999959021807,187.99999996554106,20.0
1621967030,1,,Aggregated,0.900000,0.000000,32,46,47,47,47,47,47,63,190,190,190,203,0,32,37.88669950333355,30.999999959021807,187.99999996554106,20.0
1621967031,1,,Aggregated,0.900000,0.000000,32,46,47,47,47,47,47,63,190,190,190,204,0,32,37.85294117223398,30.999999959021807,187.99999996554106,20.0
1621967032,1,,Aggregated,0.900000,0.000000,32,46,47,47,47,47,47,63,190,190,190,205,0,32,37.819512191274,30.999999959021807,187.99999996554106,20.0
1621967033,1,,Aggregated,0.900000,0.000000,32,46,47,47,47,47,47,63,190,190,190,206,0,32,37.8640776661731,30.999999959021807,187.99999996554106,20.0
1621967034,1,,Aggregated,0.900000,0.000000,32,46,47,47,47,47,47,63,190,190,190,207,0,32,37.83091787048638,30.999999959021807,187.99999996554106,20.0
1621967035,1,,Aggregated,0.900000,0.000000,32,46,47,47,47,47,47,63,190,190,190,208,0,32,37.87499999620755,30.999999959021807,187.99999996554106,20.0
1621967036,1,,Aggregated,0.900000,0.000000,32,46,47,47,47,47,47,63,190,190,190,208,0,32,37.87499999620755,30.999999959021807,187.99999996554106,20.0
1621967037,1,,Aggregated,0.900000,0.000000,32,46,47,47,47,47,47,63,190,190,190,209,0,32,37.84210525974453,30.999999959021807,187.99999996554106,20.0
1621967038,1,,Aggregated,0.900000,0.000000,32,46,47,47,47,47,47,63,190,190,190,210,0,32,37.88571428186039,30.999999959021807,187.99999996554106,20.0
1621967039,1,,Aggregated,0.900000,0.000000,32,46,47,47,47,47,47,63,190,190,190,211,0,32,37.9289099488681,30.999999959021807,187.99999996554106,20.0
1621967040,1,,Aggregated,0.900000,0.000000,32,46,47,47,47,47,47,63,190,190,190,212,0,32,37.97169810958329,30.999999959021807,187.99999996554106,20.0
1621967041,1,,Aggregated,1.000000,0.000000,32,46,47,47,47,47,47,63,190,190,190,213,0,32,38.00938966762747,30.999999959021807,187.99999996554106,20.0
1621967042,1,,Aggregated,1.000000,0.000000,32,46,47,47,47,47,47,63,190,190,190,214,0,32,37.97663551011062,30.999999959021807,187.99999996554106,20.0
1621967043,1,,Aggregated,1.000000,0.000000,32,46,47,47,47,47,47,63,190,190,190,215,0,32,37.94883720544275,30.999999959021807,187.99999996554106,20.0
1621967044,1,,Aggregated,1.000000,0.000000,32,46,47,47,47,47,47,63,190,190,190,216,0,32,37.98611110714437,30.999999959021807,187.99999996554106,20.0
1621967045,1,,Aggregated,1.000000,0.000000,32,46,47,47,47,47,47,63,190,190,190,217,0,32,37.9585253417037,30.999999959021807,187.99999996554106,20.0
1621967046,1,,Aggregated,1.000000,0.000000,32,46,47,47,47,47,47,63,190,190,190,218,0,32,37.93119265667992,30.999999959021807,187.99999996554106,20.0
1621967047,1,,Aggregated,1.000000,0.000000,32,46,47,47,47,47,47,63,190,190,190,219,0,32,37.89954337495545,30.999999959021807,187.99999996554106,20.0
1621967048,1,,Aggregated,1.000000,0.000000,32,46,47,47,47,47,47,63,190,190,190,220,0,32,37.940909086980604,30.999999959021807,187.99999996554106,20.0
1621967049,1,,Aggregated,1.000000,0.000000,32,46,47,47,47,47,47,63,190,190,190,221,0,32,37.91402714544005,30.999999959021807,187.99999996554106,20.0
1621967050,1,,Aggregated,1.000000,0.000000,32,46,47,47,47,47,47,63,190,190,190,222,0,32,37.95045044646506,30.999999959021807,187.99999996554106,20.0
1621967051,1,,Aggregated,1.000000,0.000000,32,46,47,47,47,47,47,63,190,190,190,223,0,32,37.919282507059485,30.999999959021807,187.99999996554106,20.0
1621967052,1,,Aggregated,1.000000,0.000000,32,46,47,47,47,47,47,63,190,190,190,224,0,32,37.888392852827174,30.999999959021807,187.99999996554106,20.0
1621967053,1,,Aggregated,0.900000,0.000000,32,46,47,47,47,47,47,63,190,190,190,225,0,32,37.85777777329915,30.999999959021807,187.99999996554106,20.0
1621967054,1,,Aggregated,0.900000,0.000000,32,46,47,47,47,47,47,63,190,190,190,226,0,32,37.89823008412743,30.999999959021807,187.99999996554106,20.0
1621967055,1,,Aggregated,0.900000,0.000000,32,46,47,47,47,47,47,63,190,190,190,227,0,32,37.8678414051622,30.999999959021807,187.99999996554106,20.0
1621967056,1,,Aggregated,0.900000,0.000000,32,46,47,47,47,47,47,63,190,190,190,228,0,32,37.837719294066915,30.999999959021807,187.99999996554106,20.0
1621967057,1,,Aggregated,0.900000,0.000000,32,46,47,47,47,47,47,63,190,190,190,229,0,32,37.807860258177705,30.999999959021807,187.99999996554106,20.0
1621967058,1,,Aggregated,0.900000,0.000000,32,46,47,47,47,47,47,63,190,190,190,230,0,32,37.778260865572676,30.999999959021807,187.99999996554106,20.0
1621967059,1,,Aggregated,0.900000,0.000000,32,46,47,47,47,47,47,63,190,190,190,231,0,32,37.74891774526906,30.999999959021807,187.99999996554106,20.0
1621967060,1,,Aggregated,0.900000,0.000000,32,46,47,47,47,47,47,63,190,190,190,232,0,32,37.78879309990363,30.999999959021807,187.99999996554106,20.0
1621967061,1,,Aggregated,0.900000,0.000000,32,46,47,47,47,47,47,63,190,190,190,233,0,32,37.75965664865521,30.999999959021807,187.99999996554106,20.0
1621967062,1,,Aggregated,0.900000,0.000000,32,46,47,47,47,47,47,63,190,190,190,234,0,32,37.73076922740214,30.999999959021807,187.99999996554106,20.0
1621967063,1,,Aggregated,1.000000,0.000000,32,46,47,47,47,47,47,63,190,190,190,235,0,32,37.77021276269188,30.999999959021807,187.99999996554106,20.0
1621967064,1,,Aggregated,1.000000,0.000000,32,46,47,47,47,47,47,63,190,190,190,236,0,32,37.74152542030344,30.999999959021807,187.99999996554106,20.0
1621967065,1,,Aggregated,1.000000,0.000000,32,46,47,47,47,47,47,63,190,190,190,237,0,32,37.71308016568375,30.999999959021807,187.99999996554106,20.0
1621967066,1,,Aggregated,1.000000,0.000000,32,46,47,47,47,47,47,63,190,190,190,237,0,32,37.71308016568375,30.999999959021807,187.99999996554106,20.0
1621967067,1,,Aggregated,1.000000,0.000000,32,46,47,47,47,47,47,63,190,190,190,238,0,32,37.68487394632803,30.999999959021807,187.99999996554106,20.0
1621967068,1,,Aggregated,1.000000,0.000000,32,46,47,47,47,47,47,63,190,190,190,239,0,32,37.65690376228072,30.999999959021807,187.99999996554106,20.0
1621967069,1,,Aggregated,1.000000,0.000000,32,46,47,47,47,47,47,63,190,190,190,240,0,32,37.62916666310048,30.999999959021807,187.99999996554106,20.0
1621967070,1,,Aggregated,1.000000,0.000000,32,46,47,47,47,47,47,63,190,190,190,241,0,32,37.668049789064746,30.999999959021807,187.99999996554106,20.0
1621967071,1,,Aggregated,1.000000,0.000000,32,46,47,47,47,47,47,63,190,190,190,242,0,32,37.644628095748445,30.999999959021807,187.99999996554106,20.0
1621967072,1,,Aggregated,1.000000,0.000000,32,46,47,47,47,47,47,63,190,190,190,243,0,32,37.617283947037635,30.999999959021807,187.99999996554106,20.0
1621967073,1,,Aggregated,1.000000,0.000000,32,46,47,47,47,47,47,63,190,190,190,244,0,32,37.655737701437026,30.999999959021807,187.99999996554106,20.0
1621967074,1,,Aggregated,1.000000,0.000000,32,46,47,47,47,47,47,63,190,190,190,245,0,32,37.693877547637236,30.999999959021807,187.99999996554106,20.0
1621967075,1,,Aggregated,1.000000,0.000000,32,46,47,47,47,47,47,63,190,190,190,246,0,32,37.792682923599926,30.999999959021807,187.99999996554106,20.0
1621967076,1,,Aggregated,1.000000,0.000000,32,46,47,47,47,47,47,63,190,190,190,247,0,32,37.829959511036726,30.999999959021807,187.99999996554106,20.0
1621967077,1,,Aggregated,0.900000,0.000000,32,46,47,47,47,47,47,63,190,190,190,248,0,32,37.8669354808329,30.999999959021807,187.99999996554106,20.0
1621967078,1,,Aggregated,0.900000,0.000000,32,46,47,47,47,47,47,63,190,190,190,249,0,32,37.903614454887745,30.999999959021807,187.99999996554106,20.0
1621967079,1,,Aggregated,0.900000,0.000000,32,46,47,47,47,47,47,63,190,190,190,250,0,32,37.875999996904284,30.999999959021807,187.99999996554106,20.0
1621967080,1,,Aggregated,0.900000,0.000000,32,46,47,47,47,47,47,63,190,190,190,251,0,32,37.852589638376855,30.999999959021807,187.99999996554106,20.0
1621967081,1,,Aggregated,0.900000,0.000000,32,46,47,47,47,47,47,63,190,190,190,252,0,32,37.88888888592492,30.999999959021807,187.99999996554106,20.0
1621967082,1,,Aggregated,0.900000,0.000000,32,46,47,47,47,47,47,63,190,190,190,253,0,32,37.8616600763973,30.999999959021807,187.99999996554106,20.0
1621967083,1,,Aggregated,0.900000,0.000000,32,46,47,47,47,47,47,63,190,190,190,254,0,32,37.89763779271262,30.999999959021807,187.99999996554106,20.0
1621967084,1,,Aggregated,0.900000,0.000000,32,46,47,47,47,47,47,63,190,190,190,255,0,32,37.93333333086076,30.999999959021807,187.99999996554106,20.0
1621967085,1,,Aggregated,0.900000,0.000000,32,46,47,47,47,47,47,63,190,190,190,256,0,32,37.90624999737702,30.999999959021807,187.99999996554106,20.0
1621967086,1,,Aggregated,0.900000,0.000000,32,46,47,47,47,47,47,63,190,190,190,257,0,32,37.87937742913439,30.999999959021807,187.99999996554106,20.0
1621967087,1,,Aggregated,1.000000,0.000000,32,46,47,47,47,47,47,63,190,190,190,258,0,32,37.852713175825485,30.999999959021807,187.99999996554106,20.0
1621967088,1,,Aggregated,1.000000,0.000000,32,46,47,47,47,47,47,63,190,190,190,259,0,32,37.82625482363706,30.999999959021807,187.99999996554106,20.0
1621967089,1,,Aggregated,1.000000,0.000000,32,46,47,47,47,47,47,63,190,190,190,260,0,32,37.799999997234686,30.999999959021807,187.99999996554106,20.0
1621967090,1,,Aggregated,1.000000,0.000000,32,46,47,47,47,47,47,63,190,190,190,261,0,32,37.83524903946938,30.999999959021807,187.99999996554106,20.0
1621967091,1,,Aggregated,1.000000,0.000000,32,46,47,47,47,47,47,63,190,190,190,262,0,32,37.80916030296544,30.999999959021807,187.99999996554106,20.0
1621967092,1,,Aggregated,1.000000,0.000000,32,46,47,47,47,47,47,63,190,190,190,262,0,32,37.80916030296544,30.999999959021807,187.99999996554106,20.0
1621967093,1,,Aggregated,1.000000,0.000000,32,46,47,47,47,47,47,63,190,190,190,263,0,32,37.84030418003778,30.999999959021807,187.99999996554106,20.0
1621967094,1,,Aggregated,1.000000,0.000000,32,46,47,47,47,47,47,63,190,190,190,264,0,32,37.818181815744154,30.999999959021807,187.99999996554106,20.0
1621967095,1,,Aggregated,1.000000,0.000000,32,46,47,47,47,47,47,63,190,190,190,265,0,32,37.79622641269047,30.999999959021807,187.99999996554106,20.0
1621967096,1,,Aggregated,1.000000,0.000000,32,46,47,47,47,47,47,63,190,190,190,266,0,32,37.8872180428475,30.999999959021807,187.99999996554106,20.0
1621967097,1,,Aggregated,1.000000,0.000000,32,46,47,47,47,47,47,63,190,190,190,267,0,32,37.80524344323029,15.999999945051968,187.99999996554106,20.0
1621967098,1,,Aggregated,0.900000,0.000000,32,46,47,47,47,47,47,63,190,190,190,268,0,32,37.77985074409673,15.999999945051968,187.99999996554106,20.0
1621967099,1,,Aggregated,0.900000,0.000000,32,46,47,47,47,47,47,63,190,190,190,269,0,32,37.75464683826528,15.999999945051968,187.99999996554106,20.0
1621967100,1,,Aggregated,0.900000,0.000000,32,46,47,47,47,47,47,63,190,190,190,270,0,32,37.78518518320871,15.999999945051968,187.99999996554106,20.0
1621967101,1,,Aggregated,0.900000,0.000000,32,46,47,47,47,47,47,63,190,190,190,271,0,32,37.760147599355626,15.999999945051968,187.99999996554106,20.0
1621967102,1,,Aggregated,0.900000,0.000000,32,46,47,47,47,47,47,63,190,190,190,272,0,32,37.79411764502156,15.999999945051968,187.99999996554106,20.0
1621967103,1,,Aggregated,0.900000,0.000000,32,46,47,47,47,47,47,63,190,190,190,273,0,32,37.82783882588407,15.999999945051968,187.99999996554106,20.0
1621967105,1,,Aggregated,0.900000,0.000000,32,46,47,47,47,47,47,63,190,190,190,274,0,32,37.861313866740296,15.999999945051968,187.99999996554106,20.0
1621967106,1,,Aggregated,0.900000,0.000000,32,46,47,47,47,47,47,63,190,190,190,275,0,32,37.890909088944845,15.999999945051968,187.99999996554106,20.0
1621967107,1,,Aggregated,0.900000,0.000000,32,46,47,47,47,47,47,63,190,190,190,276,0,32,37.86594202687991,15.999999945051968,187.99999996554106,20.0
1621967108,1,,Aggregated,0.900000,0.000000,32,46,47,47,47,47,47,63,190,190,190,277,0,32,37.841155232411104,15.999999945051968,187.99999996554106,20.0
1621967109,1,,Aggregated,1.000000,0.000000,32,46,47,47,47,47,47,63,190,190,190,278,0,32,37.874100717260305,15.999999945051968,187.99999996554106,20.0
1621967110,1,,Aggregated,1.000000,0.000000,32,46,47,47,47,47,47,63,190,190,190,279,0,32,37.849462363705385,15.999999945051968,187.99999996554106,20.0
1621967111,1,,Aggregated,1.000000,0.000000,32,46,47,47,47,47,47,63,190,190,190,280,0,32,37.82499999797437,15.999999945051968,187.99999996554106,20.0
1621967112,1,,Aggregated,1.000000,0.000000,32,46,47,47,47,47,47,63,190,190,190,281,0,32,37.8576512436061,15.999999945051968,187.99999996554106,20.0
1621967113,1,,Aggregated,1.000000,0.000000,32,46,47,47,47,47,47,63,190,190,190,282,0,32,37.83333333166224,15.999999945051968,187.99999996554106,20.0
1621967114,1,,Aggregated,1.000000,0.000000,32,46,47,47,47,47,47,63,190,190,190,283,0,32,37.809187277341955,15.999999945051968,187.99999996554106,20.0
1621967115,1,,Aggregated,1.000000,0.000000,32,46,47,47,47,47,47,63,190,190,190,284,0,32,37.841549294043176,15.999999945051968,187.99999996554106,20.0
1621967116,1,,Aggregated,1.000000,0.000000,32,46,47,47,47,47,47,63,190,190,190,285,0,32,37.817543858188415,15.999999945051968,187.99999996554106,20.0
1621967117,1,,Aggregated,1.000000,0.000000,32,46,47,47,47,47,47,63,190,190,190,286,0,32,37.84615384460381,15.999999945051968,187.99999996554106,20.0
1621967118,1,,Aggregated,1.000000,0.000000,32,46,47,47,47,47,47,63,190,190,190,287,0,32,37.82229964988053,15.999999945051968,187.99999996554106,20.0
1621967119,1,,Aggregated,1.000000,0.000000,32,46,47,47,47,47,47,63,190,190,190,288,0,32,37.79861110928727,15.999999945051968,187.99999996554106,20.0
1621967120,1,,Aggregated,1.000000,0.000000,32,46,47,47,47,47,47,63,190,190,190,288,0,32,37.79861110928727,15.999999945051968,187.99999996554106,20.0
1621967121,1,,Aggregated,0.900000,0.000000,32,46,47,47,47,47,47,63,190,190,190,289,0,32,37.77508650363381,15.999999945051968,187.99999996554106,20.0
1621967122,1,,Aggregated,0.900000,0.000000,32,46,47,47,47,47,47,63,190,190,190,290,0,32,37.75172413664003,15.999999945051968,187.99999996554106,20.0
1621967123,1,,Aggregated,0.900000,0.000000,32,46,47,47,47,47,47,63,190,190,190,291,0,32,37.72852233534237,15.999999945051968,187.99999996554106,20.0
1621967124,1,,Aggregated,0.900000,0.000000,32,46,47,47,47,47,62,63,190,190,190,292,0,32,37.81164383431195,15.999999945051968,187.99999996554106,20.0
1621967125,1,,Aggregated,0.900000,0.000000,32,46,47,47,47,47,62,63,190,190,190,293,0,32,37.78839590299697,15.999999945051968,187.99999996554106,20.0
1621967126,1,,Aggregated,0.900000,0.000000,32,46,47,47,47,47,62,63,190,190,190,294,0,32,37.76530612127057,15.999999945051968,187.99999996554106,20.0
1621967127,1,,Aggregated,0.900000,0.000000,32,46,47,47,47,47,62,63,190,190,190,295,0,32,37.74237288043724,15.999999945051968,187.99999996554106,20.0
1621967128,1,,Aggregated,0.900000,0.000000,32,46,47,47,47,47,62,63,190,190,190,296,0,32,37.71959459354056,15.999999945051968,187.99999996554106,20.0
1621967129,1,,Aggregated,0.900000,0.000000,32,46,47,47,47,47,62,63,190,190,190,297,0,32,37.75084174986026,15.999999945051968,187.99999996554106,20.0
1621967130,1,,Aggregated,0.900000,0.000000,32,46,47,47,47,47,62,63,190,190,190,298,0,32,37.73154362320475,15.999999945051968,187.99999996554106,20.0
1621967131,1,,Aggregated,1.000000,0.000000,32,46,47,47,47,47,62,63,190,190,190,299,0,32,37.70903009924427,15.999999945051968,187.99999996554106,20.0
1621967132,1,,Aggregated,1.000000,0.000000,32,46,47,47,47,47,62,63,190,190,190,300,0,32,37.68666666544353,15.999999945051968,187.99999996554106,20.0
1621967133,1,,Aggregated,1.000000,0.000000,32,46,47,47,47,47,47,62,190,190,190,301,0,32,37.66445182588731,15.999999945051968,187.99999996554106,20.0
1621967134,1,,Aggregated,1.000000,0.000000,32,46,47,47,47,47,47,62,190,190,190,302,0,32,37.64569536290927,15.999999945051968,187.99999996554106,20.0
1621967135,1,,Aggregated,1.000000,0.000000,32,46,47,47,47,47,47,62,190,190,190,303,0,32,37.62706270496739,15.999999945051968,187.99999996554106,20.0
1621967136,1,,Aggregated,1.000000,0.000000,32,46,47,47,47,47,47,62,190,190,190,304,0,32,37.60526315646099,15.999999945051968,187.99999996554106,20.0
1621967137,1,,Aggregated,1.000000,0.000000,32,46,47,47,47,47,47,62,190,190,190,305,0,32,37.636065572408626,15.999999945051968,187.99999996554106,20.0
1621967138,1,,Aggregated,1.000000,0.000000,32,46,47,47,47,47,47,62,190,190,190,306,0,32,37.61437908347599,15.999999945051968,187.99999996554106,20.0
1621967139,1,,Aggregated,1.000000,0.000000,32,46,47,47,47,47,47,62,190,190,190,307,0,32,37.64495113864541,15.999999945051968,187.99999996554106,20.0
1621967140,1,,Aggregated,1.000000,0.000000,32,46,47,47,47,47,47,62,190,190,190,308,0,32,37.626623375229414,15.999999945051968,187.99999996554106,20.0
1621967141,1,,Aggregated,0.900000,0.000000,32,46,47,47,47,47,47,62,190,190,190,309,0,32,37.605177992005444,15.999999945051968,187.99999996554106,20.0
1621967142,1,,Aggregated,0.900000,0.000000,32,46,47,47,47,47,47,62,190,190,190,310,0,32,37.58387096609259,15.999999945051968,187.99999996554106,20.0
1621967143,1,,Aggregated,0.900000,0.000000,32,46,47,47,47,47,47,62,190,190,190,311,0,32,37.56270096285442,15.999999945051968,187.99999996554106,20.0
1621967144,1,,Aggregated,0.900000,0.000000,32,46,47,47,47,47,47,62,190,190,190,312,0,32,37.59294871624428,15.999999945051968,187.99999996554106,20.0
1621967145,1,,Aggregated,0.900000,0.000000,32,46,47,47,47,47,47,62,190,190,190,313,0,32,37.57507987052631,15.999999945051968,187.99999996554106,20.0
1621967146,1,,Aggregated,0.900000,0.000000,32,46,47,47,47,47,47,62,190,190,190,313,0,32,37.57507987052631,15.999999945051968,187.99999996554106,20.0
1621967147,1,,Aggregated,0.900000,0.000000,32,46,47,47,47,47,47,62,190,190,190,314,0,32,37.6050955397937,15.999999945051968,187.99999996554106,20.0
1621967148,1,,Aggregated,0.900000,0.000000,32,46,47,47,47,47,47,62,190,190,190,315,0,32,37.58412698239443,15.999999945051968,187.99999996554106,20.0
1621967149,1,,Aggregated,0.900000,0.000000,32,46,47,47,47,47,47,62,190,190,190,316,0,32,37.51582278290917,15.999999945051968,187.99999996554106,20.0
1621967150,1,,Aggregated,0.900000,0.000000,32,46,47,47,47,47,47,62,190,190,190,317,0,32,37.49526813714427,15.999999945051968,187.99999996554106,20.0
1621967151,1,,Aggregated,0.900000,0.000000,32,46,47,47,47,47,47,62,190,190,190,318,0,32,37.47484276588104,15.999999945051968,187.99999996554106,20.0
1621967152,1,,Aggregated,1.000000,0.000000,32,46,47,47,47,47,47,62,190,190,190,319,0,32,37.45454545300687,15.999999945051968,187.99999996554106,20.0
1621967153,1,,Aggregated,1.000000,0.000000,32,46,47,47,47,47,47,62,190,190,190,320,0,32,37.4374999984866,15.999999945051968,187.99999996554106,20.0
1621967154,1,,Aggregated,1.000000,0.000000,32,46,47,47,47,47,62,63,190,190,190,321,0,32,37.51713395477026,15.999999945051968,187.99999996554106,20.0
1621967155,1,,Aggregated,1.000000,0.000000,32,46,47,47,47,47,62,63,190,190,190,322,0,32,37.49999999840923,15.999999945051968,187.99999996554106,20.0
1621967156,1,,Aggregated,1.000000,0.000000,32,46,47,47,47,47,62,63,190,190,190,323,0,32,37.48297213465725,15.999999945051968,187.99999996554106,20.0
1621967157,1,,Aggregated,1.000000,0.000000,32,46,47,47,47,47,62,63,190,190,190,324,0,32,37.46296296127566,15.999999945051968,187.99999996554106,20.0
1621967158,1,,Aggregated,1.000000,0.000000,32,46,47,47,47,47,62,63,190,190,190,325,0,32,37.49230769068863,15.999999945051968,187.99999996554106,20.0
1621967159,1,,Aggregated,1.000000,0.000000,32,46,47,47,47,47,62,63,190,190,190,326,0,32,37.47239263629701,15.999999945051968,187.99999996554106,20.0
1621967160,1,,Aggregated,1.000000,0.000000,32,46,47,47,47,47,62,63,190,190,190,327,0,32,37.45565749064019,15.999999945051968,187.99999996554106,20.0
1621967161,1,,Aggregated,1.000000,0.000000,32,46,47,47,47,47,62,63,190,190,190,328,0,32,37.43902438855446,15.999999945051968,187.99999996554106,20.0
1621967162,1,,Aggregated,0.900000,0.000000,32,46,47,47,47,47,62,63,190,190,190,329,0,32,37.419452885729136,15.999999945051968,187.99999996554106,20.0
1621967163,1,,Aggregated,0.900000,0.000000,32,46,47,47,47,47,62,63,190,190,190,330,0,32,37.399999998072445,15.999999945051968,187.99999996554106,20.0
1621967164,1,,Aggregated,0.900000,0.000000,32,46,47,47,47,47,62,63,190,190,190,331,0,32,37.4290030189365,15.999999945051968,187.99999996554106,20.0
1621967165,1,,Aggregated,0.900000,0.000000,32,46,47,47,47,47,62,63,190,190,190,332,0,32,37.40963855223921,15.999999945051968,187.99999996554106,20.0
1621967166,1,,Aggregated,0.900000,0.000000,32,46,47,47,47,47,62,63,190,190,190,333,0,32,37.39039038864521,15.999999945051968,187.99999996554106,20.0
1621967167,1,,Aggregated,0.900000,0.000000,32,46,47,47,47,47,62,63,190,190,190,334,0,32,37.3712574831673,15.999999945051968,187.99999996554106,20.0
1621967168,1,,Aggregated,0.900000,0.000000,32,46,47,47,47,47,62,63,190,190,190,335,0,32,37.39999999820407,15.999999945051968,187.99999996554106,20.0
1621967169,1,,Aggregated,0.900000,0.000000,32,46,47,47,47,47,62,63,190,190,190,336,0,32,37.42857142684183,15.999999945051968,187.99999996554106,20.0
1621967170,1,,Aggregated,0.900000,0.000000,32,46,47,47,47,47,62,63,190,190,190,337,0,32,37.45697329210488,15.999999945051968,187.99999996554106,20.0
1621967171,1,,Aggregated,0.900000,0.000000,32,46,47,47,47,47,62,63,190,190,190,337,0,32,37.45697329210488,15.999999945051968,187.99999996554106,20.0
1621967172,1,,Aggregated,0.900000,0.000000,32,46,47,47,47,47,62,63,190,190,190,338,0,32,37.48520709899359,15.999999945051968,187.99999996554106,20.0
1621967173,1,,Aggregated,1.000000,0.000000,32,46,47,47,47,47,62,63,190,190,190,339,0,32,37.4660766944509,15.999999945051968,187.99999996554106,20.0
1621967174,1,,Aggregated,1.000000,0.000000,32,46,47,47,47,47,62,63,190,190,190,340,0,32,37.447058821699635,15.999999945051968,187.99999996554106,20.0
1621967175,1,,Aggregated,1.000000,0.000000,32,46,47,47,47,47,62,63,190,190,190,341,0,32,37.47507331167727,15.999999945051968,187.99999996554106,20.0
1621967176,1,,Aggregated,1.000000,0.000000,32,46,47,47,47,47,62,63,190,190,190,342,0,32,37.50292397456854,15.999999945051968,187.99999996554106,20.0
1621967177,1,,Aggregated,1.000000,0.000000,32,46,47,47,47,47,62,63,190,190,190,343,0,32,37.486880464457606,15.999999945051968,187.99999996554106,20.0
1621967178,1,,Aggregated,1.000000,0.000000,32,46,47,47,47,47,62,63,190,190,190,344,0,32,37.46802325368599,15.999999945051968,187.99999996554106,20.0
1621967179,1,,Aggregated,1.000000,0.000000,32,46,47,47,47,47,62,63,190,190,190,345,0,32,37.49565217185064,15.999999945051968,187.99999996554106,20.0
1621967180,1,,Aggregated,1.000000,0.000000,32,46,47,47,47,47,62,63,190,190,190,346,0,32,37.479768784089565,15.999999945051968,187.99999996554106,20.0
1621967181,1,,Aggregated,1.000000,0.000000,32,46,47,47,47,47,62,63,190,190,190,347,0,32,37.50432276446104,15.999999945051968,187.99999996554106,20.0
1621967182,1,,Aggregated,1.000000,0.000000,32,46,47,47,47,47,62,63,190,190,190,348,0,32,37.48563218168679,15.999999945051968,187.99999996554106,20.0
1621967183,1,,Aggregated,1.000000,0.000000,32,46,47,47,47,47,62,63,190,190,190,349,0,32,37.51289398065184,15.999999945051968,187.99999996554106,20.0
1621967184,1,,Aggregated,0.900000,0.000000,32,46,47,47,47,47,62,63,190,190,190,350,0,32,37.49428571235122,15.999999945051968,187.99999996554106,20.0
1621967185,1,,Aggregated,0.900000,0.000000,32,46,47,47,47,47,47,63,190,190,190,351,0,32,37.47578347373775,15.999999945051968,187.99999996554106,20.0
1621967186,1,,Aggregated,0.900000,0.000000,32,46,47,47,47,47,47,63,190,190,190,352,0,32,37.50284090677848,15.999999945051968,187.99999996554106,20.0
1621967187,1,,Aggregated,0.900000,0.000000,32,46,47,47,47,47,47,63,190,190,190,353,0,32,37.52974504024508,15.999999945051968,187.99999996554106,20.0
1621967188,1,,Aggregated,0.900000,0.000000,32,46,47,47,47,47,47,63,190,190,190,354,0,32,37.51412429156224,15.999999945051968,187.99999996554106,20.0
1621967189,1,,Aggregated,0.900000,0.000000,32,46,47,47,47,47,47,63,190,190,190,355,0,32,37.49577464555508,15.999999945051968,187.99999996554106,20.0
1621967190,1,,Aggregated,0.900000,0.000000,32,46,47,47,47,47,47,63,190,190,190,356,0,32,37.52247190784422,15.999999945051968,187.99999996554106,20.0
1621967191,1,,Aggregated,0.900000,0.000000,32,46,47,47,47,47,47,63,190,190,190,357,0,32,37.5042016786218,15.999999945051968,187.99999996554106,20.0
1621967192,1,,Aggregated,0.900000,0.000000,32,46,47,47,47,47,47,63,190,190,190,358,0,32,37.52793295877367,15.999999945051968,187.99999996554106,20.0
1621967193,1,,Aggregated,0.900000,0.000000,32,46,47,47,47,47,47,63,190,190,190,359,0,32,37.51253481684538,15.999999945051968,187.99999996554106,20.0
1621967194,1,,Aggregated,1.000000,0.000000,32,46,47,47,47,47,47,63,190,190,190,360,0,32,37.5388888868555,15.999999945051968,187.99999996554106,20.0
1621967195,1,,Aggregated,1.000000,0.000000,32,46,47,47,47,47,47,63,190,190,190,361,0,32,37.52077562112743,15.999999945051968,187.99999996554106,20.0
1621967196,1,,Aggregated,1.000000,0.000000,32,46,47,47,47,47,47,63,190,190,190,362,0,32,37.50552485976111,15.999999945051968,187.99999996554106,20.0
1621967197,1,,Aggregated,1.000000,0.000000,32,46,47,47,47,47,47,63,190,190,190,363,0,32,37.49035812462821,15.999999945051968,187.99999996554106,20.0
1621967198,1,,Aggregated,1.000000,0.000000,32,46,47,47,47,47,47,63,190,190,190,364,0,32,37.472527470327094,15.999999945051968,187.99999996554106,20.0
1621967199,1,,Aggregated,1.000000,0.000000,32,46,47,47,47,47,47,63,190,190,190,365,0,32,37.45479451824133,15.999999945051968,187.99999996554106,20.0
1621967200,1,,Aggregated,1.000000,0.000000,32,46,47,47,47,47,47,63,190,190,190,366,0,32,37.43989070810001,15.999999945051968,187.99999996554106,20.0
1621967201,1,,Aggregated,1.000000,0.000000,32,46,47,47,47,47,47,63,190,190,190,366,0,32,37.43989070810001,15.999999945051968,187.99999996554106,20.0
1621967202,1,,Aggregated,1.000000,0.000000,32,46,47,47,47,47,47,63,190,190,190,367,0,32,37.42234332186274,15.999999945051968,187.99999996554106,20.0
1621967203,1,,Aggregated,1.000000,0.000000,32,46,47,47,47,47,47,63,190,190,190,368,0,32,37.40489130185502,15.999999945051968,187.99999996554106,20.0
1621967204,1,,Aggregated,1.000000,0.000000,32,46,47,47,47,47,47,63,190,190,190,369,0,32,37.38753387274165,15.999999945051968,187.99999996554106,20.0
1621967205,1,,Aggregated,1.000000,0.000000,32,46,47,47,47,47,47,63,190,190,190,370,0,32,37.4135135109788,15.999999945051968,187.99999996554106,20.0
1621967206,1,,Aggregated,1.000000,0.000000,32,46,47,47,47,47,47,63,190,190,190,371,0,32,37.39622641245601,15.999999945051968,187.99999996554106,20.0
1621967207,1,,Aggregated,1.000000,0.000000,32,46,47,47,47,47,47,63,190,190,190,372,0,32,37.379032255323125,15.999999945051968,187.99999996554106,20.0
1621967208,1,,Aggregated,0.900000,0.000000,32,46,47,47,47,47,47,63,190,190,190,373,0,32,37.404825734586304,15.999999945051968,187.99999996554106,20.0
1621967209,1,,Aggregated,0.900000,0.000000,32,46,47,47,47,47,47,63,190,190,190,374,0,32,37.430481280805296,15.999999945051968,187.99999996554106,20.0
1621967210,1,,Aggregated,0.900000,0.000000,32,46,47,47,47,47,47,63,190,190,190,375,0,32,37.45599999713401,15.999999945051968,187.99999996554106,20.0
1621967211,1,,Aggregated,0.900000,0.000000,32,46,47,47,47,47,47,63,190,190,190,376,0,32,37.48138297591953,15.999999945051968,187.99999996554106,20.0
1621967212,1,,Aggregated,0.900000,0.000000,32,46,47,47,47,47,47,63,190,190,190,377,0,32,37.46419097852723,15.999999945051968,187.99999996554106,20.0
1621967213,1,,Aggregated,0.900000,0.000000,32,46,47,47,47,47,47,63,190,190,190,378,0,32,37.48941798657474,15.999999945051968,187.99999996554106,20.0
1621967214,1,,Aggregated,0.900000,0.000000,32,46,47,47,47,47,47,63,190,190,190,379,0,32,37.514511870569244,15.999999945051968,187.99999996554106,20.0
1621967215,1,,Aggregated,0.900000,0.000000,32,46,47,47,47,47,47,63,190,190,190,380,0,32,37.49736841817043,15.999999945051968,187.99999996554106,20.0
1621967217,1,,Aggregated,0.900000,0.000000,32,46,47,47,47,47,47,63,190,190,190,381,0,32,37.52230970846523,15.999999945051968,187.99999996554106,20.0
1621967218,1,,Aggregated,0.900000,0.000000,32,46,47,47,47,47,47,63,190,190,190,382,0,32,37.50523559947825,15.999999945051968,187.99999996554106,20.0
1621967219,1,,Aggregated,1.000000,0.000000,32,46,47,47,47,47,47,63,190,190,190,383,0,32,37.48825065002536,15.999999945051968,187.99999996554106,20.0
1621967220,1,,Aggregated,1.000000,0.000000,32,46,47,47,47,47,47,63,190,190,190,384,0,32,37.47395833064123,15.999999945051968,187.99999996554106,20.0
1621967221,1,,Aggregated,1.000000,0.000000,32,46,47,47,47,47,47,63,190,190,190,385,0,32,37.459740257072085,15.999999945051968,187.99999996554106,20.0
1621967222,1,,Aggregated,1.000000,0.000000,32,46,47,47,47,47,47,63,190,190,190,386,0,32,37.48445595594104,15.999999945051968,187.99999996554106,20.0
1621967223,1,,Aggregated,1.000000,0.000000,32,46,47,47,47,47,47,63,190,190,190,387,0,32,37.4677002556906,15.999999945051968,187.99999996554106,20.0
1621967224,1,,Aggregated,1.000000,0.000000,32,46,47,47,47,47,47,63,190,190,190,388,0,32,37.492268038589565,15.999999945051968,187.99999996554106,20.0
1621967225,1,,Aggregated,1.000000,0.000000,32,46,47,47,47,47,47,63,190,190,190,389,0,32,37.47557840342358,15.999999945051968,187.99999996554106,20.0
1621967226,1,,Aggregated,1.000000,0.000000,32,46,47,47,47,47,47,63,190,190,190,390,0,32,37.499999997313495,15.999999945051968,187.99999996554106,20.0
1621967227,1,,Aggregated,1.000000,0.000000,32,46,47,47,47,47,47,63,190,190,190,391,0,32,37.48337595629484,15.999999945051968,187.99999996554106,20.0
1621967228,1,,Aggregated,1.000000,0.000000,32,46,47,47,47,47,47,63,190,190,190,392,0,32,37.46938775234133,15.999999945051968,187.99999996554106,20.0
1621967229,1,,Aggregated,1.000000,0.000000,32,46,47,47,47,47,47,63,190,190,190,393,0,32,37.45547073517639,15.999999945051968,187.99999996554106,20.0
1621967230,1,,Aggregated,1.000000,0.000000,32,46,47,47,47,47,47,63,190,190,190,393,0,32,37.45547073517639,15.999999945051968,187.99999996554106,20.0
1621967231,1,,Aggregated,0.900000,0.000000,32,46,47,47,47,47,47,63,190,190,190,394,0,32,37.43908629158209,15.999999945051968,187.99999996554106,20.0
1621967232,1,,Aggregated,0.900000,0.000000,32,46,47,47,47,47,47,63,190,190,190,395,0,32,37.42278480719586,15.999999945051968,187.99999996554106,20.0
1621967233,1,,Aggregated,0.900000,0.000000,32,46,47,47,47,47,47,63,190,190,190,396,0,32,37.406565653538856,15.999999945051968,187.99999996554106,20.0
1621967234,1,,Aggregated,0.900000,0.000000,32,46,47,47,47,47,47,63,190,190,190,397,0,32,37.43073047562186,15.999999945051968,187.99999996554106,20.0
1621967235,1,,Aggregated,0.900000,0.000000,32,46,47,47,47,47,47,63,190,190,190,398,0,32,37.41708542419195,15.999999945051968,187.99999996554106,20.0
1621967236,1,,Aggregated,0.900000,0.000000,32,46,47,47,47,47,47,63,190,190,190,399,0,32,37.44110275400723,15.999999945051968,187.99999996554106,20.0
1621967237,1,,Aggregated,0.900000,0.000000,32,46,47,47,47,47,47,63,190,190,190,400,0,32,37.464999997173436,15.999999945051968,187.99999996554106,20.0
1621967238,1,,Aggregated,0.900000,0.000000,32,46,47,47,47,47,47,62,190,190,190,401,0,32,37.44887780256458,15.999999945051968,187.99999996554106,20.0
1621967239,1,,Aggregated,0.900000,0.000000,32,46,47,47,47,47,47,62,190,190,190,402,0,32,37.47263681305693,15.999999945051968,187.99999996554106,20.0
1621967240,1,,Aggregated,0.900000,0.000000,32,46,47,47,47,47,47,62,190,190,190,403,0,32,37.459057069120114,15.999999945051968,187.99999996554106,20.0
1621967241,1,,Aggregated,1.000000,0.000000,32,46,47,47,47,47,47,62,190,190,190,404,0,32,37.443069303996104,15.999999945051968,187.99999996554106,20.0
1621967242,1,,Aggregated,1.000000,0.000000,32,46,47,47,47,47,47,63,190,190,190,405,0,32,37.543209873565274,15.999999945051968,187.99999996554106,20.0
1621967243,1,,Aggregated,1.000000,0.000000,32,46,47,47,47,47,47,63,190,190,190,406,0,32,37.56650246013405,15.999999945051968,187.99999996554106,20.0
1621967244,1,,Aggregated,1.000000,0.000000,32,46,47,47,47,47,47,63,190,190,190,407,0,32,37.55036854764094,15.999999945051968,187.99999996554106,20.0
1621967245,1,,Aggregated,1.000000,0.000000,32,46,47,47,47,47,62,63,190,190,190,408,0,32,37.610294115010596,15.999999945051968,187.99999996554106,20.0
1621967246,1,,Aggregated,1.000000,0.000000,32,46,47,47,47,47,62,63,190,190,190,409,0,32,37.633251831160905,15.999999945051968,187.99999996554106,20.0
1621967247,1,,Aggregated,1.000000,0.000000,32,46,47,47,47,47,62,63,190,190,190,410,0,32,37.65365853394586,15.999999945051968,187.99999996554106,20.0
1621967248,1,,Aggregated,1.000000,0.000000,32,46,47,47,47,47,62,63,190,190,190,411,0,32,37.63746958364191,15.999999945051968,187.99999996554106,20.0
1621967249,1,,Aggregated,1.000000,0.000000,32,46,47,47,47,47,62,63,190,190,190,412,0,32,37.621359220475355,15.999999945051968,187.99999996554106,20.0
1621967250,1,,Aggregated,0.900000,0.000000,32,46,47,47,47,47,62,63,190,190,190,413,0,32,37.6053268738772,15.999999945051968,187.99999996554106,20.0
1621967251,1,,Aggregated,0.900000,0.000000,32,46,47,47,47,47,62,63,190,190,190,414,0,32,37.5893719782288,15.999999945051968,187.99999996554106,20.0
1621967252,1,,Aggregated,0.900000,0.000000,32,46,47,47,47,47,62,63,190,190,190,415,0,32,37.60963855171015,15.999999945051968,187.99999996554106,20.0
1621967253,1,,Aggregated,0.900000,0.000000,32,46,47,47,47,47,62,63,190,190,190,416,0,32,37.593749997400806,15.999999945051968,187.99999996554106,20.0
1621967254,1,,Aggregated,0.900000,0.000000,32,46,47,47,47,47,62,63,190,190,190,417,0,32,37.616306951613446,15.999999945051968,187.99999996554106,20.0
1621967255,1,,Aggregated,0.900000,0.000000,32,46,47,47,47,47,62,63,190,190,190,417,0,32,37.616306951613446,15.999999945051968,187.99999996554106,20.0
1621967256,1,,Aggregated,0.900000,0.000000,32,46,47,47,47,47,62,63,190,190,190,418,0,32,37.600478466263745,15.999999945051968,187.99999996554106,20.0
1621967257,1,,Aggregated,0.900000,0.000000,32,46,47,47,47,47,62,63,190,190,190,419,0,32,37.584725534543395,15.999999945051968,187.99999996554106,20.0
1621967258,1,,Aggregated,0.900000,0.000000,32,46,47,47,47,47,62,63,190,190,190,420,0,32,37.60476190225398,15.999999945051968,187.99999996554106,20.0
1621967259,1,,Aggregated,0.900000,0.000000,32,46,47,47,47,47,62,63,190,190,190,421,0,32,37.589073631604975,15.999999945051968,187.99999996554106,20.0
1621967260,1,,Aggregated,0.900000,0.000000,32,46,47,47,47,47,62,63,190,190,190,422,0,32,37.57345971294957,15.999999945051968,187.99999996554106,20.0
1621967261,1,,Aggregated,1.000000,0.000000,32,46,47,47,47,47,62,63,190,190,190,423,0,32,37.55791961924386,15.999999945051968,187.99999996554106,20.0
1621967262,1,,Aggregated,1.000000,0.000000,32,46,47,47,47,47,62,63,190,190,190,424,0,32,37.54245282786696,15.999999945051968,187.99999996554106,20.0
1621967263,1,,Aggregated,1.000000,0.000000,32,46,47,47,47,47,62,63,190,190,190,425,0,32,37.562352938796664,15.999999945051968,187.99999996554106,20.0
1621967264,1,,Aggregated,1.000000,0.000000,32,46,47,47,47,47,62,63,190,190,190,426,0,32,37.546948354337104,15.999999945051968,187.99999996554106,20.0
1621967265,1,,Aggregated,1.000000,0.000000,32,46,47,47,47,47,62,63,190,190,190,427,0,32,37.531615922497956,15.999999945051968,187.99999996554106,20.0
1621967266,1,,Aggregated,1.000000,0.000000,32,46,47,47,47,47,62,63,190,190,190,428,0,32,37.51635513780856,15.999999945051968,187.99999996554106,20.0
1621967267,1,,Aggregated,1.000000,0.000000,32,46,47,47,47,47,62,63,190,190,190,429,0,32,37.50116549896853,15.999999945051968,187.99999996554106,20.0
1621967268,1,,Aggregated,1.000000,0.000000,32,46,47,47,47,47,62,63,190,190,190,430,0,32,37.52093023030347,15.999999945051968,187.99999996554106,20.0
1621967269,1,,Aggregated,1.000000,0.000000,32,46,47,47,47,47,62,63,190,190,190,431,0,32,37.54292343167281,15.999999945051968,187.99999996554106,20.0
1621967270,1,,Aggregated,1.000000,0.000000,32,46,47,47,47,47,62,63,190,190,190,432,0,32,37.564814812395966,15.999999945051968,187.99999996554106,20.0
1621967271,1,,Aggregated,0.900000,0.000000,32,46,47,47,47,47,62,63,190,190,190,433,0,32,37.58660507846546,15.999999945051968,187.99999996554106,20.0
1621967272,1,,Aggregated,0.900000,0.000000,32,46,47,47,47,47,62,63,190,190,190,434,0,32,37.571428569241895,15.999999945051968,187.99999996554106,20.0
1621967273,1,,Aggregated,0.900000,0.000000,32,46,47,47,47,47,62,63,190,190,190,435,0,32,37.59080459545741,15.999999945051968,187.99999996554106,20.0
1621967274,1,,Aggregated,0.900000,0.000000,32,46,47,47,47,47,62,63,190,190,190,436,0,32,37.61238531890932,15.999999945051968,187.99999996554106,20.0
1621967275,1,,Aggregated,0.900000,0.000000,32,46,47,47,47,47,62,63,190,190,190,437,0,32,37.5972540022963,15.999999945051968,187.99999996554106,20.0
1621967276,1,,Aggregated,0.900000,0.000000,32,46,47,47,47,47,62,63,190,190,190,438,0,32,37.582191778719,15.999999945051968,187.99999996554106,20.0
1621967277,1,,Aggregated,0.900000,0.000000,32,46,47,47,47,47,62,63,190,190,190,439,0,32,37.56719817575025,15.999999945051968,187.99999996554106,20.0
1621967278,1,,Aggregated,0.900000,0.000000,32,46,47,47,47,47,62,63,190,190,190,440,0,32,37.55227272525769,15.999999945051968,187.99999996554106,20.0
1621967279,1,,Aggregated,0.900000,0.000000,32,46,47,47,47,47,62,63,190,190,190,441,0,32,37.5736961431607,15.999999945051968,187.99999996554106,20.0
1621967280,1,,Aggregated,0.900000,0.000000,32,46,47,47,47,47,62,63,190,190,190,442,0,32,37.558823527359486,15.999999945051968,187.99999996554106,20.0
1621967281,1,,Aggregated,1.000000,0.000000,32,46,47,47,47,47,62,63,190,190,190,443,0,32,37.546275393000926,15.999999945051968,187.99999996554106,20.0
1621967282,1,,Aggregated,1.000000,0.000000,32,46,47,47,47,47,62,63,190,190,190,443,0,32,37.546275393000926,15.999999945051968,187.99999996554106,20.0
1621967283,1,,Aggregated,1.000000,0.000000,32,46,47,47,47,47,62,63,190,190,190,444,0,32,37.567567565585364,15.999999945051968,187.99999996554106,20.0
1621967284,1,,Aggregated,1.000000,0.000000,32,46,47,47,47,47,62,63,190,190,190,445,0,32,37.58876404301211,15.999999945051968,187.99999996554106,20.0
1621967285,1,,Aggregated,1.000000,0.000000,32,46,47,47,47,47,62,63,190,190,190,446,0,32,37.57399102937088,15.999999945051968,187.99999996554106,20.0
1621967286,1,,Aggregated,1.000000,0.000000,32,46,47,47,47,47,62,63,190,190,190,447,0,32,37.55928411422468,15.999999945051968,187.99999996554106,20.0
1621967287,1,,Aggregated,1.000000,0.000000,32,46,47,47,47,47,62,63,190,190,190,448,0,32,37.54464285520953,15.999999945051968,187.99999996554106,20.0
1621967288,1,,Aggregated,1.000000,0.000000,32,46,47,47,47,47,62,63,190,190,190,449,0,32,37.565701557136656,15.999999945051968,187.99999996554106,20.0
1621967289,1,,Aggregated,1.000000,0.000000,32,46,47,47,47,47,62,63,190,190,190,450,0,32,37.55111110914085,15.999999945051968,187.99999996554106,20.0
1621967290,1,,Aggregated,1.000000,0.000000,32,46,47,47,47,47,47,63,190,190,190,451,0,32,37.5365853637969,15.999999945051968,187.99999996554106,20.0
1621967291,1,,Aggregated,1.000000,0.000000,32,46,47,47,47,47,47,63,190,190,190,452,0,32,37.522123891662446,15.999999945051968,187.99999996554106,20.0
1621967292,1,,Aggregated,0.900000,0.000000,32,46,47,47,47,47,47,63,190,190,190,453,0,32,37.50772626734407,15.999999945051968,187.99999996554106,20.0
1621967293,1,,Aggregated,0.900000,0.000000,32,46,47,47,47,47,47,63,190,190,190,454,0,32,37.52863435931135,15.999999945051968,187.99999996554106,20.0
1621967294,1,,Aggregated,0.900000,0.000000,32,46,47,47,47,47,47,63,190,190,190,455,0,32,37.51428571227774,15.999999945051968,187.99999996554106,20.0
1621967295,1,,Aggregated,0.900000,0.000000,32,46,47,47,47,47,47,63,190,190,190,456,0,32,37.502192980466866,15.999999945051968,187.99999996554106,20.0
1621967296,1,,Aggregated,0.900000,0.000000,32,46,47,47,47,47,47,63,190,190,190,457,0,32,37.490153170895866,15.999999945051968,187.99999996554106,20.0
1621967297,1,,Aggregated,0.900000,0.000000,32,46,47,47,47,47,47,63,190,190,190,458,0,32,37.47598253069527,15.999999945051968,187.99999996554106,20.0
1621967298,1,,Aggregated,0.900000,0.000000,32,46,47,47,47,47,47,63,190,190,190,459,0,32,37.461873636203606,15.999999945051968,187.99999996554106,20.0
1621967299,1,,Aggregated,0.900000,0.000000,32,46,47,47,47,47,47,63,190,190,190,460,0,32,37.44782608473147,15.999999945051968,187.99999996554106,20.0
1621967300,1,,Aggregated,0.900000,0.000000,32,46,47,47,47,47,47,63,190,190,190,461,0,32,37.46854663556825,15.999999945051968,187.99999996554106,20.0
1621967301,1,,Aggregated,0.900000,0.000000,32,46,47,47,47,47,47,63,190,190,190,462,0,32,37.48917748705077,15.999999945051968,187.99999996554106,20.0
1621967302,1,,Aggregated,1.000000,0.000000,32,46,47,47,47,47,47,63,190,190,190,463,0,32,37.4751619848304,15.999999945051968,187.99999996554106,20.0
1621967303,1,,Aggregated,1.000000,0.000000,32,46,47,47,47,47,47,63,190,190,190,464,0,32,37.461206894257536,15.999999945051968,187.99999996554106,20.0
1621967304,1,,Aggregated,1.000000,0.000000,32,46,47,47,47,47,47,63,190,190,190,465,0,32,37.44731182557961,15.999999945051968,187.99999996554106,20.0
1621967305,1,,Aggregated,1.000000,0.000000,32,46,47,47,47,47,47,63,190,190,190,466,0,32,37.43347639263939,15.999999945051968,187.99999996554106,20.0
1621967306,1,,Aggregated,1.000000,0.000000,32,46,47,47,47,47,47,63,190,190,190,467,0,32,37.453961453941,15.999999945051968,187.99999996554106,20.0
1621967307,1,,Aggregated,1.000000,0.000000,32,46,47,47,47,47,47,63,190,190,190,468,0,32,37.472222220007346,15.999999945051968,187.99999996554106,20.0
1621967308,1,,Aggregated,1.000000,0.000000,32,46,47,47,47,47,47,63,190,190,190,469,0,32,37.49253731126637,15.999999945051968,187.99999996554106,20.0
1621967309,1,,Aggregated,1.000000,0.000000,32,46,47,47,47,47,47,63,190,190,190,470,0,32,37.480851061681804,15.999999945051968,187.99999996554106,20.0
1621967310,1,,Aggregated,1.000000,0.000000,32,46,47,47,47,47,47,63,190,190,190,470,0,32,37.480851061681804,15.999999945051968,187.99999996554106,20.0
1621967311,1,,Aggregated,1.000000,0.000000,32,46,47,47,47,47,47,63,190,190,190,471,0,32,37.50106156902534,15.999999945051968,187.99999996554106,20.0
1621967312,1,,Aggregated,1.000000,0.000000,32,46,47,47,47,47,47,63,190,190,190,472,0,32,37.48728813341093,15.999999945051968,187.99999996554106,20.0
1621967314,1,,Aggregated,1.000000,0.000000,32,46,47,47,47,47,47,63,190,190,190,473,0,32,37.50739957503266,15.999999945051968,187.99999996554106,20.0
1621967315,1,,Aggregated,0.900000,0.000000,32,46,47,47,47,47,47,63,190,190,190,474,0,32,37.493670883859636,15.999999945051968,187.99999996554106,20.0
1621967316,1,,Aggregated,0.900000,0.000000,32,46,47,47,47,47,47,63,190,190,190,475,0,32,37.47999999770209,15.999999945051968,187.99999996554106,20.0
1621967317,1,,Aggregated,0.900000,0.000000,32,46,47,47,47,47,47,63,190,190,190,476,0,32,37.466386552242675,15.999999945051968,187.99999996554106,20.0
1621967318,1,,Aggregated,0.900000,0.000000,32,46,47,47,47,47,47,63,190,190,190,477,0,32,37.48637316328721,15.999999945051968,187.99999996554106,20.0
1621967319,1,,Aggregated,0.900000,0.000000,32,46,47,47,47,47,47,63,190,190,190,478,0,32,37.47280334511179,15.999999945051968,187.99999996554106,20.0
1621967320,1,,Aggregated,0.900000,0.000000,32,46,47,47,47,47,47,63,190,190,190,479,0,32,37.459290185641876,15.999999945051968,187.99999996554106,20.0
1621967321,1,,Aggregated,0.900000,0.000000,32,46,47,47,47,47,47,63,190,190,190,480,0,32,37.47916666446448,15.999999945051968,187.99999996554106,20.0
1621967322,1,,Aggregated,0.900000,0.000000,32,46,47,47,47,47,47,63,190,190,190,481,0,32,37.49896049680549,15.999999945051968,187.99999996554106,20.0
1621967323,1,,Aggregated,0.900000,0.000000,32,46,47,47,47,47,47,63,190,190,190,482,0,32,37.51659750816687,15.999999945051968,187.99999996554106,20.0
1621967324,1,,Aggregated,0.900000,0.000000,32,46,47,47,47,47,47,63,190,190,190,483,0,32,37.50310558777526,15.999999945051968,187.99999996554106,20.0
1621967325,1,,Aggregated,1.000000,0.000000,32,46,47,47,47,47,47,63,190,190,190,484,0,32,37.489669419120816,15.999999945051968,187.99999996554106,20.0
1621967326,1,,Aggregated,1.000000,0.000000,32,46,47,47,47,47,47,63,190,190,190,485,0,32,37.5092783481958,15.999999945051968,187.99999996554106,20.0
1621967327,1,,Aggregated,1.000000,0.000000,32,46,47,47,47,47,47,63,190,190,190,486,0,32,37.49588477150288,15.999999945051968,187.99999996554106,20.0
1621967328,1,,Aggregated,1.000000,0.000000,32,46,47,47,47,47,47,63,190,190,190,487,0,32,37.48254619899265,15.999999945051968,187.99999996554106,20.0
1621967329,1,,Aggregated,1.000000,0.000000,32,46,47,47,47,47,47,63,190,190,190,488,0,32,37.469262292763204,15.999999945051968,187.99999996554106,20.0
1621967330,1,,Aggregated,1.000000,0.000000,32,46,47,47,47,47,47,63,190,190,190,489,0,32,37.4887525539651,15.999999945051968,187.99999996554106,20.0
1621967331,1,,Aggregated,1.000000,0.000000,32,46,47,47,47,47,47,63,190,190,190,490,0,32,37.4755102019681,15.999999945051968,187.99999996554106,20.0
1621967332,1,,Aggregated,1.000000,0.000000,32,46,47,47,47,47,47,63,190,190,190,491,0,32,37.462321790305104,15.999999945051968,187.99999996554106,20.0
1621967333,1,,Aggregated,1.000000,0.000000,32,46,47,47,47,47,47,63,190,190,190,492,0,32,37.44918698983502,15.999999945051968,187.99999996554106,20.0
1621967334,1,,Aggregated,1.000000,0.000000,32,46,47,47,47,47,47,63,190,190,190,493,0,32,37.46855983573898,15.999999945051968,187.99999996554106,20.0
1621967335,1,,Aggregated,1.000000,0.000000,32,46,47,47,47,47,47,63,190,190,190,494,0,32,37.487854249068434,15.999999945051968,187.99999996554106,20.0
1621967336,1,,Aggregated,0.900000,0.000000,32,46,47,47,47,47,47,63,190,190,190,495,0,32,37.47474747272491,15.999999945051968,187.99999996554106,20.0
1621967337,1,,Aggregated,0.900000,0.000000,32,46,47,47,47,47,47,63,190,190,190,496,0,32,37.461693546285986,15.999999945051968,187.99999996554106,20.0
1621967338,1,,Aggregated,0.900000,0.000000,32,46,47,47,47,47,47,63,190,190,190,496,0,32,37.461693546285986,15.999999945051968,187.99999996554106,20.0
1621967339,1,,Aggregated,0.900000,0.000000,32,46,47,47,47,47,47,63,190,190,190,497,0,32,37.48088530958134,15.999999945051968,187.99999996554106,20.0
1621967340,1,,Aggregated,0.900000,0.000000,32,46,47,47,47,47,47,63,190,190,190,498,0,32,37.46987951580009,15.999999945051968,187.99999996554106,20.0
1621967341,1,,Aggregated,0.900000,0.000000,32,46,47,47,47,47,47,63,190,190,190,499,0,32,37.458917833416756,15.999999945051968,187.99999996554106,20.0
1621967342,1,,Aggregated,0.900000,0.000000,32,46,47,47,47,47,47,63,190,190,190,500,0,32,37.44599999766797,15.999999945051968,187.99999996554106,20.0
1621967343,1,,Aggregated,0.900000,0.000000,32,46,47,47,47,47,47,62,190,190,190,501,0,32,37.43313373012576,15.999999945051968,187.99999996554106,20.0
1621967344,1,,Aggregated,0.900000,0.000000,32,46,47,47,47,47,47,62,190,190,190,502,0,32,37.4203187226136,15.999999945051968,187.99999996554106,20.0
1621967345,1,,Aggregated,0.900000,0.000000,32,46,47,47,47,47,47,62,190,190,190,503,0,32,37.40755466963711,15.999999945051968,187.99999996554106,20.0
1621967346,1,,Aggregated,0.900000,0.000000,32,46,47,47,47,47,47,62,190,190,190,504,0,32,37.39484126766449,15.999999945051968,187.99999996554106,20.0
1621967347,1,,Aggregated,1.000000,0.000000,32,46,47,47,47,47,47,63,420,420,420,505,0,32,38.15643564120193,15.999999945051968,421.9999999040738,20.0
1621967348,1,,Aggregated,1.000000,0.000000,32,46,47,47,47,47,62,63,420,420,420,506,0,32,38.357707507551275,15.999999945051968,421.9999999040738,20.0
1621967349,1,,Aggregated,1.000000,0.000000,32,46,47,47,47,47,62,63,420,420,420,506,0,32,38.357707507551275,15.999999945051968,421.9999999040738,20.0
1621967350,1,,Aggregated,1.000000,0.000000,32,46,47,47,47,47,62,78,420,420,420,507,0,32,38.99211045129581,15.999999945051968,421.9999999040738,20.0
1621967351,1,,Aggregated,0.900000,0.000000,32,46,47,47,47,47,62,120,420,420,420,508,0,32,39.22440944648326,15.999999945051968,421.9999999040738,20.0
1621967352,1,,Aggregated,0.900000,0.000000,32,46,47,47,47,47,62,120,420,420,420,509,0,32,39.239685655862445,15.999999945051968,421.9999999040738,20.0
1621967353,1,,Aggregated,0.900000,0.000000,32,46,47,47,47,47,62,120,420,420,420,510,0,32,39.223529409398054,15.999999945051968,421.9999999040738,20.0
1621967354,1,,Aggregated,0.900000,0.000000,32,46,47,47,47,47,62,120,420,420,420,511,0,32,39.23874755149412,15.999999945051968,421.9999999040738,20.0
1621967355,1,,Aggregated,0.900000,0.000000,32,46,47,47,47,47,62,120,420,420,420,512,0,32,39.25195312262986,15.999999945051968,421.9999999040738,20.0
1621967356,1,,Aggregated,0.900000,0.000000,32,46,47,47,47,47,62,120,420,420,420,513,0,32,39.26705652788884,15.999999945051968,421.9999999040738,20.0
1621967357,1,,Aggregated,0.900000,0.000000,32,46,47,47,47,47,62,120,420,420,420,514,0,32,39.25291828562937,15.999999945051968,421.9999999040738,20.0
1621967358,1,,Aggregated,0.900000,0.000000,32,46,47,47,47,47,62,120,420,420,420,515,0,32,39.26796116278444,15.999999945051968,421.9999999040738,20.0
1621967359,1,,Aggregated,0.900000,0.000000,32,46,47,47,47,47,62,120,420,420,420,516,0,32,39.25193798215699,15.999999945051968,421.9999999040738,20.0
1621967360,1,,Aggregated,1.000000,0.000000,32,46,47,47,47,47,62,120,420,420,420,517,0,32,39.23597678675441,15.999999945051968,421.9999999040738,20.0
1621967361,1,,Aggregated,0.900000,0.000000,32,46,47,47,47,47,62,120,420,420,420,518,0,32,39.22007721781364,15.999999945051968,421.9999999040738,20.0
1621967362,1,,Aggregated,0.900000,0.000000,32,46,47,47,47,47,62,120,420,420,420,519,0,32,39.20423891888806,15.999999945051968,421.9999999040738,20.0
1621967363,1,,Aggregated,0.900000,0.000000,32,46,47,47,47,47,62,120,420,420,420,520,0,32,39.18846153627293,15.999999945051968,421.9999999040738,20.0
1621967364,1,,Aggregated,0.900000,0.000000,32,46,47,47,47,47,62,120,420,420,420,521,0,32,39.17466410531371,15.999999945051968,421.9999999040738,20.0
1621967365,1,,Aggregated,0.900000,0.000000,32,46,47,47,47,47,62,120,420,420,420,522,0,32,39.15900382939441,15.999999945051968,421.9999999040738,20.0
1621967366,1,,Aggregated,0.900000,0.000000,32,46,47,47,47,47,62,120,420,420,420,523,0,32,39.1434034395849,15.999999945051968,421.9999999040738,20.0
1621967367,1,,Aggregated,0.900000,0.000000,32,46,47,47,47,47,62,120,420,420,420,524,0,32,39.12786259324795,15.999999945051968,421.9999999040738,20.0
1621967368,1,,Aggregated,0.900000,0.000000,32,46,47,47,47,47,62,120,420,420,420,524,0,32,39.12786259324795,15.999999945051968,421.9999999040738,20.0
1621967369,1,,Aggregated,0.900000,0.000000,32,46,47,47,47,47,62,120,420,420,420,525,0,32,39.11238095013513,15.999999945051968,421.9999999040738,20.0
1621967370,1,,Aggregated,0.900000,0.000000,32,46,47,47,47,47,62,120,420,420,420,526,0,32,39.0988593133602,15.999999945051968,421.9999999040738,20.0
1621967371,1,,Aggregated,0.900000,0.000000,32,46,47,47,47,47,62,120,420,420,420,527,0,32,39.11385199022382,15.999999945051968,421.9999999040738,20.0
1621967372,1,,Aggregated,1.000000,0.000000,32,46,47,47,47,47,62,120,420,420,420,528,0,32,39.098484846445814,15.999999945051968,421.9999999040738,20.0
1621967373,1,,Aggregated,1.000000,0.000000,32,46,47,47,47,47,62,120,420,420,420,529,0,32,39.113421548098074,15.999999945051968,421.9999999040738,20.0
1621967374,1,,Aggregated,1.000000,0.000000,32,46,47,47,47,47,62,120,420,420,420,530,0,32,39.126415092295986,15.999999945051968,421.9999999040738,20.0
1621967375,1,,Aggregated,1.000000,0.000000,32,46,47,47,47,47,62,120,420,420,420,531,0,32,39.141242935851906,15.999999945051968,421.9999999040738,20.0
1621967376,1,,Aggregated,1.000000,0.000000,32,46,47,47,47,47,62,120,420,420,420,532,0,32,39.15601503563506,15.999999945051968,421.9999999040738,20.0
1621967377,1,,Aggregated,1.000000,0.000000,32,46,47,47,47,47,62,120,420,420,420,533,0,32,39.140712943777274,15.999999945051968,421.9999999040738,20.0
1621967378,1,,Aggregated,1.000000,0.000000,32,46,47,47,47,47,62,120,420,420,420,534,0,32,39.155430709838534,15.999999945051968,421.9999999040738,20.0
1621967379,1,,Aggregated,1.000000,0.000000,32,46,47,47,47,47,62,120,420,420,420,535,0,32,39.140186914042616,15.999999945051968,421.9999999040738,20.0
1621967380,1,,Aggregated,1.000000,0.000000,32,46,47,47,47,47,62,120,420,420,420,536,0,32,39.12686566981216,15.999999945051968,421.9999999040738,20.0
1621967381,1,,Aggregated,1.000000,0.000000,32,46,47,47,47,47,62,120,420,420,420,537,0,32,39.11359403915426,15.999999945051968,421.9999999040738,20.0
1621967382,1,,Aggregated,0.900000,0.000000,32,46,47,47,47,47,62,120,420,420,420,538,0,32,39.09851300926554,15.999999945051968,421.9999999040738,20.0
1621967383,1,,Aggregated,0.900000,0.000000,32,46,47,47,47,47,62,120,420,420,420,539,0,32,39.08348793867139,15.999999945051968,421.9999999040738,20.0
1621967384,1,,Aggregated,0.900000,0.000000,32,46,47,47,47,47,62,120,420,420,420,540,0,32,39.068518516486854,15.999999945051968,421.9999999040738,20.0
1621967385,1,,Aggregated,0.900000,0.000000,32,46,47,47,47,47,62,120,420,420,420,541,0,32,39.08317929560701,15.999999945051968,421.9999999040738,20.0
1621967386,1,,Aggregated,0.900000,0.000000,32,46,47,47,47,47,62,120,420,420,420,542,0,32,39.068265680809645,15.999999945051968,421.9999999040738,20.0
1621967387,1,,Aggregated,0.900000,0.000000,32,46,47,47,47,47,62,120,420,420,420,543,0,32,39.05340699623913,15.999999945051968,421.9999999040738,20.0
1621967388,1,,Aggregated,0.900000,0.000000,32,46,47,47,47,47,62,120,420,420,420,544,0,32,39.04044117456686,15.999999945051968,421.9999999040738,20.0
1621967389,1,,Aggregated,0.900000,0.000000,32,46,47,47,47,47,62,120,420,420,420,545,0,32,39.02752293389154,15.999999945051968,421.9999999040738,20.0
1621967390,1,,Aggregated,0.900000,0.000000,32,46,47,47,47,47,62,120,420,420,420,546,0,32,39.04212454027725,15.999999945051968,421.9999999040738,20.0
1621967391,1,,Aggregated,0.900000,0.000000,32,46,47,47,47,47,62,120,420,420,420,547,0,32,39.02742230176749,15.999999945051968,421.9999999040738,20.0
1621967392,1,,Aggregated,1.000000,0.000000,32,46,47,47,47,47,62,120,420,420,420,548,0,32,39.01277372085006,15.999999945051968,421.9999999040738,20.0
1621967393,1,,Aggregated,1.000000,0.000000,32,46,47,47,47,47,62,120,420,420,420,548,0,32,39.01277372085006,15.999999945051968,421.9999999040738,20.0
1621967394,1,,Aggregated,1.000000,0.000000,32,46,47,47,47,47,62,120,420,420,420,549,0,32,38.99999999823744,15.999999945051968,421.9999999040738,20.0
1621967395,1,,Aggregated,1.000000,0.000000,32,46,47,47,47,47,62,120,420,420,420,550,0,32,38.98545454362068,15.999999945051968,421.9999999040738,20.0
1621967396,1,,Aggregated,1.000000,0.000000,32,46,47,47,47,47,62,120,420,420,420,551,0,32,38.972776767691286,15.999999945051968,421.9999999040738,20.0
1621967397,1,,Aggregated,1.000000,0.000000,32,46,47,47,47,47,62,120,420,420,420,552,0,32,38.98731883880142,15.999999945051968,421.9999999040738,20.0
1621967398,1,,Aggregated,1.000000,0.000000,32,46,47,47,47,47,62,120,420,420,420,553,0,32,38.99999999817609,15.999999945051968,421.9999999040738,20.0
1621967399,1,,Aggregated,1.000000,0.000000,32,46,47,47,47,47,62,120,420,420,420,554,0,32,39.014440431429364,15.999999945051968,421.9999999040738,20.0
1621967400,1,,Aggregated,1.000000,0.000000,32,46,47,47,47,47,62,120,420,420,420,555,0,32,39.02882882687557,15.999999945051968,421.9999999040738,20.0
1621967401,1,,Aggregated,1.000000,0.000000,32,46,47,47,47,47,62,120,420,420,420,556,0,32,39.01618704842169,15.999999945051968,421.9999999040738,20.0
1621967402,1,,Aggregated,1.000000,0.000000,32,46,47,47,47,47,62,120,420,420,420,557,0,32,39.00359066235005,15.999999945051968,421.9999999040738,20.0
1621967403,1,,Aggregated,0.900000,0.000000,32,46,47,47,47,47,62,120,420,420,420,558,0,32,39.01792114507073,15.999999945051968,421.9999999040738,20.0
1621967404,1,,Aggregated,0.900000,0.000000,32,46,47,47,47,47,62,120,420,420,420,559,0,32,39.00357781578695,15.999999945051968,421.9999999040738,20.0
1621967405,1,,Aggregated,0.900000,0.000000,32,46,47,47,47,47,62,120,420,420,420,560,0,32,38.9892857124713,15.999999945051968,421.9999999040738,20.0
1621967406,1,,Aggregated,0.900000,0.000000,32,46,47,47,47,47,62,120,420,420,420,561,0,32,39.03030302855327,15.999999945051968,421.9999999040738,20.0
1621967407,1,,Aggregated,0.900000,0.000000,32,46,47,47,47,47,62,120,420,420,420,562,0,32,39.016014233055884,15.999999945051968,421.9999999040738,20.0
1621967408,1,,Aggregated,0.900000,0.000000,32,46,47,47,47,47,62,120,420,420,420,563,0,32,39.03019538010284,15.999999945051968,421.9999999040738,20.0
1621967409,1,,Aggregated,0.900000,0.000000,32,46,47,47,47,47,62,120,420,420,420,564,0,32,39.0443262393943,15.999999945051968,421.9999999040738,20.0
1621967410,1,,Aggregated,0.900000,0.000000,32,46,47,47,47,47,62,120,420,420,420,565,0,32,39.03008849376533,15.999999945051968,421.9999999040738,20.0
1621967411,1,,Aggregated,0.900000,0.000000,32,46,47,47,47,47,62,120,420,420,420,566,0,32,39.01766784272779,15.999999945051968,421.9999999040738,20.0
1621967412,1,,Aggregated,0.900000,0.000000,32,46,47,47,47,47,62,120,420,420,420,567,0,32,39.03174602999015,15.999999945051968,421.9999999040738,20.0
1621967413,1,,Aggregated,1.000000,0.000000,32,46,47,47,47,47,62,120,420,420,420,568,0,32,39.04577464617061,15.999999945051968,421.9999999040738,20.0
