Timestamp,User Count,Type,Name,Requests/s,Failures/s,50%,66%,75%,80%,90%,95%,98%,99%,99.9%,99.99%,100%,Total Request Count,Total Failure Count,Total Median Response Time,Total Average Response Time,Total Min Response Time,Total Max Response Time,Total Average Content Size
1621966527,1,,Aggregated,0.000000,0.000000,N/A,N/A,N/A,N/A,N/A,N/A,N/A,N/A,N/A,N/A,N/A,0,0,0,0,0,0,0
1621966528,62,,Aggregated,0.000000,0.000000,160,170,170,190,190,200,200,220,220,220,220,54,0,160.0,155.0740740861295,94.0000000409782,219.0000000409782,20.0
1621966529,123,,Aggregated,0.000000,0.000000,160,160,170,170,190,200,200,200,220,220,220,114,0,160.0,151.64035088443933,94.0000000409782,219.0000000409782,20.0
1621966531,190,,Aggregated,0.000000,0.000000,140,160,160,170,190,190,200,200,220,220,220,179,0,140.0,147.4525139708717,92.99999999348074,219.0000000409782,20.0
1621966532,249,,Aggregated,39.000000,0.000000,140,160,170,170,190,200,220,280,380,380,380,282,0,140.0,143.67730496864078,45.999999972991645,375.0,20.0
1621966533,250,,Aggregated,44.750000,0.000000,140,160,160,170,190,200,280,1200,1700,1700,1700,362,0,140.0,146.1491712741425,30.999999959021807,1672.000000020489,20.0
1621966534,250,,Aggregated,44.750000,0.000000,120,140,160,170,190,200,280,1200,1700,1700,1700,425,0,120.0,137.48470588614617,30.999999959021807,1672.000000020489,20.0
1621966535,250,,Aggregated,60.166667,0.000000,110,140,160,160,170,190,220,1100,1700,1700,1700,535,0,110.0,121.91214953423,30.999999959021807,1672.000000020489,20.0
1621966536,250,,Aggregated,60.714286,0.000000,94,140,140,160,170,190,220,380,1700,1700,1700,613,0,94,115.04078303561751,30.999999959021807,1672.000000020489,20.0
1621966537,250,,Aggregated,66.250000,0.000000,79,120,140,160,170,190,220,380,1700,1700,1700,679,0,79,109.88365243112227,30.999999959021807,1672.000000020489,20.0
1621966538,250,,Aggregated,67.777778,0.000000,78,110,140,140,170,190,220,360,1700,1700,1700,782,0,78,104.5204603580384,30.999999959021807,1672.000000020489,20.0
1621966539,250,,Aggregated,67.600000,0.000000,78,110,140,140,170,190,200,280,1700,1700,1700,862,0,78,100.47215777257536,30.999999959021807,1672.000000020489,20.0
1621966540,250,,Aggregated,77.800000,0.000000,78,110,120,140,170,190,220,380,1900,1900,1900,928,0,78,102.90948275887159,15.999999945051968,1891.0000000614673,20.0
1621966541,250,,Aggregated,80.500000,0.000000,63,94,120,140,160,190,200,360,1700,1900,1900,1041,0,63,97.45629202660824,15.999999945051968,1891.0000000614673,20.0
1621966542,250,,Aggregated,80.900000,0.000000,63,93,110,140,160,170,200,280,1700,1900,1900,1114,0,63,94.27468581676911,15.999999945051968,1891.0000000614673,20.0
1621966543,250,,Aggregated,85.600000,0.000000,63,79,110,120,160,170,200,280,1700,1900,1900,1178,0,63,92.53480475376548,15.999999945051968,1891.0000000614673,20.0
1621966544,250,,Aggregated,83.000000,0.000000,63,78,110,120,160,170,200,250,1700,1900,1900,1291,0,63,89.61890007698898,15.999999945051968,1891.0000000614673,20.0
1621966545,250,,Aggregated,81.600000,0.000000,62,78,110,120,160,170,200,230,1700,1900,1900,1366,0,62,87.37994143470037,15.000000013969839,1891.0000000614673,20.0
1621966546,250,,Aggregated,86.100000,0.000000,62,78,94,120,160,170,200,220,1700,1900,1900,1431,0,62,86.03424178862686,15.000000013969839,1891.0000000614673,20.0
1621966547,250,,Aggregated,83.200000,0.000000,62,78,94,110,160,170,200,220,1700,1900,1900,1542,0,62,83.37159533006526,15.000000013969839,1891.0000000614673,20.0
1621966548,250,,Aggregated,81.600000,0.000000,62,78,94,110,160,170,200,220,1700,1900,1900,1618,0,62,81.98454882496304,15.000000013969839,1891.0000000614673,20.0
1621966549,250,,Aggregated,85.300000,0.000000,62,78,94,110,140,170,200,220,1700,1900,1900,1682,0,62,81.17776456555876,15.000000013969839,1891.0000000614673,20.0
1621966550,250,,Aggregated,83.400000,0.000000,62,78,93,110,140,170,190,220,1700,1900,1900,1796,0,62,79.06458797217202,15.000000013969839,1891.0000000614673,20.0
1621966551,250,,Aggregated,81.600000,0.000000,62,78,79,94,140,170,190,220,1700,1900,1900,1869,0,62,78.15569823352673,15.000000013969839,1891.0000000614673,20.0
1621966552,250,,Aggregated,85.900000,0.000000,62,63,79,94,140,170,190,220,1700,1900,1900,1932,0,62,77.62370600349918,15.000000013969839,1891.0000000614673,20.0
1621966553,250,,Aggregated,82.500000,0.000000,47,63,78,94,140,170,190,220,1700,1900,1900,2048,0,47,76.32275390551513,15.000000013969839,1891.0000000614673,20.0
1621966554,250,,Aggregated,81.600000,0.000000,47,63,78,94,140,170,190,220,1700,1900,1900,2118,0,47,75.61520302113729,15.000000013969839,1891.0000000614673,20.0
1621966555,250,,Aggregated,85.500000,0.000000,47,63,78,94,140,170,190,220,1700,1900,1900,2183,0,47,74.89738891366656,15.000000013969839,1891.0000000614673,20.0
1621966556,250,,Aggregated,82.700000,0.000000,47,63,78,94,140,170,190,220,1700,1900,1900,2298,0,47,73.90295909396498,15.000000013969839,1891.0000000614673,20.0
1621966557,250,,Aggregated,81.200000,0.000000,47,63,78,93,140,160,190,220,1700,1900,1900,2370,0,47,73.19704641259908,15.000000013969839,1891.0000000614673,20.0
1621966558,250,,Aggregated,85.900000,0.000000,47,63,78,93,140,160,190,220,1700,1900,1900,2434,0,47,72.99917830661667,15.000000013969839,1891.0000000614673,20.0
1621966559,250,,Aggregated,83.400000,0.000000,47,63,78,93,140,160,190,220,1700,1900,1900,2550,0,47,72.00549019537135,15.000000013969839,1891.0000000614673,20.0
1621966560,250,,Aggregated,81.400000,0.000000,47,63,78,79,140,160,190,220,1700,1900,1900,2620,0,47,71.33931297669365,15.000000013969839,1891.0000000614673,20.0
1621966561,250,,Aggregated,85.900000,0.000000,47,63,78,79,140,160,190,220,1700,1900,1900,2684,0,47,71.01154992517033,15.000000013969839,1891.0000000614673,20.0
1621966562,250,,Aggregated,82.900000,0.000000,47,63,78,78,140,160,190,220,1700,1900,1900,2802,0,47,70.34832262616874,15.000000013969839,1891.0000000614673,20.0
1621966563,250,,Aggregated,81.400000,0.000000,47,63,78,78,120,160,190,220,1700,1900,1900,2872,0,47,70.01880222794011,15.000000013969839,1891.0000000614673,20.0
1621966564,250,,Aggregated,85.700000,0.000000,47,63,78,78,120,160,190,220,1700,1900,1900,2937,0,47,69.56554307068984,15.000000013969839,1891.0000000614673,20.0
1621966565,250,,Aggregated,83.100000,0.000000,47,63,78,78,120,160,190,200,1600,1900,1900,3055,0,47,68.97643207791131,15.000000013969839,1891.0000000614673,20.0
1621966566,250,,Aggregated,81.200000,0.000000,47,63,78,78,120,160,190,200,1600,1900,1900,3122,0,47,68.57559256826741,15.000000013969839,1891.0000000614673,20.0
1621966567,250,,Aggregated,85.900000,0.000000,47,63,78,78,120,160,190,200,1600,1900,1900,3190,0,47,67.97711598689793,15.000000013969839,1891.0000000614673,20.0
1621966568,250,,Aggregated,82.600000,0.000000,47,62,78,78,120,160,190,200,1600,1900,1900,3307,0,47,67.47142425106739,15.000000013969839,1891.0000000614673,20.0
1621966569,250,,Aggregated,81.300000,0.000000,47,62,63,78,120,160,190,200,1600,1900,1900,3375,0,47,66.98459259217123,15.000000013969839,1891.0000000614673,20.0
1621966570,250,,Aggregated,85.500000,0.000000,47,62,63,78,120,160,190,200,1600,1900,1900,3442,0,47,66.63044741380482,15.000000013969839,1891.0000000614673,20.0
1621966571,250,,Aggregated,82.700000,0.000000,47,62,63,78,120,160,190,200,1600,1900,1900,3557,0,47,65.96682597648055,15.000000013969839,1891.0000000614673,20.0
1621966572,250,,Aggregated,81.200000,0.000000,47,62,63,78,120,160,190,200,1600,1900,1900,3625,0,47,65.6598620685781,15.000000013969839,1891.0000000614673,20.0
1621966573,250,,Aggregated,86.000000,0.000000,47,62,63,78,120,160,190,200,1600,1900,1900,3693,0,47,65.47170322187418,15.000000013969839,1891.0000000614673,20.0
1621966574,250,,Aggregated,82.900000,0.000000,47,62,63,78,110,160,190,200,1600,1900,1900,3814,0,47,65.18222338684328,15.000000013969839,1891.0000000614673,20.0
1621966575,250,,Aggregated,81.100000,0.000000,47,62,63,78,110,160,190,200,1600,1900,1900,3878,0,47,64.8563692619452,15.000000013969839,1891.0000000614673,20.0
1621966576,250,,Aggregated,85.500000,0.000000,47,62,63,78,110,160,190,200,1600,1900,1900,3944,0,47,64.53575050656312,15.000000013969839,1891.0000000614673,20.0
1621966577,250,,Aggregated,82.800000,0.000000,47,62,63,78,110,140,190,200,1600,1900,1900,4065,0,47,64.37097170921719,15.000000013969839,1891.0000000614673,20.0
1621966578,250,,Aggregated,81.500000,0.000000,47,62,63,78,110,140,190,200,1600,1900,1900,4128,0,47,64.1739341081966,15.000000013969839,1891.0000000614673,20.0
